<!-- Created by MetaPost 2.000 on 2020.07.05:0945 --><svg xmlns="http://www.w3.org/2000/svg" xmlns:xlink="http://www.w3.org/1999/xlink" version="1.1" width="350" height="550" viewBox="0 0 350 550">
<!-- Original BoundingBox: 32.850385 -26.677160 55.023610 86.204705 -->
  <path d="M42.519675 108.677160C48.002546 102.394704,51.023610 94.338533,51.023610 86.000000L51.023610 29.307100C47.625047 35.193583,42.736868 40.081762,36.850385 43.480325" style="stroke:rgb(0.000000%,0.000000%,0.000000%); stroke-width: 0.000000;stroke-linecap: round;stroke-linejoin: round;stroke-miterlimit: 10.000000;fill: none;"/>
  <path d="M51.023610 9.464585L51.023610 3.795295" style="stroke:rgb(0.000000%,0.000000%,0.000000%); stroke-width: 0.000000;stroke-linecap: round;stroke-linejoin: round;stroke-miterlimit: 10.000000;fill: none;"/>
</svg>