<!-- Created by MetaPost 2.000 on 2020.07.05:0857 --><svg xmlns="http://www.w3.org/2000/svg" xmlns:xlink="http://www.w3.org/1999/xlink" version="1.1" width="350" height="550" viewBox="0 0 350 550">
<!-- Original BoundingBox: -9.669290 -26.677160 60.692900 89.043721 -->
  <path d="M65.692900 111.677160L3.330710 40.811035L3.330710 57.818905C3.442530 74.993218,17.337492 88.888180,34.511805 89.000000C50.698513 89.105390,64.259710 76.777029,65.692900 60.653550" style="stroke:rgb(0.000000%,0.000000%,0.000000%); stroke-width: 0.000000;stroke-linecap: round;stroke-linejoin: round;stroke-miterlimit: 10.000000;fill: none;"/>
  <path d="M3.330710 29.472455C6.098172 14.494129,19.282068 3.707306,34.511805 3.960650C51.613426 4.245133,65.408417 18.040124,65.692900 35.141745L65.692900 49.314970" style="stroke:rgb(0.000000%,0.000000%,0.000000%); stroke-width: 0.000000;stroke-linecap: round;stroke-linejoin: round;stroke-miterlimit: 10.000000;fill: none;"/>
</svg>