<!-- Created by MetaPost 2.000 on 2020.07.05:0754 --><svg xmlns="http://www.w3.org/2000/svg" xmlns:xlink="http://www.w3.org/1999/xlink" version="1.1" width="350" height="550" viewBox="0 0 350 550">
<!-- Original BoundingBox: -4.000000 -7.343877 55.023610 86.917457 -->
  <path d="M55.023610 13.716553C53.253964 12.145770,51.357772 10.723626,49.354320 9.464585C34.444782 0.094900,14.957741 0.657626,4.000000 13.716553" style="stroke:rgb(0.000000%,0.000000%,0.000000%); stroke-width: 0.000000;stroke-linecap: round;stroke-linejoin: round;stroke-miterlimit: 10.000000;fill: none;"/>
  <path d="M4.000000 25.055132C15.420677 44.836325,43.602933 47.793615,55.023610 67.574807" style="stroke:rgb(0.000000%,0.000000%,0.000000%); stroke-width: 0.000000;stroke-linecap: round;stroke-linejoin: round;stroke-miterlimit: 10.000000;fill: none;"/>
  <path d="M55.023610 78.913387C45.536402 90.219802,29.196375 91.926545,15.338580 86.000000C11.216071 84.236932,7.391273 81.846433,4.000000 78.913387" style="stroke:rgb(0.000000%,0.000000%,0.000000%); stroke-width: 0.000000;stroke-linecap: round;stroke-linejoin: round;stroke-miterlimit: 10.000000;fill: none;"/>
</svg>