<?xml version="1.0" encoding="UTF-8"?>
<glyph name="L" format="2">
  <advance width="700"/>
  <unicode hex="004C"/>
  <outline>
    <contour>
      <point x="610" y="48" type="move" smooth="yes"/>
    </contour>
    <contour>
      <point x="193" y="9" type="line" smooth="yes"/>
      <point x="193" y="10"/>
      <point x="194" y="11" type="qcurve" smooth="yes"/>
      <point x="240" y="57" type="line"/>
      <point x="251" y="59"/>
      <point x="289" y="66"/>
      <point x="393" y="78"/>
      <point x="481" y="82"/>
      <point x="577" y="72"/>
      <point x="602" y="57" type="qcurve"/>
      <point x="609" y="50" type="line"/>
      <point x="610" y="50" type="line"/>
      <point x="610" y="49"/>
      <point x="610" y="48" type="qcurve" smooth="yes"/>
      <point x="564" y="2" type="line" smooth="yes"/>
      <point x="563" y="1"/>
      <point x="562" y="2" type="qcurve" smooth="yes"/>
      <point x="478" y="50"/>
      <point x="286" y="50"/>
      <point x="202" y="2" type="qcurve" smooth="yes"/>
      <point x="201" y="1"/>
      <point x="200" y="2" type="qcurve" smooth="yes"/>
    </contour>
    <contour>
      <point x="395.5" y="830" type="qcurve" smooth="yes"/>
      <point x="396" y="830" type="line"/>
      <point x="403" y="823" type="line"/>
      <point x="404" y="822" type="line"/>
      <point x="404" y="613"/>
      <point x="271" y="215"/>
      <point x="146" y="48" type="qcurve"/>
      <point x="100" y="2" type="line" smooth="yes"/>
      <point x="98" y="1"/>
      <point x="98" y="2" type="qcurve" smooth="yes"/>
      <point x="91" y="9" type="line" smooth="yes"/>
      <point x="90" y="10"/>
      <point x="90" y="11" type="qcurve" smooth="yes"/>
      <point x="216" y="178"/>
      <point x="348" y="574"/>
      <point x="348" y="783" type="qcurve" smooth="yes"/>
      <point x="348" y="784" type="line"/>
      <point x="394" y="830" type="line" smooth="yes"/>
      <point x="395" y="830"/>
    </contour>
  </outline>
</glyph>
