<?xml version="1.0" encoding="UTF-8"?>
<glyph name="parenright" format="2">
  <advance width="700"/>
  <unicode hex="0029"/>
  <outline>
    <contour>
      <point x="129" y="777.5" type="qcurve" smooth="yes"/>
      <point x="129" y="778" type="line"/>
      <point x="175" y="824" type="line"/>
      <point x="176" y="825" type="line"/>
      <point x="255" y="825"/>
      <point x="397" y="765"/>
      <point x="451" y="711" type="qcurve" smooth="yes"/>
      <point x="458" y="704" type="line"/>
      <point x="458" y="703" type="line"/>
      <point x="484" y="677"/>
      <point x="526" y="615"/>
      <point x="556" y="546"/>
      <point x="571" y="469"/>
      <point x="571" y="429" type="qcurve" smooth="yes"/>
      <point x="571" y="351"/>
      <point x="511" y="209"/>
      <point x="458" y="155" type="qcurve" smooth="yes"/>
      <point x="412" y="109" type="line" smooth="yes"/>
      <point x="358" y="55"/>
      <point x="216" y="-5"/>
      <point x="137" y="-5" type="qcurve"/>
      <point x="136" y="-4" type="line"/>
      <point x="129" y="3" type="line" smooth="yes"/>
      <point x="129" y="4"/>
      <point x="129" y="4.5" type="qcurve" smooth="yes"/>
      <point x="129" y="5" type="line"/>
      <point x="175" y="51" type="line"/>
      <point x="176" y="51" type="line" smooth="yes"/>
      <point x="317" y="51"/>
      <point x="424" y="142" type="qcurve"/>
      <point x="515" y="250"/>
      <point x="515" y="391" type="qcurve" smooth="yes"/>
      <point x="515" y="467"/>
      <point x="458" y="606"/>
      <point x="406" y="659" type="qcurve" smooth="yes"/>
      <point x="353" y="711"/>
      <point x="214" y="769"/>
      <point x="137" y="769" type="qcurve" smooth="yes"/>
      <point x="136" y="769" type="line"/>
      <point x="129" y="776" type="line" smooth="yes"/>
      <point x="129" y="777"/>
    </contour>
  </outline>
</glyph>
