<?xml version="1.0" encoding="UTF-8"?>
<glyph name="question" format="2">
  <advance width="700"/>
  <unicode hex="003F"/>
  <outline>
    <contour>
      <point x="291" y="2"/>
      <point x="291" y="3" type="qcurve" smooth="yes"/>
      <point x="284" y="10" type="line" smooth="yes"/>
      <point x="283" y="10"/>
      <point x="283" y="11" type="qcurve" smooth="yes"/>
      <point x="283" y="36" type="line" smooth="yes"/>
      <point x="283" y="37"/>
      <point x="284" y="38" type="qcurve" smooth="yes"/>
      <point x="330" y="84" type="line"/>
      <point x="330.5" y="84" type="line" smooth="yes"/>
      <point x="331" y="84"/>
      <point x="332" y="83" type="qcurve" smooth="yes"/>
      <point x="339" y="76" type="line"/>
      <point x="339" y="75" type="line"/>
      <point x="339" y="50" type="line"/>
      <point x="339" y="49" type="line"/>
      <point x="293" y="3" type="line" smooth="yes"/>
      <point x="292" y="2"/>
    </contour>
    <contour>
      <point x="98.5" y="569" type="line" smooth="yes"/>
      <point x="98" y="569"/>
      <point x="98" y="570" type="qcurve" smooth="yes"/>
      <point x="91" y="577" type="line" smooth="yes"/>
      <point x="90" y="577"/>
      <point x="90" y="578" type="qcurve" smooth="yes"/>
      <point x="100" y="659"/>
      <point x="157" y="716" type="qcurve" smooth="yes"/>
      <point x="203" y="762" type="line"/>
      <point x="203" y="763" type="line"/>
      <point x="272" y="831"/>
      <point x="467" y="831"/>
      <point x="536" y="762" type="qcurve" smooth="yes"/>
      <point x="543" y="755" type="line" smooth="yes"/>
      <point x="600" y="697"/>
      <point x="610" y="617" type="qcurve" smooth="yes"/>
      <point x="610" y="616"/>
      <point x="609" y="615" type="qcurve" smooth="yes"/>
      <point x="563" y="569" type="line" smooth="yes"/>
      <point x="562" y="569"/>
      <point x="561" y="570" type="qcurve" smooth="yes"/>
      <point x="554" y="577" type="line"/>
      <point x="545" y="655"/>
      <point x="491" y="711" type="qcurve" smooth="yes"/>
      <point x="424" y="775"/>
      <point x="331" y="775" type="qcurve" smooth="yes"/>
      <point x="253" y="775"/>
      <point x="191" y="729" type="qcurve"/>
      <point x="153" y="679"/>
      <point x="146" y="616" type="qcurve"/>
      <point x="100" y="570" type="line"/>
      <point x="99" y="569" type="line"/>
    </contour>
    <contour>
      <point x="291" y="208"/>
      <point x="291" y="209" type="qcurve" smooth="yes"/>
      <point x="284" y="216" type="line" smooth="yes"/>
      <point x="283" y="216"/>
      <point x="283" y="217" type="qcurve" smooth="yes"/>
      <point x="283" y="257"/>
      <point x="306" y="285" type="qcurve" smooth="yes"/>
      <point x="314" y="297"/>
      <point x="324" y="307" type="qcurve" smooth="yes"/>
      <point x="325" y="308" type="line"/>
      <point x="371" y="354" type="line" smooth="yes"/>
      <point x="390" y="373"/>
      <point x="449" y="408"/>
      <point x="483" y="426" type="qcurve" smooth="yes"/>
      <point x="514.875" y="442.875"/>
      <point x="534.445" y="457.113" type="qcurve"/>
      <point x="542" y="476" type="line"/>
      <point x="587" y="522" type="line" smooth="yes"/>
      <point x="588" y="522"/>
      <point x="589" y="522" type="qcurve" smooth="yes"/>
      <point x="590" y="522" type="line"/>
      <point x="597" y="514" type="line"/>
      <point x="593" y="504"/>
      <point x="587" y="495" type="qcurve" smooth="yes"/>
      <point x="576" y="469"/>
      <point x="555" y="448" type="qcurve" smooth="yes"/>
      <point x="509" y="402" type="line" smooth="yes"/>
      <point x="481" y="374"/>
      <point x="416" y="343" type="qcurve" smooth="yes"/>
      <point x="374.016" y="322.977"/>
      <point x="350.388" y="308.794" type="qcurve"/>
      <point x="339" y="284.675"/>
      <point x="339" y="256" type="qcurve" smooth="yes"/>
      <point x="339" y="255" type="line"/>
      <point x="293" y="209" type="line" smooth="yes"/>
      <point x="292" y="208"/>
    </contour>
  </outline>
</glyph>
