<?xml version="1.0" encoding="UTF-8" standalone="no"?>
<!-- Created with Inkscape (http://www.inkscape.org/) -->

<svg
   width="420mm"
   height="297mm"
   viewBox="0 0 420 297"
   version="1.1"
   id="svg5"
   inkscape:version="1.2 (dc2aedaf03, 2022-05-15)"
   sodipodi:docname="specimen_6_p1.svg"
   inkscape:export-filename="../monospace/specimen_6_p1.png"
   inkscape:export-xdpi="300"
   inkscape:export-ydpi="300"
   xmlns:inkscape="http://www.inkscape.org/namespaces/inkscape"
   xmlns:sodipodi="http://sodipodi.sourceforge.net/DTD/sodipodi-0.dtd"
   xmlns="http://www.w3.org/2000/svg"
   xmlns:svg="http://www.w3.org/2000/svg">
  <sodipodi:namedview
     id="namedview7"
     pagecolor="#ffffff"
     bordercolor="#666666"
     borderopacity="1.0"
     inkscape:showpageshadow="2"
     inkscape:pageopacity="0.0"
     inkscape:pagecheckerboard="0"
     inkscape:deskcolor="#d1d1d1"
     inkscape:document-units="mm"
     showgrid="false"
     showguides="true"
     inkscape:zoom="0.52095061"
     inkscape:cx="524.042"
     inkscape:cy="685.28569"
     inkscape:window-width="1920"
     inkscape:window-height="1007"
     inkscape:window-x="0"
     inkscape:window-y="0"
     inkscape:window-maximized="1"
     inkscape:current-layer="svg5">
    <inkscape:grid
       type="xygrid"
       id="grid132"
       units="cm"
       originx="10"
       spacingx="10"
       spacingy="10" />
    <sodipodi:guide
       position="9.649827,261.9559"
       orientation="1,0"
       id="guide134"
       inkscape:locked="false" />
    <sodipodi:guide
       position="103.60867,286.8423"
       orientation="0,-1"
       id="guide186"
       inkscape:locked="false" />
    <sodipodi:guide
       position="409.86371,147.17374"
       orientation="1,0"
       id="guide188"
       inkscape:locked="false" />
    <sodipodi:guide
       position="36.706595,9.5576184"
       orientation="0,-1"
       id="guide190"
       inkscape:locked="false" />
    <sodipodi:guide
       position="209.73155,101.63362"
       orientation="1,0"
       id="guide654"
       inkscape:locked="false" />
  </sodipodi:namedview>
  <defs
     id="defs2">
    <rect
       x="881.94051"
       y="186.55073"
       width="551.25373"
       height="760.57929"
       id="rect1042" />
    <rect
       x="37.489624"
       y="36.777319"
       width="755.17156"
       height="154.04849"
       id="rect6398" />
    <rect
       x="32.525424"
       y="-116.42934"
       width="195.57507"
       height="52.486552"
       id="rect4630" />
    <rect
       x="32.525425"
       y="-116.42934"
       width="195.57507"
       height="52.486553"
       id="rect4630-3" />
    <rect
       x="32.525425"
       y="-116.42934"
       width="379.41785"
       height="41.80905"
       id="rect4630-3-5" />
    <rect
       x="32.525425"
       y="-116.42934"
       width="195.57507"
       height="52.486553"
       id="rect4630-9" />
    <rect
       x="32.525425"
       y="-116.42934"
       width="195.57507"
       height="52.486553"
       id="rect4630-3-5-8" />
    <rect
       x="32.525425"
       y="-116.42934"
       width="195.57507"
       height="52.486553"
       id="rect4630-9-9" />
    <rect
       x="32.525425"
       y="-116.42934"
       width="195.57507"
       height="52.486553"
       id="rect4630-9-9-6" />
    <rect
       x="37.489624"
       y="36.777321"
       width="133.34328"
       height="1136.5832"
       id="rect6398-7" />
    <rect
       x="37.489624"
       y="36.777321"
       width="755.17157"
       height="154.04849"
       id="rect6398-4" />
    <rect
       x="37.489624"
       y="36.777321"
       width="133.34328"
       height="1136.5833"
       id="rect6398-7-0" />
    <rect
       x="37.489624"
       y="36.777321"
       width="755.17157"
       height="154.04849"
       id="rect6398-6" />
    <rect
       x="37.489624"
       y="36.777321"
       width="755.17157"
       height="154.04849"
       id="rect6398-4-1" />
    <rect
       x="37.489624"
       y="36.777321"
       width="134.85358"
       height="1150.0347"
       id="rect6398-7-06" />
    <rect
       x="37.489624"
       y="36.777321"
       width="133.34328"
       height="1136.5833"
       id="rect6398-7-0-3" />
    <rect
       x="37.489624"
       y="36.777321"
       width="755.17157"
       height="154.04849"
       id="rect6398-5" />
    <rect
       x="37.489624"
       y="36.777321"
       width="755.17157"
       height="154.04849"
       id="rect6398-4-4" />
    <rect
       x="37.489624"
       y="36.777321"
       width="133.34328"
       height="1136.5833"
       id="rect6398-7-7" />
    <rect
       x="37.489624"
       y="36.777321"
       width="133.34328"
       height="1136.5833"
       id="rect6398-7-0-6" />
    <rect
       x="37.489624"
       y="36.777321"
       width="755.17157"
       height="154.04849"
       id="rect6398-6-5" />
    <rect
       x="37.489624"
       y="36.777321"
       width="755.17157"
       height="154.04849"
       id="rect6398-4-1-6" />
    <rect
       x="37.489624"
       y="36.777321"
       width="134.85358"
       height="1150.0347"
       id="rect6398-7-06-9" />
    <rect
       x="37.489624"
       y="36.777321"
       width="133.34328"
       height="1136.5833"
       id="rect6398-7-0-3-3" />
    <rect
       x="37.489624"
       y="36.777321"
       width="755.17157"
       height="154.04849"
       id="rect6398-2" />
    <rect
       x="37.489624"
       y="36.777321"
       width="755.17157"
       height="154.04849"
       id="rect6398-4-8" />
    <rect
       x="37.489624"
       y="36.777321"
       width="136.80096"
       height="1338.5289"
       id="rect6398-7-9" />
    <rect
       x="37.489624"
       y="36.777321"
       width="146.06393"
       height="1349.9086"
       id="rect6398-7-0-7" />
    <rect
       x="37.489624"
       y="36.777321"
       width="499.74824"
       height="1890.903"
       id="rect6398-6-3" />
    <rect
       x="37.489624"
       y="36.777321"
       width="755.17157"
       height="154.04849"
       id="rect6398-4-1-61" />
    <rect
       x="37.489624"
       y="36.777321"
       width="134.85358"
       height="1150.0347"
       id="rect6398-7-06-2" />
    <rect
       x="37.489624"
       y="36.777321"
       width="133.34328"
       height="1136.5833"
       id="rect6398-7-0-3-9" />
    <rect
       x="37.489624"
       y="36.777321"
       width="150.79077"
       height="1457.212"
       id="rect6398-7-0-7-0" />
  </defs>
  <rect
     style="fill:#ffffff;stroke:#ffffff;stroke-width:0.499999;stroke-linecap:round;stroke-linejoin:round"
     id="rect8326"
     width="482.21033"
     height="351.96484"
     x="-32.019833"
     y="-27.795494" />
  <text
     xml:space="preserve"
     transform="matrix(6.8079059,0,0,6.8079059,-5790.4668,-1294.0021)"
     id="text1040"
     style="font-style:normal;font-variant:normal;font-weight:normal;font-stretch:normal;font-size:40px;line-height:1.25;font-family:'Ductus Mono Geometric';-inkscape-font-specification:'Ductus Mono Geometric';white-space:pre;shape-inside:url(#rect1042);display:inline;fill:#ff80e5;fill-opacity:1;stroke:none"><tspan
       x="881.94141"
       y="223.55078"
       id="tspan30908">a</tspan></text>
  <g
     inkscape:label="Calque 1"
     inkscape:groupmode="layer"
     id="layer1" />
  <g
     inkscape:groupmode="layer"
     id="layer2"
     inkscape:label="Calque 2" />
  <text
     xml:space="preserve"
     transform="matrix(0.25929166,0,0,0.25929166,211.89673,42.825254)"
     id="text4628-2"
     style="font-style:normal;font-variant:normal;font-weight:normal;font-stretch:normal;font-size:26.6667px;line-height:1.25;font-family:'Ductus Mono Geometric';-inkscape-font-specification:'Ductus Mono Geometric';white-space:pre;shape-inside:url(#rect4630-9);display:inline;fill:#ff80e5;fill-opacity:1;stroke:none"><tspan
       x="32.525391"
       y="-91.76299"
       id="tspan30910">Ductus</tspan></text>
  <text
     xml:space="preserve"
     transform="matrix(0.25929166,0,0,0.25929166,330.45133,42.839714)"
     id="text4628-7-2"
     style="font-style:normal;font-variant:normal;font-weight:normal;font-stretch:normal;font-size:26.6667px;line-height:1.25;font-family:'Ductus Mono Geometric';-inkscape-font-specification:'Ductus Mono Geometric';white-space:pre;shape-inside:url(#rect4630-3-5);display:inline;fill:#ff80e5;fill-opacity:1;stroke:none"><tspan
       x="32.525391"
       y="-91.76299"
       id="tspan30912">Mono Geometric</tspan></text>
  <text
     xml:space="preserve"
     transform="matrix(0.25929166,0,0,0.25929166,-0.9587348,1.9879675)"
     id="text6396"
     style="font-style:normal;font-variant:normal;font-weight:normal;font-stretch:normal;font-size:96px;line-height:1.25;font-family:'Ductus Mono Geometric';-inkscape-font-specification:'Ductus Mono Geometric';white-space:pre;shape-inside:url(#rect6398);display:inline;fill:#ff80e5;fill-opacity:1;stroke:none"
     x="331.28128"
     y="0"><tspan
       x="45.475769"
       y="125.57734"
       id="tspan30916"><tspan
         style="text-align:center;text-anchor:middle"
         id="tspan30914">A B C D E F</tspan></tspan></text>
  <text
     xml:space="preserve"
     transform="matrix(0.25929166,0,0,0.25929166,-1.0374997,250.96918)"
     id="text6396-5"
     style="font-style:normal;font-variant:normal;font-weight:normal;font-stretch:normal;font-size:96px;line-height:1.25;font-family:'Ductus Mono Geometric';-inkscape-font-specification:'Ductus Mono Geometric';white-space:pre;shape-inside:url(#rect6398-4);display:inline;fill:#ff80e5;fill-opacity:1;stroke:none"
     x="331.28128"
     y="0"><tspan
       x="45.475769"
       y="125.57734"
       id="tspan30920"><tspan
         style="text-align:center;text-anchor:middle"
         id="tspan30918">S R Q P O N</tspan></tspan></text>
  <text
     xml:space="preserve"
     transform="matrix(0.25929166,0,0,0.25929166,166.53878,32.113227)"
     id="text6396-8"
     style="font-style:normal;font-variant:normal;font-weight:normal;font-stretch:normal;font-size:96px;line-height:1.25;font-family:'Ductus Mono Geometric';-inkscape-font-specification:'Ductus Mono Geometric';white-space:pre;shape-inside:url(#rect6398-7);display:inline;fill:#ff80e5;fill-opacity:1;stroke:none"
     x="331.28128"
     y="0"><tspan
       x="70.561096"
       y="125.57734"
       id="tspan30924"><tspan
         style="text-align:center;text-anchor:middle"
         id="tspan30922">G </tspan></tspan><tspan
       x="70.561096"
       y="245.57734"
       id="tspan30928"><tspan
         style="text-align:center;text-anchor:middle"
         id="tspan30926">H </tspan></tspan><tspan
       x="70.561096"
       y="365.57734"
       id="tspan30932"><tspan
         style="text-align:center;text-anchor:middle"
         id="tspan30930">I </tspan></tspan><tspan
       x="70.561096"
       y="485.57734"
       id="tspan30936"><tspan
         style="text-align:center;text-anchor:middle"
         id="tspan30934">J </tspan></tspan><tspan
       x="70.561096"
       y="605.57734"
       id="tspan30940"><tspan
         style="text-align:center;text-anchor:middle"
         id="tspan30938">K </tspan></tspan><tspan
       x="70.561096"
       y="725.57734"
       id="tspan30944"><tspan
         style="text-align:center;text-anchor:middle"
         id="tspan30942">L
</tspan></tspan><tspan
       x="70.561096"
       y="845.57734"
       id="tspan30948"><tspan
         style="text-align:center;text-anchor:middle"
         id="tspan30946">M </tspan></tspan></text>
  <text
     xml:space="preserve"
     transform="matrix(0.25929166,0,0,0.25929166,-7.3131485,31.831636)"
     id="text6396-8-3"
     style="font-style:normal;font-variant:normal;font-weight:normal;font-stretch:normal;font-size:96px;line-height:1.25;font-family:'Ductus Mono Geometric';-inkscape-font-specification:'Ductus Mono Geometric';white-space:pre;shape-inside:url(#rect6398-7-0);display:inline;fill:#ff80e5;fill-opacity:1;stroke:none"
     x="331.28128"
     y="0"><tspan
       x="70.561096"
       y="125.57734"
       id="tspan30952"><tspan
         style="text-align:center;text-anchor:middle"
         id="tspan30950">Z
</tspan></tspan><tspan
       x="70.561096"
       y="245.57734"
       id="tspan30956"><tspan
         style="text-align:center;text-anchor:middle"
         id="tspan30954">Y
</tspan></tspan><tspan
       x="70.561096"
       y="365.57734"
       id="tspan30960"><tspan
         style="text-align:center;text-anchor:middle"
         id="tspan30958">X </tspan></tspan><tspan
       x="70.561096"
       y="485.57734"
       id="tspan30964"><tspan
         style="text-align:center;text-anchor:middle"
         id="tspan30962">W </tspan></tspan><tspan
       x="70.561096"
       y="605.57734"
       id="tspan30968"><tspan
         style="text-align:center;text-anchor:middle"
         id="tspan30966">V </tspan></tspan><tspan
       x="70.561096"
       y="725.57734"
       id="tspan30972"><tspan
         style="text-align:center;text-anchor:middle"
         id="tspan30970">U </tspan></tspan><tspan
       x="70.561096"
       y="845.57734"
       id="tspan30976"><tspan
         style="text-align:center;text-anchor:middle"
         id="tspan30974">T </tspan></tspan></text>
  <text
     xml:space="preserve"
     transform="matrix(0.17030909,0,0,0.17030909,36.106563,39.273387)"
     id="text6396-0"
     style="font-style:normal;font-variant:normal;font-weight:normal;font-stretch:normal;font-size:97.4385px;line-height:1.25;font-family:'Ductus Mono Geometric';-inkscape-font-specification:'Ductus Mono Geometric';white-space:pre;shape-inside:url(#rect6398-6);display:inline;fill:#ff80e5;fill-opacity:1;stroke:none"
     x="331.28128"
     y="0"><tspan
       x="39.93754"
       y="126.90796"
       id="tspan30980"><tspan
         style="text-align:center;text-anchor:middle"
         id="tspan30978">a b c d e f</tspan></tspan></text>
  <text
     xml:space="preserve"
     transform="matrix(0.17030909,0,0,0.17030909,36.196121,222.87186)"
     id="text6396-5-6"
     style="font-style:normal;font-variant:normal;font-weight:normal;font-stretch:normal;font-size:97.4385px;line-height:1.25;font-family:'Ductus Mono Geometric';-inkscape-font-specification:'Ductus Mono Geometric';white-space:pre;shape-inside:url(#rect6398-4-1);display:inline;fill:#ff80e5;fill-opacity:1;stroke:none"
     x="331.28128"
     y="0"><tspan
       x="39.93754"
       y="126.90796"
       id="tspan30984"><tspan
         style="text-align:center;text-anchor:middle"
         id="tspan30982">s r q p o n</tspan></tspan></text>
  <text
     xml:space="preserve"
     transform="matrix(0.17030909,0,0,0.17030909,146.95425,59.40242)"
     id="text6396-8-1"
     style="font-style:normal;font-variant:normal;font-weight:normal;font-stretch:normal;font-size:97.4385px;line-height:140%;font-family:'Ductus Mono Geometric';-inkscape-font-specification:'Ductus Mono Geometric';white-space:pre;shape-inside:url(#rect6398-7-06);display:inline;fill:#ff80e5;fill-opacity:1;stroke:none"
     x="331.28128"
     y="0"><tspan
       x="70.81348"
       y="134.21584"
       id="tspan30988"><tspan
         style="text-align:center;text-anchor:middle"
         id="tspan30986">g </tspan></tspan><tspan
       x="70.81348"
       y="270.62974"
       id="tspan30992"><tspan
         style="text-align:center;text-anchor:middle"
         id="tspan30990">h
</tspan></tspan><tspan
       x="70.81348"
       y="407.04363"
       id="tspan30996"><tspan
         style="text-align:center;text-anchor:middle"
         id="tspan30994">i
</tspan></tspan><tspan
       x="70.81348"
       y="543.45754"
       id="tspan31000"><tspan
         style="text-align:center;text-anchor:middle"
         id="tspan30998">j </tspan></tspan><tspan
       x="70.81348"
       y="679.87142"
       id="tspan31004"><tspan
         style="text-align:center;text-anchor:middle"
         id="tspan31002">k </tspan></tspan><tspan
       x="70.81348"
       y="816.2853"
       id="tspan31008"><tspan
         style="text-align:center;text-anchor:middle"
         id="tspan31006">l </tspan></tspan><tspan
       x="70.81348"
       y="952.69918"
       id="tspan31012"><tspan
         style="text-align:center;text-anchor:middle"
         id="tspan31010">m </tspan></tspan></text>
  <text
     xml:space="preserve"
     transform="matrix(0.17030909,0,0,0.17030909,30.854393,59.319447)"
     id="text6396-8-3-5"
     style="font-style:normal;font-variant:normal;font-weight:normal;font-stretch:normal;font-size:97.4385px;line-height:140%;font-family:'Ductus Mono Geometric';-inkscape-font-specification:'Ductus Mono Geometric';white-space:pre;shape-inside:url(#rect6398-7-0-3);display:inline;fill:#ff80e5;fill-opacity:1;stroke:none"
     x="331.28128"
     y="0"><tspan
       x="70.057621"
       y="134.21584"
       id="tspan31016"><tspan
         style="text-align:center;text-anchor:middle"
         id="tspan31014">z
</tspan></tspan><tspan
       x="70.057621"
       y="270.62974"
       id="tspan31020"><tspan
         style="text-align:center;text-anchor:middle"
         id="tspan31018">y
</tspan></tspan><tspan
       x="70.057621"
       y="407.04363"
       id="tspan31024"><tspan
         style="text-align:center;text-anchor:middle"
         id="tspan31022">x </tspan></tspan><tspan
       x="70.057621"
       y="543.45754"
       id="tspan31028"><tspan
         style="text-align:center;text-anchor:middle"
         id="tspan31026">w </tspan></tspan><tspan
       x="70.057621"
       y="679.87142"
       id="tspan31032"><tspan
         style="text-align:center;text-anchor:middle"
         id="tspan31030">v </tspan></tspan><tspan
       x="70.057621"
       y="816.2853"
       id="tspan31036"><tspan
         style="text-align:center;text-anchor:middle"
         id="tspan31034">u </tspan></tspan><tspan
       x="70.057621"
       y="952.69918"
       id="tspan31040"><tspan
         style="text-align:center;text-anchor:middle"
         id="tspan31038">t </tspan></tspan></text>
  <text
     xml:space="preserve"
     transform="matrix(0.09509877,0,0,0.09509877,68.242739,72.104132)"
     id="text6396-1"
     style="font-style:normal;font-variant:normal;font-weight:normal;font-stretch:normal;font-size:87.2496px;line-height:1.25;font-family:'Ductus Mono Geometric';-inkscape-font-specification:'Ductus Mono Geometric';letter-spacing:16.1367px;white-space:pre;shape-inside:url(#rect6398-2);display:inline;fill:#ff80e5;fill-opacity:1;stroke:none"
     x="331.28128"
     y="0"><tspan
       x="75.692823"
       y="117.48323"
       id="tspan31044"><tspan
         style="text-align:center;text-anchor:middle"
         id="tspan31042">1 2 3 4 5 </tspan></tspan></text>
  <text
     xml:space="preserve"
     transform="matrix(0.09509877,0,0,0.09509877,67.660531,208.67632)"
     id="text6396-5-9"
     style="font-style:normal;font-variant:normal;font-weight:normal;font-stretch:normal;font-size:87.2496px;line-height:1.25;font-family:'Ductus Mono Geometric';-inkscape-font-specification:'Ductus Mono Geometric';letter-spacing:17.5278px;white-space:pre;shape-inside:url(#rect6398-4-8);display:inline;fill:#ff80e5;fill-opacity:1;stroke:none"
     x="331.28128"
     y="0"><tspan
       x="70.128424"
       y="117.48323"
       id="tspan31048"><tspan
         style="text-align:center;text-anchor:middle"
         id="tspan31046">0 9 8 7 6</tspan></tspan></text>
  <text
     xml:space="preserve"
     transform="matrix(0.09509877,0,0,0.09509877,67.130204,86.290398)"
     id="text6396-8-3-7"
     style="font-style:normal;font-variant:normal;font-weight:normal;font-stretch:normal;font-size:87.2496px;line-height:2.05;font-family:'Ductus Mono Geometric';-inkscape-font-specification:'Ductus Mono Geometric';white-space:pre;shape-inside:url(#rect6398-7-0-7);display:inline;fill:#ff80e5;fill-opacity:1;stroke:none"
     x="331.28128"
     y="0"><tspan
       x="79.98409"
       y="152.38307"
       id="tspan31052"><tspan
         style="text-align:center;text-anchor:middle"
         id="tspan31050">@
</tspan></tspan><tspan
       x="79.98409"
       y="331.24475"
       id="tspan31056"><tspan
         style="text-align:center;text-anchor:middle"
         id="tspan31054">(
</tspan></tspan><tspan
       x="79.98409"
       y="510.10642"
       id="tspan31060"><tspan
         style="text-align:center;text-anchor:middle"
         id="tspan31058">)
</tspan></tspan><tspan
       x="79.98409"
       y="688.96809"
       id="tspan31064"><tspan
         style="text-align:center;text-anchor:middle"
         id="tspan31062">%
</tspan></tspan><tspan
       x="79.98409"
       y="867.82978"
       id="tspan31068"><tspan
         style="text-align:center;text-anchor:middle"
         id="tspan31066">+ </tspan></tspan><tspan
       x="79.98409"
       y="1046.6915"
       id="tspan31072"><tspan
         style="text-align:center;text-anchor:middle"
         id="tspan31070">-
</tspan></tspan><tspan
       x="79.98409"
       y="1225.5531"
       id="tspan31076"><tspan
         style="text-align:center;text-anchor:middle"
         id="tspan31074">|
</tspan></tspan><tspan
       x="37.490234"
       y="1404.4148"
       id="tspan31080"><tspan
         style="text-align:center;text-anchor:middle"
         id="tspan31078"> </tspan></tspan></text>
  <text
     xml:space="preserve"
     transform="matrix(0.09509877,0,0,0.09509877,126.66293,85.212963)"
     id="text6396-8-3-7-6"
     style="font-style:normal;font-variant:normal;font-weight:normal;font-stretch:normal;font-size:87.2496px;line-height:2.05;font-family:'Ductus Mono Geometric';-inkscape-font-specification:'Ductus Mono Geometric';white-space:pre;shape-inside:url(#rect6398-7-0-7-0);display:inline;fill:#ff80e5;fill-opacity:1;stroke:none"
     x="331.28128"
     y="0"><tspan
       x="82.348348"
       y="152.38307"
       id="tspan31084"><tspan
         style="text-align:center;text-anchor:middle"
         id="tspan31082">?
</tspan></tspan><tspan
       x="82.348348"
       y="331.24475"
       id="tspan31088"><tspan
         style="text-align:center;text-anchor:middle"
         id="tspan31086">!
</tspan></tspan><tspan
       x="82.348348"
       y="510.10642"
       id="tspan31092"><tspan
         style="text-align:center;text-anchor:middle"
         id="tspan31090">.
</tspan></tspan><tspan
       x="82.348348"
       y="688.96809"
       id="tspan31096"><tspan
         style="text-align:center;text-anchor:middle"
         id="tspan31094">,
</tspan></tspan><tspan
       x="82.348348"
       y="867.82978"
       id="tspan31100"><tspan
         style="text-align:center;text-anchor:middle"
         id="tspan31098">;
</tspan></tspan><tspan
       x="82.348348"
       y="1046.6915"
       id="tspan31104"><tspan
         style="text-align:center;text-anchor:middle"
         id="tspan31102">:
</tspan></tspan><tspan
       x="82.348348"
       y="1225.5531"
       id="tspan31108"><tspan
         style="text-align:center;text-anchor:middle"
         id="tspan31106"># </tspan></tspan></text>
  <g
     id="g7149-8"
     transform="matrix(0.35942843,0,0,0.35942843,75.210224,71.478947)"
     style="fill:#ff80e5">
    <text
       xml:space="preserve"
       transform="matrix(0.17378479,0,0,0.17378479,47.193891,49.398189)"
       id="text6396-0-4"
       style="font-style:normal;font-variant:normal;font-weight:normal;font-stretch:normal;font-size:97.4385px;line-height:1.25;font-family:'Ductus Mono Geometric';-inkscape-font-specification:'Ductus Mono Geometric';white-space:pre;shape-inside:url(#rect6398-6-3);display:inline;fill:#ff80e5;fill-opacity:1;stroke:none"
       x="331.28128"
       y="0"><tspan
         x="37.490234"
         y="126.90796"
         id="tspan31110">///////</tspan><tspan
         x="37.490234"
         y="248.70608"
         id="tspan31112">///////</tspan><tspan
         x="37.490234"
         y="370.50421"
         id="tspan31114">///////</tspan><tspan
         x="37.490234"
         y="492.30233"
         id="tspan31116">///////</tspan><tspan
         x="37.490234"
         y="614.10046"
         id="tspan31118">///////</tspan><tspan
         x="37.490234"
         y="735.89856"
         id="tspan31120">///////</tspan><tspan
         x="37.490234"
         y="857.69665"
         id="tspan31122">///////</tspan><tspan
         x="37.490234"
         y="979.49475"
         id="tspan31124">///////</tspan><tspan
         x="37.490234"
         y="1101.2928"
         id="tspan31126">///////</tspan><tspan
         x="37.490234"
         y="1223.0909"
         id="tspan31128">///////</tspan><tspan
         x="37.490234"
         y="1344.889"
         id="tspan31130">///////</tspan><tspan
         x="37.490234"
         y="1466.6871"
         id="tspan31132">///////</tspan><tspan
         x="37.490234"
         y="1588.4852"
         id="tspan31134">///////</tspan><tspan
         x="37.490234"
         y="1710.2833"
         id="tspan31136">///////</tspan><tspan
         x="37.490234"
         y="1832.0814"
         id="tspan31138">///////</tspan><tspan
         x="37.490234"
         y="2017.8103"
         id="tspan31142"><tspan
           dx="0 68.207024 68.207024 68.207016 68.207031 68.207031 68.207001 68.207031 68.207031 68.207031 68.207031 68.207031 68.20697 68.207031 68.207031 68.207031 68.207031 68.207031 68.207031 68.207031 68.207031 68.207031 68.207031 68.207031 68.206909 68.207031 68.207031 68.207031 68.207031 68.207031 68.207031 68.207031 68.207031 68.207031 68.207031 68.207031 68.207031 68.207031 68.207031 68.207031 68.207031 68.207031 68.207031 68.207031 68.207031 68.207031 68.207031 68.207031 68.206787 68.207031 68.207031 68.207031 68.207031 68.207031 68.207031 68.207031 68.207031 68.207031 68.207031 68.207031 68.207031 68.207031 68.207031 68.207031 68.207031 68.207031 68.207031 68.207031 68.207031 68.207031 68.207031 68.207031 68.207031 68.207031 68.207031 68.207031 68.207031 68.207031 68.207031 68.207031 68.207031 68.207031 68.207031 68.207031 68.207031 68.207031 68.207031 68.207031 68.207031 68.207031"
           id="tspan31140">//////////////////////////////////////////////////////////////////////////////////////////</tspan></tspan></text>
  </g>
  <path
     d="m 253.48348,81.245112 c 77.18972,0 65.40469,119.354308 127.88592,142.095568"
     style="fill:none;stroke:#ffffff;stroke-width:0.756;stroke-linecap:round;stroke-linejoin:round;stroke-miterlimit:10;stroke-dasharray:none"
     id="path41979" />
  <path
     d="m 249.9311,187.81679 c -0.0663,19.64187 15.87851,35.5776 35.52388,35.52389 19.56079,-0.0568 35.37319,-15.931 35.5238,-35.52389 0.14115,-18.36405 -13.71345,-33.8374 -31.9714,-35.52389 -20.92907,-1.93317 -39.00808,14.50436 -39.07628,35.52389 z"
     style="fill:none;stroke:#ffffff;stroke-width:0.756;stroke-linecap:round;stroke-linejoin:round;stroke-miterlimit:10;stroke-dasharray:none"
     id="path41981" />
</svg>
