prologues:=3;
outputformat:="mps";
outputtemplate:=("%j" & "." & outputformat);
verbatimtex
%&latex
\documentclass{minimal}
\begin{document}
etex
beginfig(0);
u = 2cm;

z1 = (0.3u, 4u);
z2 = (2.5u, 2u);
z3 = (4.7u, 4u);
z4 = (2.5u, 6u);
z5 = (5u, 7u);
z6 = (1u, 2.5u);
z7 = (0u, 1u);
z8 = (1u, 0.5u);
z9 = (3.5u, 0.5u);
z10 = (5u, -1.5u);
z11 = (3u, -3u);
z12 = (0u, -1.5u);

pickup pencircle scaled 25;
draw z1..z2..z3..z4..cycle;
draw z4{dir 0}..{dir 90}z5;
draw z6..z7..z8--z9..z10..z11..z12..z8;
endfig;
end