prologues:=3;
outputformat:="mps";
outputtemplate:=("%j" & "." & outputformat);
verbatimtex
%&latex
\documentclass{minimal}
\begin{document}
etex
beginfig(0);
u = 2cm;

z3 = (1.25u, 1u);
z4 = (4u, 3u);

pickup pencircle scaled 25;

draw z3--z4;
endfig;
end