prologues:=3;
outputformat:="mps";
outputtemplate:=("%j" & "." & outputformat);
verbatimtex
%&latex
\documentclass{minimal}
\begin{document}
etex
beginfig(0);
u = 2cm;

z6 = (1u, -1u);
z7 = (1u, 8u);

pickup pencircle scaled 25;

draw z6{dir 50}..z7;
endfig;
end