prologues:=3;
outputformat:="mps";
outputtemplate:=("%j" & "." & outputformat);
verbatimtex
%&latex
\documentclass{minimal}
\begin{document}
etex
beginfig(0);
u = 2cm;

z3 = (4.5u, 7u);
z4 = (1.25u, 7u);
z8 = (0.75u, 3.75u);
z1 = (2.25u, 4.5u);
z9 = (4.75u, 3u);
z10 = (2.5u, -0.1u);
z11 = (0.5u, 1u);
pickup pencircle scaled 25;

draw z3{dir 190}..z4--z8;
draw z8..z1..z9..z10..z11;
endfig;
end