prologues:=3;
outputformat:="mps";
outputtemplate:=("%j" & "." & outputformat);
verbatimtex
%&latex
\documentclass{minimal}
\begin{document}
etex
beginfig(0);
u = 2cm;

z0 = (4.5u, 6u);
z1 = (5u, 5u);
z2 = (2.5u, 6.05u);
z3 = (0.25u, 3u);
z4 = (2.5u, -0.05u);
z5 = (5u, 1u);

pickup pencircle scaled 25;
draw z0--z1..z2..z3..z4..z5;
endfig;
end