<?xml version="1.0" encoding="UTF-8"?>
<glyph name="macron" format="1">
  <advance width="883"/>
  <unicode hex="00AF"/>
  <outline>
    <contour>
      <point x="252.479" y="352.6" type="line"/>
      <point x="254.087" y="358.6" type="line"/>
      <point x="826.087" y="358.6" type="line"/>
      <point x="824.479" y="352.6" type="line"/>
      <point x="822.871" y="346.6" type="line"/>
      <point x="250.871" y="346.6" type="line"/>
    </contour>
    <contour>
      <point x="259.553" y="379" type="line"/>
      <point x="261.16" y="385" type="line"/>
      <point x="833.16" y="385" type="line"/>
      <point x="831.553" y="379" type="line"/>
      <point x="829.945" y="373" type="line"/>
      <point x="257.945" y="373" type="line"/>
    </contour>
  </outline>
</glyph>
