<?xml version="1.0" encoding="UTF-8"?>
<glyph name="W" format="1">
  <advance width="801"/>
  <unicode hex="0057"/>
  <outline>
    <contour>
      <point x="234.637" y="704" type="line"/>
      <point x="240.844" y="705.352" type="line"/>
      <point x="237.688" y="484" type="line"/>
      <point x="335.987" y="250" type="line"/>
      <point x="329.779" y="248.648" type="line"/>
      <point x="323.571" y="247.297" type="line"/>
      <point x="225.224" y="480" type="line"/>
      <point x="228.429" y="702.648" type="line"/>
    </contour>
    <contour>
      <point x="208.236" y="704" type="line"/>
      <point x="214.443" y="705.352" type="line"/>
      <point x="188.608" y="1.35156" type="line"/>
      <point x="182.4" y="0" type="line"/>
      <point x="176.192" y="-1.35156" type="line"/>
      <point x="202.028" y="702.648" type="line"/>
    </contour>
    <contour>
      <point x="938.637" y="704" type="line"/>
      <point x="944.12" y="702.648" type="line"/>
      <point x="717.523" y="252" type="line"/>
      <point x="712.04" y="253.352" type="line"/>
      <point x="706.556" y="254.703" type="line"/>
      <point x="933.152" y="705.352" type="line"/>
    </contour>
    <contour>
      <point x="965.037" y="704" type="line"/>
      <point x="970.521" y="702.648" type="line"/>
      <point x="619.083" y="-1.35156" type="line"/>
      <point x="613.6" y="0" type="line"/>
      <point x="608.116" y="1.35156" type="line"/>
      <point x="959.553" y="705.352" type="line"/>
    </contour>
    <contour>
      <point x="613.037" y="704" type="line"/>
      <point x="619.244" y="705.352" type="line"/>
      <point x="616.615" y="480" type="line"/>
      <point x="718.247" y="254.703" type="line"/>
      <point x="712.04" y="253.352" type="line"/>
      <point x="705.832" y="252" type="line"/>
      <point x="604.188" y="477" type="line"/>
      <point x="606.829" y="702.648" type="line"/>
    </contour>
    <contour>
      <point x="586.637" y="704" type="line"/>
      <point x="592.844" y="705.352" type="line"/>
      <point x="567.008" y="1.35156" type="line"/>
      <point x="560.8" y="0" type="line"/>
      <point x="554.592" y="-1.35156" type="line"/>
      <point x="580.429" y="702.648" type="line"/>
    </contour>
    <contour>
      <point x="560.236" y="704" type="line"/>
      <point x="565.72" y="702.648" type="line"/>
      <point x="335.263" y="247.297" type="line"/>
      <point x="329.779" y="248.648" type="line"/>
      <point x="324.296" y="250" type="line"/>
      <point x="554.752" y="705.352" type="line"/>
    </contour>
    <contour>
      <point x="586.637" y="704" type="line"/>
      <point x="592.12" y="702.648" type="line"/>
      <point x="240.684" y="-1.35156" type="line"/>
      <point x="235.2" y="0" type="line"/>
      <point x="229.717" y="1.35156" type="line"/>
      <point x="581.152" y="705.352" type="line"/>
    </contour>
  </outline>
</glyph>
