<?xml version="1.0" encoding="UTF-8" standalone="no"?>
<svg
   xmlns:dc="http://purl.org/dc/elements/1.1/"
   xmlns:cc="http://creativecommons.org/ns#"
   xmlns:rdf="http://www.w3.org/1999/02/22-rdf-syntax-ns#"
   xmlns:svg="http://www.w3.org/2000/svg"
   xmlns="http://www.w3.org/2000/svg"
   xmlns:xlink="http://www.w3.org/1999/xlink"
   xmlns:sodipodi="http://sodipodi.sourceforge.net/DTD/sodipodi-0.dtd"
   xmlns:inkscape="http://www.inkscape.org/namespaces/inkscape"
   width="793.700787402"
   height="1122.51968504"
   version="1.1"
   id="svg30"
   sodipodi:docname="65.svg"
   inkscape:version="0.92.3 (2405546, 2018-03-11)">
  <metadata
     id="metadata34">
    <rdf:RDF>
      <cc:Work
         rdf:about="">
        <dc:format>image/svg+xml</dc:format>
        <dc:type
           rdf:resource="http://purl.org/dc/dcmitype/StillImage" />
        <dc:title></dc:title>
      </cc:Work>
    </rdf:RDF>
  </metadata>
  <sodipodi:namedview
     pagecolor="#ffffff"
     bordercolor="#666666"
     borderopacity="1"
     objecttolerance="10"
     gridtolerance="10"
     guidetolerance="10"
     inkscape:pageopacity="0"
     inkscape:pageshadow="2"
     inkscape:window-width="841"
     inkscape:window-height="480"
     id="namedview32"
     showgrid="false"
     inkscape:zoom="0.21024131"
     inkscape:cx="396.8504"
     inkscape:cy="561.25983"
     inkscape:window-x="67"
     inkscape:window-y="27"
     inkscape:window-maximized="0"
     inkscape:current-layer="g28" />
  <desc
     id="desc2">/home/amelie/Bureau/typo fablab/65.dxf - scale = 1.000000, origin = (0.000000, 0.000000), method = manual</desc>
  <defs
     id="defs24">
    <marker
       id="DistanceX"
       orient="auto"
       refX="0.0"
       refY="0.0"
       style="overflow:visible">
      <path
         d="M 3,-3 L -3,3 M 0,-5 L  0,5"
         style="stroke:#000000; stroke-width:0.5"
         id="path4" />
    </marker>
    <pattern
       height="8"
       id="Hatch"
       patternUnits="userSpaceOnUse"
       width="8"
       x="0"
       y="0">
      <path
         d="M8 4 l-4,4"
         linecap="square"
         stroke="#000000"
         stroke-width="0.25"
         id="path7" />
      <path
         d="M6 2 l-4,4"
         linecap="square"
         stroke="#000000"
         stroke-width="0.25"
         id="path9" />
      <path
         d="M4 0 l-4,4"
         linecap="square"
         stroke="#000000"
         stroke-width="0.25"
         id="path11" />
    </pattern>
    <symbol
       id="*Model_Space" />
    <symbol
       id="*Paper_Space" />
    <symbol
       id="*Paper_Space0" />
    <symbol
       id="SKETCH001">
      <path
         d="M 107.797347,1394.282402 L 72.905529,1429.174221 L 72.905529,1485.791430 A 94.488189,94.488189 0.0 1 0 261.589742,1482.769848 L 261.589742,1408.139996 L 36.389090,826.584884 A 143.622047,143.622047 0.0 0 0 -229.051224,831.486078 L -454.045566,1408.139996 L -454.045566,1484.887395 A 94.488189,94.488189 0.0 1 0 -265.158224,1483.118009 L -265.158224,1421.995942 L -280.854485,1406.299681 A 54.803150,54.803150 0.0 1 1 -204.767480,1327.502988 L -141.174129,1391.096339 L -42.204445,1391.096339 L 20.081242,1328.810651 A 54.803150,54.803150 0.0 0 1 107.797347,1394.282402 z"
         style="stroke:#000000;fill:none;stroke-linecap: round"
         id="path17" />
      <path
         d="M -44.625218,1210.894679 A 54.803150,54.803150 0.0 1 0 34.406822,1137.231868 L -40.332892,1062.492154 L -40.332892,977.745623 A 54.803150,54.803150 0.0 1 0 -149.890171,980.693078 L -149.890171,1065.439609 L -222.084185,1137.633623 A 54.803150,54.803150 0.0 1 0 -142.500051,1211.646305"
         style="stroke:#000000;fill:none;stroke-linecap: round"
         id="path19" />
      <path
         d="M -142.499906,1211.646236 L -128.242363,1197.114900 L -114.076636,1187.391562 L -100.002727,1182.476224 L -86.020635,1182.368886 L -72.130360,1187.069547 L -58.331901,1196.578207 L -44.625260,1210.894866"
         style="stroke:#000000;fill:none;stroke-linecap: round"
         id="path21" />
    </symbol>
  </defs>
  <g
     inkscape:groupmode="layer"
     inkscape:label="0"
     id="g28">
    <use
       transform="translate(0.000000, 0.000000)"
       xlink:href="#SKETCH001"
       id="use26"
       style="stroke:none;fill:none" />
  </g>
</svg>
