  0
SECTION
  2
HEADER
  9
$ACADVER
  1
AC1009
  9
$INSBASE
 10
0.0
 20
0.0
 30
0.0
  9
$EXTMIN
 10
0.0
 20
0.0
 30
0.0
  9
$EXTMAX
 10
0.0
 20
0.0
 30
0.0
  0
ENDSEC
  0
SECTION
  2
TABLES
  0
TABLE
  2
VPORT
 70
0
  0
ENDTAB
  0
TABLE
  2
LTYPE
 70
1
  0
LTYPE
  2
CONTINUOUS
 70
0
  3
Solid line
 72
65
 73
0
 40
0.0
  0
ENDTAB
  0
TABLE
  2
LAYER
 70
1
  0
LAYER
  2
0
 70
64
 62
7
  6
continuous
  0
ENDTAB
  0
TABLE
  2
STYLE
 70
1
  0
STYLE
  2
STANDARD
 70
0
 40
0
 41
1.0
 50
0.0
 71
0
 42
1
 3
ARIAL.TTF
 4

  0
ENDTAB
  0
TABLE
  2
VIEW
 70
0
  0
ENDTAB
  0
ENDSEC
  0
SECTION
  2
BLOCKS
  0
ENDSEC
  0
SECTION
  2
ENTITIES
  0
POLYLINE
  8
0
 62
7
 70
1
 66
1
 10
0.0
 20
0.0
 30
0.0
  0
VERTEX
  8
0
 10
-70.9906336035
 20
24.3892072757
 30
0.0
  0
VERTEX
  8
0
 10
-59.9840382311
 20
35.3958026481
 30
0.0
  0
VERTEX
  8
0
 10
-59.9840382311
 20
73.8534140749
 30
0.0
 42
1.01733781726
  0
VERTEX
  8
0
 10
-109.976650187
 20
73.838546808
 30
0.0
  0
VERTEX
  8
0
 10
-109.976650187
 20
-95.9226157376
 30
0.0
 42
0.999999672446
  0
VERTEX
  8
0
 10
-59.9766501871
 20
-95.9226147505
 30
0.0
  0
VERTEX
  8
0
 10
-59.9766501871
 20
-55.7238358884
 30
0.0
  0
VERTEX
  8
0
 10
-70.3024624287
 20
-45.3980236468
 30
0.0
 42
-0.943386094312
  0
VERTEX
  8
0
 10
-49.9732138854
 20
-24.7856089861
 30
0.0
  0
VERTEX
  8
0
 10
-39.5481956259
 20
-35.2106272456
 30
0.0
  0
VERTEX
  8
0
 10
-0.683385390265
 20
-35.2106272456
 30
0.0
  0
VERTEX
  8
0
 10
9.70134138226
 20
-24.8259004731
 30
0.0
 42
-1.0075565254
  0
VERTEX
  8
0
 10
30.2124759534
 20
-45.3257955652
 30
0.0
  0
VERTEX
  8
0
 10
19.8828177332
 20
-55.6554537853
 30
0.0
  0
VERTEX
  8
0
 10
19.8828177332
 20
-95.9155153193
 30
0.0
 42
0.994898297156
  0
VERTEX
  8
0
 10
69.8757400514
 20
-95.1140683278
 30
0.0
  0
VERTEX
  8
0
 10
69.8757400514
 20
73.7823053849
 30
0.0
 42
0.999607815233
  0
VERTEX
  8
0
 10
19.88549
 20
74.7694807114
 30
0.0
  0
VERTEX
  8
0
 10
19.88549
 20
35.601368
 30
0.0
  0
VERTEX
  8
0
 10
30.7253468111
 20
24.7615111889
 30
0.0
 42
-0.956923355822
  0
VERTEX
  8
0
 10
10.3164976494
 20
4.19818369577
 30
0.0
  0
VERTEX
  8
0
 10
-0.0602378266695
 20
14.5749191718
 30
0.0
  0
VERTEX
  8
0
 10
-39.8698228508
 20
14.5749191718
 30
0.0
  0
VERTEX
  8
0
 10
-49.3670604248
 20
5.07768159783
 30
0.0
 42
-1.02433671795
  0
SEQEND
  8
0
  0
ENDSEC
  0
EOF
