<?xml version="1.0" encoding="UTF-8"?>
<glyph name="comma" format="2">
  <advance width="700"/>
  <unicode hex="002C"/>
  <outline>
    <contour>
      <point x="304" y="-126" type="qcurve" smooth="yes"/>
      <point x="297" y="-119" type="line" smooth="yes"/>
      <point x="296" y="-118"/>
      <point x="297" y="-117" type="qcurve" smooth="yes"/>
      <point x="335" y="-66"/>
      <point x="345" y="-3" type="qcurve" smooth="yes"/>
      <point x="347" y="10"/>
      <point x="339" y="21" type="qcurve" smooth="yes"/>
      <point x="330" y="28"/>
      <point x="320" y="28" type="qcurve" smooth="yes"/>
      <point x="305" y="28" type="line" smooth="yes"/>
      <point x="304" y="28"/>
      <point x="304" y="29" type="qcurve" smooth="yes"/>
      <point x="297" y="36" type="line" smooth="yes"/>
      <point x="296" y="36"/>
      <point x="296" y="37"/>
      <point x="297" y="38" type="qcurve" smooth="yes"/>
      <point x="343" y="84" type="line"/>
      <point x="344" y="84" type="line"/>
      <point x="395" y="84" type="line" smooth="yes"/>
      <point x="396" y="84"/>
      <point x="397" y="83" type="qcurve" smooth="yes"/>
      <point x="404" y="76" type="line"/>
      <point x="404" y="-11"/>
      <point x="352" y="-80" type="qcurve"/>
      <point x="306" y="-126" type="line" smooth="yes"/>
      <point x="305" y="-127"/>
    </contour>
  </outline>
</glyph>
