<?xml version="1.0" encoding="UTF-8"?>
<glyph name="one" format="2">
  <advance width="700"/>
  <unicode hex="0031"/>
  <outline>
    <contour>
      <point x="91" y="523" type="move" smooth="yes"/>
    </contour>
    <contour>
      <point x="378" y="822" type="move" smooth="yes"/>
    </contour>
    <contour>
      <point x="90" y="9"/>
      <point x="91" y="10" type="qcurve" smooth="yes"/>
      <point x="137" y="56" type="line"/>
      <point x="138" y="56" type="line"/>
      <point x="601" y="56" type="line" smooth="yes"/>
      <point x="602" y="56"/>
      <point x="602" y="55" type="qcurve" smooth="yes"/>
      <point x="609" y="48" type="line" smooth="yes"/>
      <point x="610" y="48"/>
      <point x="610" y="47"/>
      <point x="609" y="46" type="qcurve" smooth="yes"/>
      <point x="563" y="0" type="line"/>
      <point x="562" y="0" type="line"/>
      <point x="99" y="0" type="line" smooth="yes"/>
      <point x="98" y="0"/>
      <point x="98" y="1" type="qcurve" smooth="yes"/>
      <point x="91" y="8" type="line" smooth="yes"/>
      <point x="90" y="8"/>
    </contour>
    <contour>
      <point x="98" y="516" type="qcurve" smooth="yes"/>
      <point x="91" y="523" type="line"/>
      <point x="90" y="523" type="line"/>
      <point x="90" y="524"/>
      <point x="90" y="525" type="qcurve" smooth="yes"/>
      <point x="322" y="783" type="line"/>
      <point x="368" y="829" type="line"/>
      <point x="369" y="829" type="line"/>
      <point x="370" y="829" type="line"/>
      <point x="378" y="822" type="line"/>
      <point x="378" y="821" type="line"/>
      <point x="378" y="820" type="line"/>
      <point x="146" y="562" type="line"/>
      <point x="100" y="516" type="line"/>
      <point x="99" y="516" type="line" smooth="yes"/>
      <point x="98" y="515"/>
    </contour>
    <contour>
      <point x="369" y="726" type="line" smooth="yes"/>
      <point x="370" y="726"/>
      <point x="370" y="725" type="qcurve" smooth="yes"/>
      <point x="378" y="718" type="line"/>
      <point x="378" y="717" type="line"/>
      <point x="378" y="151" type="line" smooth="yes"/>
      <point x="378" y="150"/>
      <point x="377" y="149" type="qcurve" smooth="yes"/>
      <point x="331" y="103" type="line" smooth="yes"/>
      <point x="330" y="103"/>
      <point x="330" y="104" type="qcurve" smooth="yes"/>
      <point x="322" y="111" type="line"/>
      <point x="322" y="112" type="line"/>
      <point x="322" y="679" type="line"/>
      <point x="323" y="680" type="line"/>
    </contour>
  </outline>
</glyph>
