<?xml version="1.0" encoding="UTF-8"?>
<glyph name="a_o_n" format="2">
  <advance width="700"/>
  <unicode hex="F1140"/>
  <outline>
    <contour>
      <point x="115" y="453"/>
      <point x="115" y="467" type="qcurve" smooth="yes"/>
      <point x="115" y="517"/>
      <point x="191" y="582"/>
      <point x="241" y="578" type="qcurve" smooth="yes"/>
      <point x="286" y="575"/>
      <point x="350" y="512"/>
      <point x="350" y="467" type="qcurve" smooth="yes"/>
      <point x="350" y="462.907" type="line"/>
      <point x="353.301" y="490.324"/>
      <point x="367.5" y="514.5" type="qcurve" smooth="yes"/>
      <point x="386" y="546"/>
      <point x="449" y="583"/>
      <point x="486" y="583" type="qcurve" smooth="yes"/>
      <point x="543" y="583"/>
      <point x="623" y="503"/>
      <point x="623" y="446" type="qcurve" smooth="yes"/>
      <point x="623" y="418"/>
      <point x="601" y="367"/>
      <point x="565" y="331"/>
      <point x="514" y="309"/>
      <point x="486" y="309" type="qcurve" smooth="yes"/>
      <point x="449" y="309"/>
      <point x="386" y="346"/>
      <point x="367.5" y="377.5" type="qcurve" smooth="yes"/>
      <point x="353.301" y="401.676"/>
      <point x="350" y="429.093" type="qcurve"/>
      <point x="350" y="144.6" type="line" smooth="yes"/>
      <point x="351" y="136.012"/>
      <point x="351" y="127" type="qcurve" smooth="yes"/>
      <point x="351" y="118.558"/>
      <point x="350" y="110.343" type="qcurve" smooth="yes"/>
      <point x="350" y="28" type="line" smooth="yes"/>
      <point x="350" y="14"/>
      <point x="330" y="-6"/>
      <point x="302" y="-6"/>
      <point x="292" y="4" type="qcurve" smooth="yes"/>
      <point x="288.779" y="7.22067"/>
      <point x="286.596" y="10.8562" type="qcurve"/>
      <point x="277.641" y="5.37457"/>
      <point x="267.5" y="1" type="qcurve" smooth="yes"/>
      <point x="242" y="-10"/>
      <point x="214" y="-10" type="qcurve" smooth="yes"/>
      <point x="177" y="-10"/>
      <point x="114" y="27"/>
      <point x="77" y="90"/>
      <point x="77" y="164"/>
      <point x="114" y="227"/>
      <point x="177" y="264"/>
      <point x="214" y="264" type="qcurve" smooth="yes"/>
      <point x="251.723" y="264"/>
      <point x="282" y="246.481" type="qcurve"/>
      <point x="282" y="467" type="line" smooth="yes"/>
      <point x="282" y="483"/>
      <point x="256" y="509"/>
      <point x="236" y="510" type="qcurve" smooth="yes"/>
      <point x="221" y="511"/>
      <point x="196" y="500"/>
      <point x="183" y="479"/>
      <point x="183" y="467" type="qcurve" smooth="yes"/>
      <point x="183" y="453"/>
      <point x="162" y="433"/>
      <point x="135" y="433"/>
    </contour>
    <contour>
      <point x="417" y="417"/>
      <point x="457" y="377"/>
      <point x="515" y="377"/>
      <point x="555" y="417"/>
      <point x="555" y="475"/>
      <point x="515" y="515"/>
      <point x="457" y="515"/>
      <point x="417" y="475"/>
    </contour>
    <contour>
      <point x="145" y="98"/>
      <point x="185" y="58"/>
      <point x="243" y="58"/>
      <point x="263" y="78" type="qcurve" smooth="yes"/>
      <point x="278.528" y="93.5279"/>
      <point x="282" y="114.481" type="qcurve" smooth="yes"/>
      <point x="282" y="139.519" type="line" smooth="yes"/>
      <point x="278.528" y="160.472"/>
      <point x="263" y="176" type="qcurve" smooth="yes"/>
      <point x="243" y="196"/>
      <point x="185" y="196"/>
      <point x="145" y="156"/>
    </contour>
    <contour>
      <point x="372" y="13"/>
      <point x="372" y="27" type="qcurve" smooth="yes"/>
      <point x="372" y="260" type="line" smooth="yes"/>
      <point x="372" y="269"/>
      <point x="381" y="285"/>
      <point x="397" y="294"/>
      <point x="406" y="294" type="qcurve" smooth="yes"/>
      <point x="413" y="294"/>
      <point x="419.5" y="291.5" type="qcurve" smooth="yes"/>
      <point x="424.056" y="289.748"/>
      <point x="427.629" y="287.013" type="qcurve"/>
      <point x="462.213" y="311.503"/>
      <point x="506" y="308" type="qcurve" smooth="yes"/>
      <point x="551" y="305"/>
      <point x="615" y="242"/>
      <point x="615" y="197" type="qcurve" smooth="yes"/>
      <point x="615" y="20" type="line" smooth="yes"/>
      <point x="615" y="6"/>
      <point x="595" y="-14"/>
      <point x="567" y="-14"/>
      <point x="547" y="6"/>
      <point x="547" y="20" type="qcurve" smooth="yes"/>
      <point x="547" y="197" type="line" smooth="yes"/>
      <point x="547" y="213"/>
      <point x="521" y="239"/>
      <point x="501" y="240" type="qcurve" smooth="yes"/>
      <point x="486" y="241"/>
      <point x="461" y="230"/>
      <point x="448" y="209"/>
      <point x="448" y="197" type="qcurve" smooth="yes"/>
      <point x="448" y="184.78"/>
      <point x="440" y="175.607" type="qcurve"/>
      <point x="440" y="27" type="line" smooth="yes"/>
      <point x="440" y="13"/>
      <point x="420" y="-7"/>
      <point x="392" y="-7"/>
    </contour>
  </outline>
</glyph>
