<?xml version="1.0" encoding="UTF-8"?>
<glyph name="e" format="2">
  <advance width="700"/>
  <unicode hex="0065"/>
  <outline>
    <contour>
      <point x="452" y="582" type="qcurve" smooth="yes"/>
      <point x="464" y="582"/>
      <point x="475" y="581" type="qcurve" smooth="yes"/>
      <point x="547" y="570"/>
      <point x="626" y="440"/>
      <point x="615" y="363" type="qcurve" smooth="yes"/>
      <point x="605" y="298"/>
      <point x="516" y="205"/>
      <point x="388" y="205"/>
      <point x="299" y="298"/>
      <point x="290" y="363" type="qcurve" smooth="yes"/>
      <point x="287" y="379"/>
      <point x="287" y="396" type="qcurve" smooth="yes"/>
      <point x="287" y="445.595"/>
      <point x="307.662" y="487.106" type="qcurve"/>
      <point x="271.291" y="472.029"/>
      <point x="239.5" y="448.5" type="qcurve" smooth="yes"/>
      <point x="151" y="383"/>
      <point x="151" y="286" type="qcurve" smooth="yes"/>
      <point x="151" y="62" type="line"/>
      <point x="581" y="62" type="line" smooth="yes"/>
      <point x="595" y="62"/>
      <point x="615" y="42"/>
      <point x="615" y="14"/>
      <point x="595" y="-6"/>
      <point x="581" y="-6" type="qcurve" smooth="yes"/>
      <point x="117" y="-6" type="line" smooth="yes"/>
      <point x="105" y="-6"/>
      <point x="83" y="13"/>
      <point x="83" y="28" type="qcurve" smooth="yes"/>
      <point x="83" y="286" type="line" smooth="yes"/>
      <point x="83" y="353"/>
      <point x="147" y="467"/>
      <point x="252" y="541"/>
      <point x="383" y="582"/>
    </contour>
    <contour>
      <point x="452" y="514" type="qcurve" smooth="yes"/>
      <point x="412" y="514"/>
      <point x="355" y="446"/>
      <point x="355" y="396" type="qcurve" smooth="yes"/>
      <point x="355" y="384"/>
      <point x="357" y="373" type="qcurve" smooth="yes"/>
      <point x="363" y="329"/>
      <point x="417" y="273"/>
      <point x="487" y="273"/>
      <point x="541" y="329"/>
      <point x="547" y="373" type="qcurve" smooth="yes"/>
      <point x="555" y="426"/>
      <point x="505" y="507"/>
      <point x="465" y="513" type="qcurve" smooth="yes"/>
      <point x="459" y="514"/>
    </contour>
  </outline>
</glyph>
