<?xml version="1.0" encoding="UTF-8"?>
<glyph name="ugrave" format="2">
  <advance width="700"/>
  <unicode hex="00F9"/>
  <outline>
    <contour>
      <point x="152" y="556"/>
      <point x="152" y="543" type="qcurve" smooth="yes"/>
      <point x="152" y="130" type="line" smooth="yes"/>
      <point x="152" y="93"/>
      <point x="171" y="77" type="qcurve" smooth="yes"/>
      <point x="184" y="66"/>
      <point x="240" y="65"/>
      <point x="319" y="91"/>
      <point x="408" y="140"/>
      <point x="459" y="183" type="qcurve" smooth="yes"/>
      <point x="465.035" y="188.088"/>
      <point x="471" y="193.345" type="qcurve"/>
      <point x="471" y="543" type="line" smooth="yes"/>
      <point x="471" y="556"/>
      <point x="491" y="577"/>
      <point x="519" y="577"/>
      <point x="539" y="556"/>
      <point x="539" y="543" type="qcurve" smooth="yes"/>
      <point x="539" y="261.276" type="line"/>
      <point x="547.584" y="270.937"/>
      <point x="556" y="281" type="qcurve" smooth="yes"/>
      <point x="565" y="292"/>
      <point x="593" y="294"/>
      <point x="615" y="276"/>
      <point x="617" y="248"/>
      <point x="608" y="237" type="qcurve" smooth="yes"/>
      <point x="574.699" y="197.376"/>
      <point x="539" y="163.083" type="qcurve"/>
      <point x="539" y="27" type="line" smooth="yes"/>
      <point x="539" y="13"/>
      <point x="519" y="-7"/>
      <point x="491" y="-7"/>
      <point x="471" y="13"/>
      <point x="471" y="27" type="qcurve" smooth="yes"/>
      <point x="471" y="104.277" type="line"/>
      <point x="453.991" y="91.1021"/>
      <point x="436.5" y="79" type="qcurve" smooth="yes"/>
      <point x="344" y="15"/>
      <point x="182" y="-17"/>
      <point x="127" y="25" type="qcurve" smooth="yes"/>
      <point x="84" y="61"/>
      <point x="84" y="130" type="qcurve" smooth="yes"/>
      <point x="84" y="543" type="line" smooth="yes"/>
      <point x="84" y="556"/>
      <point x="104" y="577"/>
      <point x="132" y="577"/>
    </contour>
    <contour>
      <point x="86" y="839" type="qcurve" smooth="yes"/>
      <point x="90" y="852"/>
      <point x="116" y="865"/>
      <point x="129" y="860" type="qcurve" smooth="yes"/>
      <point x="593" y="706" type="line" smooth="yes"/>
      <point x="606" y="701"/>
      <point x="619" y="676"/>
      <point x="610" y="649"/>
      <point x="584" y="637"/>
      <point x="571" y="641" type="qcurve" smooth="yes"/>
      <point x="107" y="796" type="line" smooth="yes"/>
      <point x="99" y="799"/>
      <point x="87" y="812"/>
      <point x="83" y="829"/>
    </contour>
  </outline>
</glyph>
