<?xml version="1.0" encoding="UTF-8"?>
<glyph name="zero" format="2">
  <advance width="700"/>
  <unicode hex="0030"/>
  <outline>
    <contour>
      <point x="350" y="579" type="qcurve" smooth="yes"/>
      <point x="364" y="579"/>
      <point x="384" y="559"/>
      <point x="384" y="545" type="qcurve" smooth="yes"/>
      <point x="384" y="288" type="line" smooth="yes"/>
      <point x="384" y="274"/>
      <point x="364" y="254"/>
      <point x="336" y="254"/>
      <point x="316" y="274"/>
      <point x="316" y="288" type="qcurve" smooth="yes"/>
      <point x="316" y="545" type="line" smooth="yes"/>
      <point x="316" y="551"/>
      <point x="319" y="561"/>
      <point x="326" y="569"/>
      <point x="334" y="576"/>
      <point x="345" y="579"/>
    </contour>
    <contour>
      <point x="84" y="557"/>
      <point x="84" y="571" type="qcurve" smooth="yes"/>
      <point x="84" y="625"/>
      <point x="126" y="724"/>
      <point x="197" y="795"/>
      <point x="296" y="837"/>
      <point x="350" y="837" type="qcurve" smooth="yes"/>
      <point x="460" y="837"/>
      <point x="616" y="681"/>
      <point x="616" y="571" type="qcurve" smooth="yes"/>
      <point x="616" y="365" type="line" smooth="yes"/>
      <point x="616" y="351"/>
      <point x="596" y="331"/>
      <point x="568" y="331"/>
      <point x="548" y="351"/>
      <point x="548" y="365" type="qcurve" smooth="yes"/>
      <point x="548" y="571" type="line" smooth="yes"/>
      <point x="548" y="590"/>
      <point x="516" y="656"/>
      <point x="465" y="724"/>
      <point x="388" y="771"/>
      <point x="350" y="769" type="qcurve" smooth="yes"/>
      <point x="296" y="766"/>
      <point x="205" y="713"/>
      <point x="152" y="624"/>
      <point x="152" y="571" type="qcurve" smooth="yes"/>
      <point x="152" y="557"/>
      <point x="132" y="537"/>
      <point x="104" y="537"/>
    </contour>
    <contour>
      <point x="152" y="482"/>
      <point x="152" y="468" type="qcurve" smooth="yes"/>
      <point x="152" y="262" type="line" smooth="yes"/>
      <point x="152" y="180"/>
      <point x="268" y="64"/>
      <point x="432" y="64"/>
      <point x="548" y="180"/>
      <point x="548" y="262" type="qcurve" smooth="yes"/>
      <point x="548" y="271"/>
      <point x="557" y="287"/>
      <point x="573" y="296"/>
      <point x="582" y="296" type="qcurve" smooth="yes"/>
      <point x="596" y="296"/>
      <point x="616" y="276"/>
      <point x="616" y="262" type="qcurve" smooth="yes"/>
      <point x="616" y="152"/>
      <point x="460" y="-4"/>
      <point x="240" y="-4"/>
      <point x="84" y="152"/>
      <point x="84" y="262" type="qcurve" smooth="yes"/>
      <point x="84" y="468" type="line" smooth="yes"/>
      <point x="84" y="482"/>
      <point x="104" y="502"/>
      <point x="132" y="502"/>
    </contour>
  </outline>
</glyph>
