<?xml version="1.0" encoding="UTF-8"?>
<glyph name="ellipsis" format="2">
  <advance width="700"/>
  <unicode hex="2026"/>
  <outline>
    <contour>
      <point x="105" y="-6"/>
      <point x="85" y="14"/>
      <point x="85" y="28" type="qcurve" smooth="yes"/>
      <point x="85" y="54" type="line" smooth="yes"/>
      <point x="85" y="68"/>
      <point x="105" y="88"/>
      <point x="133" y="88"/>
      <point x="153" y="68"/>
      <point x="153" y="54" type="qcurve" smooth="yes"/>
      <point x="153" y="28" type="line" smooth="yes"/>
      <point x="153" y="14"/>
      <point x="133" y="-6"/>
    </contour>
    <contour>
      <point x="336" y="-6"/>
      <point x="316" y="14"/>
      <point x="316" y="28" type="qcurve" smooth="yes"/>
      <point x="316" y="54" type="line" smooth="yes"/>
      <point x="316" y="68"/>
      <point x="336" y="88"/>
      <point x="364" y="88"/>
      <point x="384" y="68"/>
      <point x="384" y="54" type="qcurve" smooth="yes"/>
      <point x="384" y="28" type="line" smooth="yes"/>
      <point x="384" y="14"/>
      <point x="364" y="-6"/>
    </contour>
    <contour>
      <point x="569" y="-6"/>
      <point x="549" y="14"/>
      <point x="549" y="28" type="qcurve" smooth="yes"/>
      <point x="549" y="54" type="line" smooth="yes"/>
      <point x="549" y="68"/>
      <point x="569" y="88"/>
      <point x="597" y="88"/>
      <point x="617" y="68"/>
      <point x="617" y="54" type="qcurve" smooth="yes"/>
      <point x="617" y="28" type="line" smooth="yes"/>
      <point x="617" y="14"/>
      <point x="597" y="-6"/>
    </contour>
  </outline>
</glyph>
