<?xml version="1.0" encoding="UTF-8"?>
<glyph name="l_l_e_s" format="2">
  <advance width="1443"/>
  <unicode hex="F3340"/>
  <outline>
    <contour>
      <point x="489" y="123" type="move" smooth="yes"/>
    </contour>
    <contour>
      <point x="407" y="41" type="move" smooth="yes"/>
    </contour>
    <contour>
      <point x="269" y="697" type="move" smooth="yes"/>
    </contour>
    <contour>
      <point x="514" y="443"/>
      <point x="544" y="474" type="qcurve" smooth="yes"/>
      <point x="590" y="520" type="line" smooth="yes"/>
      <point x="645" y="575"/>
      <point x="767" y="577" type="qcurve" smooth="yes"/>
      <point x="772" y="577"/>
      <point x="776" y="577" type="qcurve" smooth="yes"/>
      <point x="901" y="577"/>
      <point x="957" y="521" type="qcurve" smooth="yes"/>
      <point x="964" y="514" type="line" smooth="yes"/>
      <point x="975.092" y="502.908"/>
      <point x="982.215" y="490.215" type="qcurve"/>
      <point x="1011" y="519" type="line" smooth="yes"/>
      <point x="1063" y="571"/>
      <point x="1218" y="584"/>
      <point x="1284" y="545" type="qcurve" smooth="yes"/>
      <point x="1313" y="529"/>
      <point x="1336" y="506" type="qcurve" smooth="yes"/>
      <point x="1343" y="499" type="line"/>
      <point x="1344" y="499" type="line"/>
      <point x="1344" y="498"/>
      <point x="1344" y="496"/>
      <point x="1343" y="496" type="qcurve" smooth="yes"/>
      <point x="1297" y="450" type="line" smooth="yes"/>
      <point x="1295" y="449"/>
      <point x="1294" y="450" type="qcurve" smooth="yes"/>
      <point x="1271" y="472"/>
      <point x="1243" y="488" type="qcurve" smooth="yes"/>
      <point x="1181" y="524"/>
      <point x="1110" y="520.5" type="qcurve" smooth="yes"/>
      <point x="1039.79" y="517.039"/>
      <point x="989.142" y="474.956" type="qcurve"/>
      <point x="995" y="458.409"/>
      <point x="995" y="439.5" type="qcurve" smooth="yes"/>
      <point x="995" y="422.555"/>
      <point x="990.296" y="407.507" type="qcurve"/>
      <point x="1000" y="417" type="line"/>
      <point x="1000" y="418" type="line"/>
      <point x="1001" y="418" type="line" smooth="yes"/>
      <point x="1002" y="418"/>
      <point x="1003" y="418" type="qcurve" smooth="yes"/>
      <point x="1010" y="411" type="line"/>
      <point x="1019.58" y="391.839"/>
      <point x="1033.71" y="375.712" type="qcurve"/>
      <point x="1034" y="376" type="line"/>
      <point x="1064" y="352"/>
      <point x="1170" y="318"/>
      <point x="1271" y="280"/>
      <point x="1302" y="250" type="qcurve" smooth="yes"/>
      <point x="1310" y="244"/>
      <point x="1316" y="237" type="qcurve" smooth="yes"/>
      <point x="1323" y="230" type="line" smooth="yes"/>
      <point x="1335" y="218"/>
      <point x="1344" y="204" type="qcurve" smooth="yes"/>
      <point x="1344" y="202"/>
      <point x="1343" y="201" type="qcurve" smooth="yes"/>
      <point x="1297" y="155" type="line" smooth="yes"/>
      <point x="1296" y="155"/>
      <point x="1295" y="155"/>
      <point x="1294" y="155" type="qcurve" smooth="yes"/>
      <point x="1287" y="162" type="line"/>
      <point x="1275.38" y="183.301"/>
      <point x="1259.08" y="199.915" type="qcurve" smooth="yes"/>
      <point x="1229.62" y="221.117"/>
      <point x="1180" y="237.5" type="qcurve" smooth="yes"/>
      <point x="1127" y="255"/>
      <point x="1025" y="293"/>
      <point x="995" y="323" type="qcurve" smooth="yes"/>
      <point x="987" y="329"/>
      <point x="980" y="336" type="qcurve" smooth="yes"/>
      <point x="973" y="343" type="line" smooth="yes"/>
      <point x="965.143" y="350.857"/>
      <point x="958.572" y="359.572" type="qcurve"/>
      <point x="918" y="319" type="line" smooth="yes"/>
      <point x="889" y="289"/>
      <point x="787" y="262"/>
      <point x="728" y="263" type="qcurve" smooth="yes"/>
      <point x="625.29" y="264.684"/>
      <point x="570.068" y="303.932" type="qcurve"/>
      <point x="571" y="303" type="line" smooth="yes"/>
      <point x="572" y="302"/>
      <point x="572" y="301" type="qcurve" smooth="yes"/>
      <point x="568" y="249"/>
      <point x="603" y="154"/>
      <point x="637" y="118" type="qcurve" smooth="yes"/>
      <point x="692" y="65"/>
      <point x="768" y="54" type="qcurve" smooth="yes"/>
      <point x="816" y="47"/>
      <point x="910" y="75"/>
      <point x="947" y="106" type="qcurve"/>
      <point x="971" y="130" type="line"/>
      <point x="971" y="131" type="line" smooth="yes"/>
      <point x="973" y="132"/>
      <point x="974" y="131" type="qcurve" smooth="yes"/>
      <point x="976" y="129" type="line"/>
      <point x="977" y="129" type="line"/>
      <point x="980" y="126" type="line" smooth="yes"/>
      <point x="1022" y="84"/>
      <point x="1079" y="65" type="qcurve" smooth="yes"/>
      <point x="1138" y="45"/>
      <point x="1261" y="65"/>
      <point x="1307" y="103" type="qcurve"/>
      <point x="1333" y="129" type="line" smooth="yes"/>
      <point x="1335" y="130"/>
      <point x="1336" y="129" type="qcurve" smooth="yes"/>
      <point x="1343" y="122" type="line" smooth="yes"/>
      <point x="1344" y="121"/>
      <point x="1344" y="119"/>
      <point x="1344" y="118" type="qcurve" smooth="yes"/>
      <point x="1337" y="111"/>
      <point x="1331" y="105" type="qcurve" smooth="yes"/>
      <point x="1285" y="59" type="line" smooth="yes"/>
      <point x="1238" y="12"/>
      <point x="1103" y="-15"/>
      <point x="1038" y="8" type="qcurve" smooth="yes"/>
      <point x="980" y="27"/>
      <point x="936" y="71" type="qcurve" smooth="yes"/>
      <point x="935" y="72" type="line"/>
      <point x="924" y="61" type="line" smooth="yes"/>
      <point x="885" y="23"/>
      <point x="782" y="-12"/>
      <point x="728" y="-4" type="qcurve" smooth="yes"/>
      <point x="648" y="8"/>
      <point x="591" y="65" type="qcurve" smooth="yes"/>
      <point x="584" y="72" type="line" smooth="yes"/>
      <point x="547" y="109"/>
      <point x="528" y="158.5" type="qcurve" smooth="yes"/>
      <point x="527.513" y="159.769"/>
      <point x="527.041" y="161.041" type="qcurve"/>
      <point x="489" y="123" type="line"/>
      <point x="463" y="108"/>
      <point x="441" y="90" type="qcurve"/>
      <point x="422" y="67"/>
      <point x="408" y="42" type="qcurve"/>
      <point x="407" y="41" type="line"/>
      <point x="361" y="-5" type="line" smooth="yes"/>
      <point x="359" y="-6"/>
      <point x="358" y="-5" type="qcurve" smooth="yes"/>
      <point x="351" y="2" type="line" smooth="yes"/>
      <point x="350" y="3"/>
      <point x="350" y="5" type="qcurve" smooth="yes"/>
      <point x="350" y="153" type="line"/>
      <point x="320" y="123" type="line"/>
      <point x="294" y="108"/>
      <point x="272" y="90" type="qcurve"/>
      <point x="253" y="67"/>
      <point x="239" y="42" type="qcurve"/>
      <point x="238" y="41" type="line"/>
      <point x="192" y="-5" type="line" smooth="yes"/>
      <point x="190" y="-6"/>
      <point x="189" y="-5" type="qcurve" smooth="yes"/>
      <point x="182" y="2" type="line" smooth="yes"/>
      <point x="181" y="3"/>
      <point x="181" y="5" type="qcurve" smooth="yes"/>
      <point x="181" y="679" type="line" smooth="yes"/>
      <point x="181" y="689"/>
      <point x="175" y="697" type="qcurve" smooth="yes"/>
      <point x="165" y="704"/>
      <point x="143" y="702"/>
      <point x="134" y="694" type="qcurve" smooth="yes"/>
      <point x="102" y="662"/>
      <point x="63" y="640" type="qcurve" smooth="yes"/>
      <point x="62" y="639"/>
      <point x="60" y="641" type="qcurve" smooth="yes"/>
      <point x="53" y="648" type="line" smooth="yes"/>
      <point x="52" y="650"/>
      <point x="54" y="651" type="qcurve" smooth="yes"/>
      <point x="100" y="697" type="line"/>
      <point x="125" y="712"/>
      <point x="148" y="731" type="qcurve"/>
      <point x="166" y="753"/>
      <point x="181" y="779" type="qcurve"/>
      <point x="227" y="825" type="line"/>
      <point x="228" y="825" type="line"/>
      <point x="229" y="826" type="line" smooth="yes"/>
      <point x="230" y="826"/>
      <point x="231" y="825" type="qcurve" smooth="yes"/>
      <point x="238" y="818" type="line" smooth="yes"/>
      <point x="239" y="817"/>
      <point x="239" y="816" type="qcurve" smooth="yes"/>
      <point x="239" y="667" type="line"/>
      <point x="269" y="697" type="line"/>
      <point x="294" y="712"/>
      <point x="317" y="731" type="qcurve"/>
      <point x="335" y="753"/>
      <point x="350" y="779" type="qcurve"/>
      <point x="396" y="825" type="line"/>
      <point x="397" y="825" type="line"/>
      <point x="398" y="826" type="line" smooth="yes"/>
      <point x="399" y="826"/>
      <point x="400" y="825" type="qcurve" smooth="yes"/>
      <point x="407" y="818" type="line" smooth="yes"/>
      <point x="408" y="817"/>
      <point x="408" y="816" type="qcurve" smooth="yes"/>
      <point x="408" y="142" type="line" smooth="yes"/>
      <point x="408" y="132"/>
      <point x="414" y="123" type="qcurve"/>
      <point x="423" y="117"/>
      <point x="446" y="118"/>
      <point x="454" y="126" type="qcurve" smooth="yes"/>
      <point x="485.48" y="156.526"/>
      <point x="521.51" y="177.952" type="qcurve"/>
      <point x="509.974" y="218.517"/>
      <point x="514" y="262" type="qcurve" smooth="yes"/>
      <point x="514" y="263"/>
      <point x="514" y="264" type="qcurve" smooth="yes"/>
      <point x="560" y="310" type="line"/>
      <point x="561.298" y="310.649" type="line"/>
      <point x="555.885" y="315.115"/>
      <point x="551" y="320" type="qcurve" smooth="yes"/>
      <point x="544" y="327" type="line" smooth="yes"/>
      <point x="514" y="358"/>
    </contour>
    <contour>
      <point x="572" y="439" type="qcurve" smooth="yes"/>
      <point x="572" y="401"/>
      <point x="598" y="373" type="qcurve" smooth="yes"/>
      <point x="652" y="323"/>
      <point x="767" y="321" type="qcurve" smooth="yes"/>
      <point x="866" y="319"/>
      <point x="926" y="354" type="qcurve"/>
      <point x="937" y="375"/>
      <point x="937" y="401" type="qcurve" smooth="yes"/>
      <point x="937" y="440"/>
      <point x="911" y="468" type="qcurve" smooth="yes"/>
      <point x="852" y="522"/>
      <point x="729" y="519" type="qcurve" smooth="yes"/>
      <point x="638" y="517"/>
      <point x="582" y="484" type="qcurve"/>
      <point x="572" y="464"/>
    </contour>
    <contour>
      <point x="239" y="644.063" type="qcurve"/>
      <point x="239" y="142" type="line" smooth="yes"/>
      <point x="239" y="132"/>
      <point x="245" y="123" type="qcurve"/>
      <point x="254" y="117"/>
      <point x="277" y="118"/>
      <point x="285" y="126" type="qcurve" smooth="yes"/>
      <point x="315.381" y="155.46"/>
      <point x="350" y="176.445" type="qcurve"/>
      <point x="350" y="679" type="line" smooth="yes"/>
      <point x="350" y="689"/>
      <point x="344" y="697" type="qcurve" smooth="yes"/>
      <point x="334" y="704"/>
      <point x="312" y="702"/>
      <point x="303" y="694" type="qcurve" smooth="yes"/>
      <point x="273.895" y="664.895"/>
    </contour>
  </outline>
</glyph>
