<?xml version="1.0" encoding="UTF-8"?>
<glyph name="o_t_e" format="2">
  <advance width="1514"/>
  <unicode hex="F3950"/>
  <outline>
    <contour>
      <point x="812" y="48" type="move" smooth="yes"/>
    </contour>
    <contour>
      <point x="827" y="88" type="qcurve" smooth="yes"/>
      <point x="820" y="95" type="line" smooth="yes"/>
      <point x="729" y="186"/>
      <point x="729" y="293" type="qcurve" smooth="yes"/>
      <point x="729" y="514" type="line"/>
      <point x="528.979" y="514" type="line"/>
      <point x="529.993" y="513.007"/>
      <point x="531" y="512" type="qcurve" smooth="yes"/>
      <point x="538" y="504" type="line"/>
      <point x="539" y="504" type="line"/>
      <point x="606" y="437"/>
      <point x="609" y="341" type="qcurve" smooth="yes"/>
      <point x="609" y="270" type="line" smooth="yes"/>
      <point x="609" y="269"/>
      <point x="608" y="268" type="qcurve" smooth="yes"/>
      <point x="562" y="222" type="line"/>
      <point x="561" y="222" type="line" smooth="yes"/>
      <point x="560" y="222"/>
      <point x="559" y="222" type="qcurve" smooth="yes"/>
      <point x="552" y="230" type="line" smooth="yes"/>
      <point x="551" y="230"/>
      <point x="551" y="231" type="qcurve" smooth="yes"/>
      <point x="551" y="302" type="line" smooth="yes"/>
      <point x="548" y="393"/>
      <point x="485" y="458" type="qcurve" smooth="yes"/>
      <point x="420" y="521"/>
      <point x="330" y="524" type="qcurve" smooth="yes"/>
      <point x="250" y="526"/>
      <point x="187" y="479" type="qcurve"/>
      <point x="174" y="462"/>
      <point x="165" y="443" type="qcurve"/>
      <point x="165" y="442" type="line"/>
      <point x="119" y="396" type="line" smooth="yes"/>
      <point x="117" y="395"/>
      <point x="116" y="396" type="qcurve" smooth="yes"/>
      <point x="115" y="396" type="line"/>
      <point x="108" y="403" type="line" smooth="yes"/>
      <point x="107" y="405"/>
      <point x="107" y="406" type="qcurve" smooth="yes"/>
      <point x="124" y="441"/>
      <point x="152" y="468" type="qcurve" smooth="yes"/>
      <point x="198" y="514" type="line" smooth="yes"/>
      <point x="269" y="585"/>
      <point x="369" y="582" type="qcurve" smooth="yes"/>
      <point x="417.318" y="580.474"/>
      <point x="458.393" y="562.393" type="qcurve"/>
      <point x="467" y="571" type="line"/>
      <point x="468" y="571" type="line"/>
      <point x="468" y="572"/>
      <point x="469" y="572" type="qcurve" smooth="yes"/>
      <point x="729" y="572" type="line"/>
      <point x="729" y="600" type="line" smooth="yes"/>
      <point x="729" y="601"/>
      <point x="730" y="602" type="qcurve" smooth="yes"/>
      <point x="776" y="648" type="line"/>
      <point x="777" y="649" type="line" smooth="yes"/>
      <point x="777.5" y="649.5"/>
      <point x="779" y="648" type="qcurve" smooth="yes"/>
      <point x="786" y="641" type="line" smooth="yes"/>
      <point x="787" y="640"/>
      <point x="787" y="639" type="qcurve" smooth="yes"/>
      <point x="787" y="572" type="line"/>
      <point x="1131" y="572" type="line" smooth="yes"/>
      <point x="1131.9" y="572"/>
      <point x="1132.8" y="571.19" type="qcurve" smooth="yes"/>
      <point x="1164.69" y="577"/>
      <point x="1203" y="577" type="qcurve" smooth="yes"/>
      <point x="1208" y="577"/>
      <point x="1212" y="577" type="qcurve" smooth="yes"/>
      <point x="1337" y="577"/>
      <point x="1393" y="521" type="qcurve" smooth="yes"/>
      <point x="1400" y="514" type="line" smooth="yes"/>
      <point x="1431" y="483"/>
      <point x="1431" y="396"/>
      <point x="1400" y="365" type="qcurve" smooth="yes"/>
      <point x="1354" y="319" type="line" smooth="yes"/>
      <point x="1324" y="289"/>
      <point x="1274" y="275.5" type="qcurve" smooth="yes"/>
      <point x="1223" y="262"/>
      <point x="1164" y="263" type="qcurve" smooth="yes"/>
      <point x="1042" y="265"/>
      <point x="987" y="320" type="qcurve" smooth="yes"/>
      <point x="980" y="327" type="line" smooth="yes"/>
      <point x="950" y="357"/>
      <point x="950" y="444"/>
      <point x="980" y="474" type="qcurve" smooth="yes"/>
      <point x="1020" y="514" type="line"/>
      <point x="787" y="514" type="line"/>
      <point x="787" y="331" type="line" smooth="yes"/>
      <point x="787" y="225"/>
      <point x="873" y="141" type="qcurve" smooth="yes"/>
      <point x="919" y="96"/>
      <point x="984" y="58" type="qcurve"/>
      <point x="991" y="51" type="line" smooth="yes"/>
      <point x="993" y="49"/>
      <point x="992" y="48" type="qcurve" smooth="yes"/>
      <point x="946" y="2" type="line"/>
      <point x="945" y="2" type="line" smooth="yes"/>
      <point x="943" y="0"/>
      <point x="942" y="1" type="qcurve" smooth="yes"/>
      <point x="876" y="39"/>
    </contour>
    <contour>
      <point x="1009" y="439" type="qcurve" smooth="yes"/>
      <point x="1009" y="398"/>
      <point x="1035" y="373" type="qcurve" smooth="yes"/>
      <point x="1086" y="323"/>
      <point x="1204" y="321" type="qcurve" smooth="yes"/>
      <point x="1303" y="319"/>
      <point x="1363" y="354" type="qcurve"/>
      <point x="1374" y="375"/>
      <point x="1374" y="401" type="qcurve" smooth="yes"/>
      <point x="1374" y="443"/>
      <point x="1348" y="468" type="qcurve" smooth="yes"/>
      <point x="1292" y="522"/>
      <point x="1166" y="519" type="qcurve" smooth="yes"/>
      <point x="1075" y="517"/>
      <point x="1019" y="484" type="qcurve"/>
      <point x="1009" y="464"/>
    </contour>
    <contour>
      <point x="160" y="68" type="line" smooth="yes"/>
      <point x="93" y="136"/>
      <point x="89" y="231" type="qcurve"/>
      <point x="89" y="302" type="line" smooth="yes"/>
      <point x="89" y="303"/>
      <point x="90" y="304" type="qcurve" smooth="yes"/>
      <point x="136" y="350" type="line" smooth="yes"/>
      <point x="137" y="351"/>
      <point x="138" y="351" type="qcurve" smooth="yes"/>
      <point x="139" y="350" type="line"/>
      <point x="146" y="343" type="line" smooth="yes"/>
      <point x="147" y="342"/>
      <point x="147" y="341" type="qcurve" smooth="yes"/>
      <point x="147" y="270" type="line" smooth="yes"/>
      <point x="150" y="179"/>
      <point x="213" y="114" type="qcurve" smooth="yes"/>
      <point x="278" y="52"/>
      <point x="369" y="49" type="qcurve" smooth="yes"/>
      <point x="448" y="46"/>
      <point x="511" y="94" type="qcurve"/>
      <point x="524" y="111"/>
      <point x="533" y="130" type="qcurve"/>
      <point x="534" y="130" type="line"/>
      <point x="580" y="176" type="line" smooth="yes"/>
      <point x="581" y="177"/>
      <point x="583" y="177" type="qcurve"/>
      <point x="583" y="176" type="line"/>
      <point x="590" y="169" type="line" smooth="yes"/>
      <point x="592" y="168"/>
      <point x="591" y="166" type="qcurve" smooth="yes"/>
      <point x="574" y="132"/>
      <point x="547" y="104" type="qcurve" smooth="yes"/>
      <point x="501" y="58" type="line"/>
      <point x="500" y="58" type="line"/>
      <point x="429" y="-13"/>
      <point x="330" y="-9" type="qcurve" smooth="yes"/>
      <point x="234" y="-6"/>
      <point x="167" y="61" type="qcurve" smooth="yes"/>
    </contour>
  </outline>
</glyph>
