<?xml version="1.0" encoding="UTF-8"?>
<glyph name="P_M" format="2">
  <advance width="1252"/>
  <unicode hex="F4010"/>
  <outline>
    <contour>
      <point x="218" y="785"/>
      <point x="219" y="786" type="qcurve" smooth="yes"/>
      <point x="265" y="832" type="line" smooth="yes"/>
      <point x="266" y="833"/>
      <point x="267" y="833" type="qcurve" smooth="yes"/>
      <point x="421" y="833" type="line" smooth="yes"/>
      <point x="422" y="833"/>
      <point x="427" y="833"/>
      <point x="430" y="833"/>
      <point x="433" y="833"/>
      <point x="434" y="833" type="qcurve" smooth="yes"/>
      <point x="515" y="833"/>
      <point x="573" y="775" type="qcurve" smooth="yes"/>
      <point x="580" y="768" type="line" smooth="yes"/>
      <point x="637" y="711"/>
      <point x="637" y="630" type="qcurve" smooth="yes"/>
      <point x="637" y="624"/>
      <point x="637" y="618" type="qcurve" smooth="yes"/>
      <point x="632" y="544"/>
      <point x="580" y="492" type="qcurve" smooth="yes"/>
      <point x="534" y="446" type="line"/>
      <point x="534" y="445" type="line"/>
      <point x="471" y="383"/>
      <point x="383" y="388" type="qcurve" smooth="yes"/>
      <point x="382" y="388"/>
      <point x="381" y="388" type="qcurve" smooth="yes"/>
      <point x="228" y="388" type="line" smooth="yes"/>
      <point x="227" y="388"/>
      <point x="226" y="389" type="qcurve" smooth="yes"/>
      <point x="219" y="396" type="line" smooth="yes"/>
      <point x="218" y="397"/>
      <point x="218" y="398"/>
      <point x="219" y="399" type="qcurve" smooth="yes"/>
      <point x="265" y="445" type="line" smooth="yes"/>
      <point x="266" y="446"/>
      <point x="267" y="446" type="qcurve" smooth="yes"/>
      <point x="421" y="446" type="line"/>
      <point x="489" y="442"/>
      <point x="544" y="481" type="qcurve"/>
      <point x="575" y="525"/>
      <point x="579" y="578" type="qcurve" smooth="yes"/>
      <point x="579" y="585"/>
      <point x="579" y="591" type="qcurve" smooth="yes"/>
      <point x="579" y="667"/>
      <point x="527" y="722" type="qcurve"/>
      <point x="471" y="775"/>
      <point x="395" y="775" type="qcurve" smooth="yes"/>
      <point x="389" y="775"/>
      <point x="382" y="775" type="qcurve" smooth="yes"/>
      <point x="228" y="775" type="line" smooth="yes"/>
      <point x="227" y="775"/>
      <point x="226" y="775" type="qcurve" smooth="yes"/>
      <point x="219" y="782" type="line" smooth="yes"/>
      <point x="218" y="783"/>
    </contour>
    <contour>
      <point x="164" y="833"/>
      <point x="165" y="832" type="qcurve" smooth="yes"/>
      <point x="172" y="825" type="line" smooth="yes"/>
      <point x="173" y="824"/>
      <point x="173" y="823" type="qcurve" smooth="yes"/>
      <point x="173" y="50" type="line" smooth="yes"/>
      <point x="173" y="49"/>
      <point x="172" y="48" type="qcurve" smooth="yes"/>
      <point x="126" y="2" type="line" smooth="yes"/>
      <point x="126" y="1"/>
      <point x="124" y="1"/>
      <point x="123" y="2" type="qcurve" smooth="yes"/>
      <point x="116" y="9" type="line" smooth="yes"/>
      <point x="115" y="10"/>
      <point x="115" y="11" type="qcurve" smooth="yes"/>
      <point x="115" y="784" type="line" smooth="yes"/>
      <point x="115" y="785"/>
      <point x="116" y="786" type="qcurve" smooth="yes"/>
      <point x="162" y="832" type="line" smooth="yes"/>
      <point x="163" y="833"/>
    </contour>
    <contour>
      <point x="706" y="826" type="line" smooth="yes"/>
      <point x="708" y="827"/>
      <point x="709" y="826" type="qcurve" smooth="yes"/>
      <point x="716" y="818" type="line"/>
      <point x="717" y="818" type="line"/>
      <point x="815" y="622" type="line" smooth="yes"/>
      <point x="816" y="620"/>
      <point x="817" y="618" type="qcurve" smooth="yes"/>
      <point x="824" y="613"/>
      <point x="832" y="612" type="qcurve"/>
      <point x="916" y="779" type="line"/>
      <point x="916" y="780" type="line"/>
      <point x="962" y="826" type="line" smooth="yes"/>
      <point x="964" y="827"/>
      <point x="965" y="826" type="qcurve" smooth="yes"/>
      <point x="972" y="819" type="line" smooth="yes"/>
      <point x="974" y="817"/>
      <point x="973" y="816" type="qcurve" smooth="yes"/>
      <point x="845" y="560" type="line" smooth="yes"/>
      <point x="844" y="559"/>
      <point x="844" y="558" type="qcurve" smooth="yes"/>
      <point x="798" y="512" type="line" smooth="yes"/>
      <point x="796" y="512"/>
      <point x="795" y="513" type="qcurve" smooth="yes"/>
      <point x="788" y="520" type="line"/>
      <point x="787" y="520" type="line"/>
      <point x="659" y="777" type="line" smooth="yes"/>
      <point x="658" y="778"/>
      <point x="660" y="780" type="qcurve" smooth="yes"/>
    </contour>
    <contour>
      <point x="1066" y="827" type="qcurve"/>
      <point x="1067" y="827"/>
      <point x="1068" y="826" type="qcurve" smooth="yes"/>
      <point x="1075" y="818" type="line"/>
      <point x="1076" y="818" type="line"/>
      <point x="1076" y="817" type="line"/>
      <point x="1153" y="48" type="line" smooth="yes"/>
      <point x="1153" y="47"/>
      <point x="1152" y="46" type="qcurve" smooth="yes"/>
      <point x="1106" y="0" type="line"/>
      <point x="1106" y="-1" type="line"/>
      <point x="1105" y="-1" type="line" smooth="yes"/>
      <point x="1104" y="-1"/>
      <point x="1103" y="0" type="qcurve" smooth="yes"/>
      <point x="1096" y="7" type="line"/>
      <point x="1095" y="8" type="line"/>
      <point x="1018" y="778" type="line" smooth="yes"/>
      <point x="1018" y="779"/>
      <point x="1019" y="780" type="qcurve" smooth="yes"/>
      <point x="1065" y="826" type="line" smooth="yes"/>
      <point x="1066" y="826"/>
    </contour>
  </outline>
</glyph>
