<?xml version="1.0"?>
<!-- Created by MetaPost 2.000 on 2019.04.05:1135 -->
<svg version="1.1" xmlns="http://www.w3.org/2000/svg" xmlns:xlink="http://www.w3.org/1999/xlink" width="2.400000" height="9.800000" viewBox="0 0 2.400000 9.800000">
<!-- Original BoundingBox: -0.600000 0.100000 1.800000 9.800000 -->
  <path d="M1.050000 2.550000L0.900000 1.950000L0.150000 3.150000L0.150000 8.400000L1.050000 7.800000Z" style="fill: rgb(0.000000%,0.000000%,0.000000%);stroke: none;"></path>
  <path d="M0.900000 8.900000L1.800000 8.300000L1.650000 7.700000C1.188884 7.433774,0.611116 7.466226,0.150000 7.200000L-0.600000 8.400000C-0.138884 8.666226,0.438884 8.633774,0.900000 8.900000Z" style="fill: rgb(0.000000%,0.000000%,0.000000%);stroke: none;"></path>
  <path d="M0.400000 -0.300000L-0.350000 0.900000L0.650000 0.400000L1.550000 -0.200000L1.400000 -0.800000Z" style="fill: rgb(0.000000%,0.000000%,0.000000%);stroke: none;"></path>
  <path d="M0.400000 1.700000L-0.350000 2.900000C-0.221119 3.043792,-0.042363 3.133170,0.150000 3.150000L1.050000 2.550000L0.900000 1.950000C0.707637 1.933170,0.528881 1.843792,0.400000 1.700000Z" style="fill: rgb(0.000000%,0.000000%,0.000000%);stroke: none;"></path>
</svg>
