prologues:=3;
outputformat:="mps";
outputtemplate:=("%j" & "." & outputformat);
verbatimtex
%&latex
\documentclass{minimal}
\begin{document}
etex
beginfig(0);
pair q[];
q0=(4.5,6.5);
q1=(5.25,3.5);
q3=(0.75,0.5);
path p; p := q0--q1--q3;
pen pentriangle;
pentriangle := makepen(p);
z1=(0,5.5);
z2=(0.25,0.75);
z3=(1.25,0);
z4=(0.75,6);
z5=(1.25,5.75);
z7=(2,0.5);
draw z1{dir 240}..z2..{dir 350}z3--z7 withpen pentriangle scaled 0.2;
draw z1--z4{dir 0}..z5..{dir 240}z7 withpen pentriangle scaled 0.2;
endfig;
end