<?xml version="1.0" encoding="UTF-8" standalone="no"?>
<!-- Created by MetaPost 2.000 on 2019.04.05:1202 -->

<svg
   xmlns:dc="http://purl.org/dc/elements/1.1/"
   xmlns:cc="http://creativecommons.org/ns#"
   xmlns:rdf="http://www.w3.org/1999/02/22-rdf-syntax-ns#"
   xmlns:svg="http://www.w3.org/2000/svg"
   xmlns="http://www.w3.org/2000/svg"
   xmlns:sodipodi="http://sodipodi.sourceforge.net/DTD/sodipodi-0.dtd"
   xmlns:inkscape="http://www.inkscape.org/namespaces/inkscape"
   version="1.1"
   width="4.070814"
   height="7.300000"
   viewBox="0 0 4.070814 7.300000"
   id="svg6"
   sodipodi:docname="111.svg"
   inkscape:version="0.92.3 (2405546, 2018-03-11)">
  <metadata
     id="metadata12">
    <rdf:RDF>
      <cc:Work
         rdf:about="">
        <dc:format>image/svg+xml</dc:format>
        <dc:type
           rdf:resource="http://purl.org/dc/dcmitype/StillImage" />
        <dc:title></dc:title>
      </cc:Work>
    </rdf:RDF>
  </metadata>
  <defs
     id="defs10">
    <inkscape:path-effect
       effect="roughen"
       id="path-effect826"
       is_visible="true"
       method="size"
       max_segment_size="1"
       segments="2"
       displace_x="10;1"
       displace_y="10;1"
       global_randomize="1;1"
       handles="smooth"
       shift_nodes="true"
       fixed_displacement="false"
       spray_tool_friendly="false" />
  </defs>
  <sodipodi:namedview
     pagecolor="#ffffff"
     bordercolor="#666666"
     borderopacity="1"
     objecttolerance="10"
     gridtolerance="10"
     guidetolerance="10"
     inkscape:pageopacity="0"
     inkscape:pageshadow="2"
     inkscape:window-width="1533"
     inkscape:window-height="845"
     id="namedview8"
     showgrid="false"
     inkscape:zoom="32.328766"
     inkscape:cx="2.6849834"
     inkscape:cy="4.8872883"
     inkscape:window-x="67"
     inkscape:window-y="27"
     inkscape:window-maximized="1"
     inkscape:current-layer="svg6" />
  <!-- Original BoundingBox: -0.429548 0.100000 3.641265 7.300000 -->
  <g
     id="g824">
    <path
       id="path2"
       style="fill: rgb(0.000000%,0.000000%,0.000000%);stroke: none;"
       d="M1.050000 0.800000L0.900000 0.200000L0.150000 1.400000C-0.710702 2.890779,-0.600713 4.746867,0.400000 6.150000C0.652036 6.503387,0.973721 6.824835,1.400000 6.900000L2.300000 6.300000L2.356405 6.262396L1.456405 6.862396L1.803207 6.631195L2.703207 6.031195L3.050000 5.800000L2.900000 5.200000L2.150000 5.700000C1.723721 5.624835,1.402036 5.303387,1.150000 4.950000C0.819306 4.486323,0.585881 3.973181,0.452612 3.440105L0.602612 4.040105C0.332596 2.960039,0.473725 1.798138,1.050000 0.800000Z" />
    <path
       id="path4"
       style="fill: rgb(0.000000%,0.000000%,0.000000%);stroke: none;"
       d="M0.900000 0.200000L0.150000 1.400000L1.050000 0.800000L1.164456 0.723696L0.264456 1.323696L0.637796 1.074803L1.537796 0.474803L1.800000 0.300000L0.900000 0.900000C1.093033 0.900000,1.256402 1.020537,1.400000 1.150000C2.872534 2.477586,3.147989 4.671432,2.150000 6.400000L3.050000 5.800000C3.629435 4.796389,3.779593 3.635934,3.515420 2.579243L3.365420 1.979243C3.174595 1.215943,2.767577 0.506786,2.150000 -0.050000C2.006402 -0.179463,1.843033 -0.300000,1.650000 -0.300000Z" />
  </g>
</svg>
