prologues:=3;
outputformat:="mps";
outputtemplate:=("%j" & "." & outputformat);
verbatimtex
%&latex
\documentclass{minimal}
\begin{document}
etex
beginfig(0);
pair q[];
q0=(4.5,6.5);
q1=(5.25,3.5);
q3=(0.75,0.5);
path p; p := q0--q1--q3;
pen pentriangle;
pentriangle := makepen(p);
z1=(0,5);
z2=(-0.5,0.75);
z3=(1.5,0);
z4=(1.25,6);
z8=(0,-2);
z10=(-1,5.5);
z11=(0,5);
draw z1--z8 withpen pentriangle scaled 0.2;
draw z1--z4 withpen pentriangle scaled 0.2;
draw z4..{dir 230}z3 withpen pentriangle scaled 0.2;
draw z10..{dir 320}z1 withpen pentriangle scaled 0.2;
draw z3..{dir 170}z2 withpen pentriangle scaled 0.2;
endfig;
end