prologues:=3;
outputformat:="mps";
outputtemplate:=("%j" & "." & outputformat);
verbatimtex
%&latex
\documentclass{minimal}
\begin{document}
etex
beginfig(0);
pair q[];
q0=(4.5,6.5);
q1=(5.25,3.5);
q3=(0.75,0.5);
path p; p := q0--q1--q3;
pen pentriangle;
pentriangle := makepen(p);
z4=(1.25,6);
z5=(2,5.5);
z6=(2.5,6);
z7=(2,0.5);
z8=(4.25,5.75);
z12=(1.5,0.5);
z13=(3,0);
draw z4..{dir 320}z5 withpen pentriangle scaled 0.2;
draw z5--z7 withpen pentriangle scaled 0.2;
draw z12{dir 360}..{dir 360}z13 withpen pentriangle scaled 0.2;
draw z5--z6..{dir 30}z8 withpen pentriangle scaled 0.2;
endfig;
end