<?xml version="1.0"?>
<!-- Created by MetaPost 2.000 on 2019.04.05:1209 -->
<svg version="1.1" xmlns="http://www.w3.org/2000/svg" xmlns:xlink="http://www.w3.org/1999/xlink" width="4.030766" height="7.300000" viewBox="0 0 4.030766 7.300000">
<!-- Original BoundingBox: -0.600000 0.100000 3.430766 7.300000 -->
  <path d="M1.550000 0.300000L1.400000 -0.300000C1.278016 -0.170673,1.169352 -0.029808,1.075452 0.120434L0.325452 1.320434C0.259525 1.425917,0.200875 1.536021,0.150000 1.650000C-0.169570 2.365958,-0.169570 3.184042,0.150000 3.900000L0.650000 4.400000L1.550000 3.800000L3.050000 2.300000L2.150000 2.900000C2.657688 3.923853,2.657688 5.126147,2.150000 6.150000C2.098431 6.253999,2.041827 6.355298,1.980422 6.453546L2.730422 5.253546C2.632240 5.410637,2.521782 5.559931,2.400000 5.700000L1.650000 6.900000L2.550000 6.300000C2.747947 6.072329,2.915976 5.820286,3.050000 5.550000C3.439780 4.763931,3.530304 3.872682,3.321573 3.037758L3.171573 2.437758C3.108432 2.185194,3.017908 1.937785,2.900000 1.700000L1.400000 3.200000L0.900000 2.700000C0.833898 2.551907,0.781470 2.399445,0.742714 2.244421L0.892714 2.844421C0.744103 2.249978,0.796531 1.617866,1.050000 1.050000C1.173337 0.773679,1.342372 0.520127,1.550000 0.300000Z" style="fill: rgb(0.000000%,0.000000%,0.000000%);stroke: none;"></path>
  <path d="M1.400000 -0.300000L0.650000 0.900000C1.025902 1.331279,1.654543 1.436052,2.150000 1.150000L3.050000 0.550000L2.900000 -0.050000C2.404543 0.236052,1.775902 0.131279,1.400000 -0.300000Z" style="fill: rgb(0.000000%,0.000000%,0.000000%);stroke: none;"></path>
  <path d="M0.150000 4.950000L-0.600000 6.150000C0.192943 6.245534,0.958326 6.500662,1.650000 6.900000L2.550000 6.300000L2.400000 5.700000C1.708326 5.300662,0.942943 5.045534,0.150000 4.950000Z" style="fill: rgb(0.000000%,0.000000%,0.000000%);stroke: none;"></path>
</svg>
