<?xml version="1.0"?>
<!-- Created by MetaPost 2.000 on 2019.04.05:1214 -->
<svg version="1.1" xmlns="http://www.w3.org/2000/svg" xmlns:xlink="http://www.w3.org/1999/xlink" width="6.943669" height="8.800000" viewBox="0 0 6.943669 8.800000">
<!-- Original BoundingBox: -0.893669 0.100000 6.050000 8.800000 -->
  <path d="M0.050000 -0.200000L-0.100000 -0.800000L-0.850000 0.400000C-1.233381 2.574263,1.066818 4.931759,-0.137225 6.858227L0.612775 5.658227C0.551269 5.756637,0.480619 5.853922,0.400000 5.950000L-0.350000 7.150000L0.550000 6.550000C1.213438 5.759345,1.201764 4.886976,0.974651 3.978525L0.824651 3.378525C0.615489 2.541877,0.223599 1.674626,0.008046 0.812414L0.158046 1.412414C0.022440 0.869990,-0.043376 0.329560,0.050000 -0.200000Z" style="fill: rgb(0.000000%,0.000000%,0.000000%);stroke: none;"></path>
  <path d="M0.650000 2.200000L-0.100000 3.400000L0.800000 2.800000L2.550000 1.300000L2.400000 0.700000Z" style="fill: rgb(0.000000%,0.000000%,0.000000%);stroke: none;"></path>
  <path d="M2.400000 0.700000L1.650000 1.900000C2.963874 3.465814,3.092029 5.678976,2.034468 7.371075L2.784468 6.171075C2.670163 6.353962,2.542007 6.530762,2.400000 6.700000L1.650000 7.900000L2.550000 7.300000C3.538152 6.122366,3.855614 4.578566,3.502387 3.165657L3.352387 2.565657C3.185191 1.896874,2.867729 1.257418,2.400000 0.700000Z" style="fill: rgb(0.000000%,0.000000%,0.000000%);stroke: none;"></path>
  <path d="M1.650000 7.900000L2.550000 7.300000L2.400000 6.700000C1.785213 6.328960,1.107167 6.074693,0.400000 5.950000L-0.350000 7.150000C0.357167 7.274693,1.035213 7.528960,1.650000 7.900000Z" style="fill: rgb(0.000000%,0.000000%,0.000000%);stroke: none;"></path>
  <path d="M5.150000 2.400000L6.050000 1.800000L5.900000 1.200000C5.284441 1.179679,4.683380 1.007947,4.150000 0.700000L3.150000 1.700000L2.400000 2.900000L3.300000 2.300000L4.300000 1.300000L3.400000 1.900000C3.933380 2.207947,4.534441 2.379679,5.150000 2.400000Z" style="fill: rgb(0.000000%,0.000000%,0.000000%);stroke: none;"></path>
  <path d="M3.150000 5.950000L2.400000 7.150000C2.917680 7.531627,3.516629 7.788320,4.150000 7.900000L5.050000 7.300000L4.900000 6.700000C4.266629 6.588320,3.667680 6.331627,3.150000 5.950000Z" style="fill: rgb(0.000000%,0.000000%,0.000000%);stroke: none;"></path>
  <path d="M5.800000 1.800000L5.650000 1.200000C5.512507 1.315370,5.404489 1.440713,5.320968 1.574347L4.570968 2.774347C3.748561 4.090197,5.301439 6.209803,4.479032 7.525653L5.229032 6.325653C5.145511 6.459287,5.037493 6.584630,4.900000 6.700000L4.150000 7.900000L5.050000 7.300000C6.678839 5.933242,4.171161 3.166758,5.800000 1.800000Z" style="fill: rgb(0.000000%,0.000000%,0.000000%);stroke: none;"></path>
</svg>
