prologues:=3;
outputformat:="mps";
outputtemplate:=("%j" & "." & outputformat);
verbatimtex
%&latex
\documentclass{minimal}
\begin{document}
etex
beginfig(0);
pair q[];
q0=(4.5,6.5);
q1=(5.25,3.5);
q3=(0.75,0.5);
path p; p := q0--q1--q3;
pen pentriangle;
pentriangle := makepen(p);
z4=(1.25,6);
z5=(2,5.5);
z6=(3,6);
z7=(2,0);
z8=(4,5.5);
z12=(2,0.5);
z13=(4,0);
z1=(1,0.5);
z2=(1.5,3);
z3=(3.75,3);
draw z6..{dir 350}z8 withpen pentriangle scaled 0.2;
draw z4{dir 300}..{dir 240}z7 withpen pentriangle scaled 0.2;
draw z2--z3 withpen pentriangle scaled 0.2;
draw z1..{dir 320}z7 withpen pentriangle scaled 0.2;
draw z6{dir 260}..{dir 310}z13 withpen pentriangle scaled 0.2;
endfig;
end