prologues:=3;
outputformat:="mps";
outputtemplate:=("%j" & "." & outputformat);
verbatimtex
%&latex
\documentclass{minimal}
\begin{document}
etex
beginfig(0);
    pair q[];
q0=(4.5,6.5);
q1=(5.25,3.5);
q3=(0.75,0.5);
path p; p := q0--q1--q3;
pen pentriangle;
pentriangle := makepen(p);
z7=(0.25,2.75);
z11=(0.75,-0.5);
z15=(0.75,6);
draw z15{dir 220}..{dir 220}z7 withpen pentriangle scaled 0.2;
draw z7{dir 320}..{dir 320}z11 withpen pentriangle scaled 0.2;
endfig;
end