<?xml version="1.0"?>
<!-- Created by MetaPost 2.000 on 2019.04.16:1132 -->
<svg version="1.1" xmlns="http://www.w3.org/2000/svg" xmlns:xlink="http://www.w3.org/1999/xlink" width="1.800000" height="7.700000" viewBox="0 0 1.800000 7.700000">
<!-- Original BoundingBox: 0.400000 -0.400000 1.800000 7.300000 -->
  <path d="M1.800000 0.300000L1.650000 -0.300000C1.567529 -0.230799,1.502643 -0.155404,1.452316 -0.074880L0.702316 1.125120C0.217983 1.900052,1.082017 3.149948,0.597684 3.924880L1.347684 2.724880C1.297357 2.805404,1.232471 2.880799,1.150000 2.950000L0.400000 4.150000L1.300000 3.550000C2.258611 2.745630,0.841389 1.104370,1.800000 0.300000Z" style="fill: rgb(0.000000%,0.000000%,0.000000%);stroke: none;"></path>
  <path d="M1.150000 2.950000L0.400000 4.150000C1.358611 4.954370,-0.058611 6.595630,0.900000 7.400000L1.800000 6.800000L1.650000 6.200000C1.479065 6.056569,1.383673 5.886527,1.336883 5.699366L1.486883 6.299366C1.318061 5.624079,1.781939 4.725921,1.613117 4.050634L1.463117 3.450634C1.416327 3.263473,1.320935 3.093431,1.150000 2.950000Z" style="fill: rgb(0.000000%,0.000000%,0.000000%);stroke: none;"></path>
</svg>
