prologues:=3;
outputformat:="mps";
outputtemplate:=("%j" & "." & outputformat);
verbatimtex
%&latex
\documentclass{minimal}
\begin{document}
etex
beginfig(0);
pair q[];
q0=(4.5,6.5);
q1=(5.25,3.5);
q3=(0.75,0.5);
path p; p := q0--q1--q3;
pen pentriangle;
pentriangle := makepen(p);
z7=(2.75,1.5);
z12=(3,5.5);
z14=(5,3.5);
z1=(0.5,1.5);
z2=(0.5,4.75);
z3=(2.25,3.25);
draw z14{dir 240}..{dir 200}z7 withpen pentriangle scaled 0.2;
draw z14{dir 170}..{dir 140}z12 withpen pentriangle scaled 0.2;
draw z3{dir 240}..{dir 200}z1 withpen pentriangle scaled 0.2;
draw z3{dir 170}..{dir 140}z2 withpen pentriangle scaled 0.2;
endfig;
end