<?xml version="1.0"?>
<!-- Created by MetaPost 2.000 on 2019.04.15:1101 -->
<svg version="1.1" xmlns="http://www.w3.org/2000/svg" xmlns:xlink="http://www.w3.org/1999/xlink" width="4.350000" height="8.300000" viewBox="0 0 4.350000 8.300000">
<!-- Original BoundingBox: -0.600000 4.600000 3.750000 8.300000 -->
  <path d="M0.150000 2.200000L-0.600000 3.400000L0.300000 2.800000C0.849112 2.258482,1.216081 1.559494,1.350000 0.800000L1.200000 0.200000C0.863753 0.005867,0.486247 -0.105867,0.150000 -0.300000L-0.600000 0.900000C-0.263753 1.094133,0.113753 1.205867,0.450000 1.400000C0.366689 1.872482,0.193185 2.321548,-0.058256 2.723853L0.691744 1.523853C0.539006 1.768235,0.357508 1.995361,0.150000 2.200000Z" style="fill: rgb(0.000000%,0.000000%,0.000000%);stroke: none;"></path>
  <path d="M2.650000 2.200000L1.900000 3.400000L2.800000 2.800000C3.291237 2.231206,3.619493 1.540141,3.750000 0.800000L3.600000 0.200000C3.289975 0.021007,2.960025 -0.121007,2.650000 -0.300000L1.900000 0.900000C2.210025 1.078993,2.539975 1.221007,2.850000 1.400000C2.756736 1.928928,2.562482 2.432792,2.279926 2.884881L3.029926 1.684881C2.917095 1.865411,2.790184 2.037684,2.650000 2.200000Z" style="fill: rgb(0.000000%,0.000000%,0.000000%);stroke: none;"></path>
</svg>
