prologues:=3;
outputformat:="mps";
outputtemplate:=("%j" & "." & outputformat);
verbatimtex
%&latex
\documentclass{minimal}
\begin{document}
etex
beginfig(0);
pair q[];
q0=(4.5,6.5);
q1=(5.25,3.5);
q3=(0.75,0.5);
path p; p := q0--q1--q3;
pen pentriangle;
pentriangle := makepen(p);
z5=(2.25,5.15);
z6=(5,3);
z7=(0.4,3);
z8=(1,6.5);
z9=(3.25,6);
z10=(0,6);
z11=(3,0.5);
z12=(0.25,4.5);
z14=(2.5,3.75);
z15=(1,3.5);
z16=(3.5,2.75);
z1=(6,4);
draw z15..z7..z6 withpen pentriangle scaled 0.2;
draw z10--z8..{dir 10}z9 withpen pentriangle scaled 0.2;
draw z10..z12..z14 withpen pentriangle scaled 0.2;
draw z9--z14 withpen pentriangle scaled 0.2;
draw z16{dir 360}..z1 withpen pentriangle scaled 0.2;
endfig;
end