prologues:=3;
outputformat:="mps";
outputtemplate:=("%j" & "." & outputformat);
verbatimtex
%&latex
\documentclass{minimal}
\begin{document}
etex
beginfig(0);
pair q[];
q0=(4.5,6.5);
q1=(5.25,3.5);
q3=(0.75,0.5);
path p; p := q0--q1--q3;
pen pentriangle;
pentriangle := makepen(p);
z1=(0,5.75);
z2=(0,0.5);
z3=(0.5,0.5);
z4=(-1,-1.5);
z5=(2,5.25);
z6=(-0.5,8);
z7=(2.75,0);
z8=(0.5,8.5);
z9=(-0.75,1);
z10=(-0.5,6);
z11=(0.5,5.75);
draw z4..{dir 80}z3{dir 150}..{dir 150}z9 withpen pentriangle scaled 0.2;
endfig;
end