prologues:=3;
outputformat:="mps";
outputtemplate:=("%j" & "." & outputformat);
verbatimtex
%&latex
\documentclass{minimal}
\begin{document}
etex
beginfig(0);
pair q[];
q0=(4.5,6.5);
q1=(5.25,3.5);
q3=(0.75,0.5);
path p; p := q0--q1--q3;
pen pentriangle;
pentriangle := makepen(p);
z1=(-1.5,0.5);
z2=(-1,1);
z5=(2.5,6.75);
z6=(2.5,2.25);
z7=(3.5,0.5);
z10=(0.75,3);
z11=(1.75,3.5);
z14=(-0.5,7.25);
draw z5{dir 260}..{dir 310}z7 withpen pentriangle scaled 0.2;
draw z10--z11 withpen pentriangle scaled 0.2;
draw z14{dir 30}..{dir 230}z2 withpen pentriangle scaled 0.2;
draw z1{dir 60}..{dir 80}z6 withpen pentriangle scaled 0.2;
endfig;
end