<?xml version="1.0"?>
<!-- Created by MetaPost 2.000 on 2019.04.05:1236 -->
<svg version="1.1" xmlns="http://www.w3.org/2000/svg" xmlns:xlink="http://www.w3.org/1999/xlink" width="5.606607" height="8.300000" viewBox="0 0 5.606607 8.300000">
<!-- Original BoundingBox: -1.556607 0.082399 4.050000 8.300000 -->
  <path d="M2.050000 0.300000L1.900000 -0.300000L1.150000 0.900000C0.256836 2.447005,2.043164 4.352995,1.150000 5.900000L2.050000 5.300000C2.448584 4.609632,2.313551 3.847772,2.121165 3.078228L1.971165 2.478228C1.924830 2.292891,1.875170 2.107109,1.828835 1.921772L1.978835 2.521772C1.786449 1.752228,1.651416 0.990368,2.050000 0.300000Z" style="fill: rgb(0.000000%,0.000000%,0.000000%);stroke: none;"></path>
  <path d="M0.900000 1.900000L1.800000 1.300000L1.650000 0.700000C1.246322 0.936613,0.909098 1.266354,0.664232 1.658140L-0.085768 2.858140C-0.191898 3.027948,-0.280679 3.209412,-0.350000 3.400000C-1.198002 5.731446,0.681552 8.148016,3.150000 7.900000L4.150000 7.400000L5.050000 6.800000L4.900000 6.200000L3.900000 6.700000C2.138379 6.876998,0.676684 5.696912,0.292249 4.159171L0.442249 4.759171C0.287999 4.142174,0.307179 3.467597,0.550000 2.800000C0.760233 2.221999,1.149437 1.727919,1.658785 1.388354L0.758785 1.988354Z" style="fill: rgb(0.000000%,0.000000%,0.000000%);stroke: none;"></path>
  <path d="M1.900000 1.200000L1.150000 2.400000L2.050000 1.800000L3.050000 0.300000L2.150000 0.900000C2.625588 1.326583,3.270835 1.510939,3.900000 1.400000L4.800000 0.800000L4.650000 0.200000C4.020835 0.310939,3.375588 0.126583,2.900000 -0.300000Z" style="fill: rgb(0.000000%,0.000000%,0.000000%);stroke: none;"></path>
</svg>
