prologues:=3;
outputformat:="mps";
outputtemplate:=("%j" & "." & outputformat);
verbatimtex
%&latex
\documentclass{minimal}
\begin{document}
etex
beginfig(0);
pair q[];
q0=(4.5,6.5);
q1=(5.25,3.5);
q3=(0.75,0.5);
path p; p := q0--q1--q3;
pen pentriangle;
pentriangle := makepen(p);
z3=(-0.5,-1);
z1=(1.5,3.5);
z2=(2.65,3);
z5=(3,6.75);
z6=(2.5,0);
z7=(2.5,-1.5);
z8=(1,7);
z12=(3.5,7);
z14=(0,7);
draw z5{dir 240}..{dir 240}z7 withpen pentriangle scaled 0.2;
draw z3{dir 20}..{dir 20}z7 withpen pentriangle scaled 0.2;
draw z14{dir 60}..{dir 40}z12 withpen pentriangle scaled 0.2;
draw z1..{dir 330}z2 withpen pentriangle scaled 0.2;
endfig;
end