prologues:=3;
outputformat:="mps";
outputtemplate:=("%j" & "." & outputformat);
verbatimtex
%&latex
\documentclass{minimal}
\begin{document}
etex
beginfig(0);
pair q[];
q0=(4.5,6.5);
q1=(5.25,3.5);
q3=(0.75,0.5);
path p; p := q0--q1--q3;
pen pentriangle;
pentriangle := makepen(p);
z1=(0,7);
z2=(0,2);
z3=(2.5,4);
z5=(2.25,5.15);
z6=(0.5,4.5);
z7=(-1.5,4.5);
z8=(0.5,3);
z9=(4.5,4);
z10=(0,6.5);
z11=(3,0.5);
z15=(-0.25,6);
draw z1{dir 240}..{dir 240}z2 withpen pentriangle scaled 0.2;
draw z15..z7..z11 withpen pentriangle scaled 0.2;
draw z10..z9..z11 withpen pentriangle scaled 0.2;
draw z8..{dir 350}z3 withpen pentriangle scaled 0.2;
endfig;
end