<?xml version="1.0"?>
<!-- Created by MetaPost 2.000 on 2019.04.15:1150 -->
<svg version="1.1" xmlns="http://www.w3.org/2000/svg" xmlns:xlink="http://www.w3.org/1999/xlink" width="5.900000" height="1.539341" viewBox="0 0 5.900000 1.539341">
<!-- Original BoundingBox: -1.350000 -0.069671 4.550000 1.469671 -->
  <path d="M0.400000 -0.300000L-0.350000 0.900000C1.264848 0.312243,3.035152 1.487757,4.650000 0.900000L5.550000 0.300000L5.400000 -0.300000C3.785152 0.287757,2.014848 -0.887757,0.400000 -0.300000Z" style="fill: rgb(0.000000%,0.000000%,0.000000%);stroke: none;"></path>
</svg>
