<?xml version="1.0"?>
<!-- Created by MetaPost 2.000 on 2019.04.15:1209 -->
<svg version="1.1" xmlns="http://www.w3.org/2000/svg" xmlns:xlink="http://www.w3.org/1999/xlink" width="2.900000" height="9.300000" viewBox="0 0 2.900000 9.300000">
<!-- Original BoundingBox: -0.350000 7.100000 2.550000 9.300000 -->
  <path d="M0.400000 -0.300000L-0.350000 0.900000L1.650000 1.900000L2.550000 1.300000L2.400000 0.700000Z" style="fill: rgb(0.000000%,0.000000%,0.000000%);stroke: none;"></path>
</svg>
