<!-- Created by MetaPost 2.000 on 2020.07.05:0648 --><svg xmlns="http://www.w3.org/2000/svg" xmlns:xlink="http://www.w3.org/1999/xlink" version="1.1" width="350" height="550" viewBox="0 0 350 550">
<!-- Original BoundingBox: -4.000000 -4.000000 55.023610 89.084546 -->
  <path d="M4.000000 3.960650L4.000000 89.000000" style="stroke:rgb(0.000000%,0.000000%,0.000000%); stroke-width: 0.000000;stroke-linecap: round;stroke-linejoin: round;stroke-miterlimit: 10.000000;fill: none;"/>
  <path d="M15.338580 3.960650L32.346450 3.960650C44.627040 3.167529,55.023610 12.914313,55.023610 25.220487C55.023610 37.526662,44.627040 47.273446,32.346450 46.480325L15.338580 46.480325" style="stroke:rgb(0.000000%,0.000000%,0.000000%); stroke-width: 0.000000;stroke-linecap: round;stroke-linejoin: round;stroke-miterlimit: 10.000000;fill: none;"/>
</svg>