<!-- Created by MetaPost 2.000 on 2020.07.04:0641 --><svg xmlns="http://www.w3.org/2000/svg" xmlns:xlink="http://www.w3.org/1999/xlink" version="1.1" width="350" height="550" viewBox="0 0 350 550">
<!-- Original BoundingBox: -4.000000 -4.000000 55.023610 89.039350 -->
  <path d="M4.000000 3.960650L4.000000 89.000000" style="stroke:rgb(0.000000%,0.000000%,0.000000%); stroke-width: 0.000000;stroke-linecap: round;stroke-linejoin: round;stroke-miterlimit: 10.000000;fill: none;"/>
  <path d="M4.000000 60.653550C4.000000 75.819240,14.876899 89.000000,29.511805 89.000000C44.146711 89.000000,55.023610 75.819240,55.023610 60.653550C55.023610 45.487860,44.146711 32.307100,29.511805 32.307100C14.876899 32.307100,4.000000 45.487860,4.000000 60.653550Z" style="stroke:rgb(0.000000%,0.000000%,0.000000%); stroke-width: 0.000000;stroke-linecap: round;stroke-linejoin: round;stroke-miterlimit: 10.000000;fill: none;"/>
</svg>