<?xml version="1.0" encoding="UTF-8"?>
<glyph name="A" format="2">
  <advance width="801"/>
  <unicode hex="0041"/>
  <outline>
    <contour>
      <point x="244" y="273"/>
      <point x="244" y="274" type="qcurve" smooth="yes"/>
      <point x="290" y="320" type="line"/>
      <point x="291" y="320" type="line"/>
      <point x="292" y="321" type="line"/>
      <point x="549" y="321" type="line"/>
      <point x="550" y="320" type="line"/>
      <point x="557" y="313" type="line" smooth="yes"/>
      <point x="558" y="312"/>
      <point x="558" y="311"/>
      <point x="557" y="310" type="qcurve" smooth="yes"/>
      <point x="511" y="264" type="line"/>
      <point x="510" y="263" type="line"/>
      <point x="253" y="263" type="line" smooth="yes"/>
      <point x="252" y="263"/>
      <point x="251" y="264" type="qcurve" smooth="yes"/>
      <point x="244" y="271" type="line" smooth="yes"/>
      <point x="244" y="272"/>
    </contour>
    <contour>
      <point x="664" y="7" type="line" smooth="yes"/>
      <point x="663" y="6"/>
      <point x="662" y="8" type="qcurve" smooth="yes"/>
      <point x="655" y="15" type="line"/>
      <point x="654" y="15" type="line"/>
      <point x="423" y="785" type="line" smooth="yes"/>
      <point x="423" y="786"/>
      <point x="424" y="788" type="qcurve" smooth="yes"/>
      <point x="470" y="834" type="line"/>
      <point x="471" y="834" type="line" smooth="yes"/>
      <point x="472" y="834"/>
      <point x="474" y="833" type="qcurve" smooth="yes"/>
      <point x="481" y="826" type="line"/>
      <point x="481" y="825" type="line"/>
      <point x="712" y="56" type="line" smooth="yes"/>
      <point x="712" y="54"/>
      <point x="711" y="53" type="qcurve" smooth="yes"/>
      <point x="665" y="7" type="line"/>
    </contour>
    <contour>
      <point x="370" y="834" type="qcurve" smooth="yes"/>
      <point x="377" y="827" type="line"/>
      <point x="378" y="826" type="line" smooth="yes"/>
      <point x="379" y="825"/>
      <point x="378" y="824" type="qcurve" smooth="yes"/>
      <point x="148" y="54" type="line"/>
      <point x="147" y="54" type="line"/>
      <point x="101" y="8" type="line" smooth="yes"/>
      <point x="100" y="6"/>
      <point x="98" y="7" type="qcurve" smooth="yes"/>
      <point x="91" y="14" type="line" smooth="yes"/>
      <point x="89" y="16"/>
      <point x="90" y="17" type="qcurve" smooth="yes"/>
      <point x="321" y="786" type="line"/>
      <point x="321" y="787" type="line"/>
      <point x="367" y="833" type="line" smooth="yes"/>
      <point x="368" y="834"/>
    </contour>
  </outline>
</glyph>
