<?xml version="1.0" encoding="UTF-8"?>
<glyph name="Odieresis" format="2">
  <advance width="853"/>
  <unicode hex="00D6"/>
  <outline>
    <contour>
      <point x="125" y="557" type="qcurve"/>
      <point x="124" y="557" type="line"/>
      <point x="117" y="564" type="line" smooth="yes"/>
      <point x="115" y="566"/>
      <point x="116" y="567" type="qcurve" smooth="yes"/>
      <point x="132" y="654"/>
      <point x="194" y="716" type="qcurve" smooth="yes"/>
      <point x="240" y="762" type="line" smooth="yes"/>
      <point x="326" y="847"/>
      <point x="446" y="845" type="qcurve" smooth="yes"/>
      <point x="563" y="844"/>
      <point x="646" y="761" type="qcurve" smooth="yes"/>
      <point x="653" y="754" type="line" smooth="yes"/>
      <point x="736" y="671"/>
      <point x="738" y="554" type="qcurve" smooth="yes"/>
      <point x="738" y="393" type="line"/>
      <point x="737" y="392" type="line"/>
      <point x="691" y="346" type="line"/>
      <point x="690" y="345" type="line" smooth="yes"/>
      <point x="689" y="345"/>
      <point x="688" y="346" type="qcurve" smooth="yes"/>
      <point x="681" y="353" type="line" smooth="yes"/>
      <point x="680" y="354"/>
      <point x="680" y="355" type="qcurve" smooth="yes"/>
      <point x="680" y="515" type="line" smooth="yes"/>
      <point x="678" y="627"/>
      <point x="600" y="708" type="qcurve"/>
      <point x="519" y="786"/>
      <point x="407" y="787" type="qcurve" smooth="yes"/>
      <point x="307" y="789"/>
      <point x="229" y="727" type="qcurve"/>
      <point x="186" y="673"/>
      <point x="174" y="605" type="qcurve" smooth="yes"/>
      <point x="174" y="604"/>
      <point x="173" y="604" type="qcurve" smooth="yes"/>
      <point x="127" y="558" type="line"/>
      <point x="127" y="557" type="line" smooth="yes"/>
      <point x="125" y="556"/>
    </contour>
    <contour>
      <point x="164" y="512" type="line" smooth="yes"/>
      <point x="165" y="512"/>
      <point x="166" y="511" type="qcurve" smooth="yes"/>
      <point x="173" y="504" type="line" smooth="yes"/>
      <point x="174" y="503"/>
      <point x="174" y="502" type="qcurve" smooth="yes"/>
      <point x="174" y="316" type="line" smooth="yes"/>
      <point x="174" y="204"/>
      <point x="253" y="123" type="qcurve" smooth="yes"/>
      <point x="334" y="45"/>
      <point x="446" y="44" type="qcurve" smooth="yes"/>
      <point x="544" y="43"/>
      <point x="621" y="104" type="qcurve"/>
      <point x="673" y="169"/>
      <point x="680" y="252" type="qcurve" smooth="yes"/>
      <point x="680" y="253"/>
      <point x="681" y="253" type="qcurve" smooth="yes"/>
      <point x="727" y="299" type="line" smooth="yes"/>
      <point x="728" y="300"/>
      <point x="729" y="300" type="qcurve" smooth="yes"/>
      <point x="730" y="300" type="line"/>
      <point x="737" y="293" type="line"/>
      <point x="738" y="291" type="line"/>
      <point x="729" y="188"/>
      <point x="656" y="115" type="qcurve" smooth="yes"/>
      <point x="610" y="69" type="line" smooth="yes"/>
      <point x="526" y="-15"/>
      <point x="407" y="-14" type="qcurve" smooth="yes"/>
      <point x="290" y="-13"/>
      <point x="207" y="70" type="qcurve" smooth="yes"/>
      <point x="200" y="77" type="line"/>
      <point x="199" y="77" type="line"/>
      <point x="116" y="160"/>
      <point x="116" y="278" type="qcurve" smooth="yes"/>
      <point x="116" y="464" type="line"/>
      <point x="116" y="465" type="line"/>
      <point x="162" y="511" type="line"/>
      <point x="163" y="511" type="line"/>
    </contour>
    <contour>
      <point x="311" y="970"/>
      <point x="311" y="971" type="qcurve" smooth="yes"/>
      <point x="304" y="978" type="line" smooth="yes"/>
      <point x="303" y="979"/>
      <point x="303" y="980" type="qcurve" smooth="yes"/>
      <point x="303" y="1032" type="line"/>
      <point x="304" y="1033" type="line"/>
      <point x="350" y="1079" type="line" smooth="yes"/>
      <point x="350" y="1080"/>
      <point x="352" y="1080"/>
      <point x="353" y="1079" type="qcurve" smooth="yes"/>
      <point x="360" y="1072" type="line" smooth="yes"/>
      <point x="361" y="1071"/>
      <point x="361" y="1070" type="qcurve" smooth="yes"/>
      <point x="361" y="1019" type="line" smooth="yes"/>
      <point x="361" y="1018"/>
      <point x="360" y="1017" type="qcurve" smooth="yes"/>
      <point x="314" y="971" type="line" smooth="yes"/>
      <point x="313" y="970"/>
    </contour>
    <contour>
      <point x="492" y="970"/>
      <point x="491" y="971" type="qcurve" smooth="yes"/>
      <point x="484" y="978" type="line" smooth="yes"/>
      <point x="483" y="979"/>
      <point x="483" y="980" type="qcurve" smooth="yes"/>
      <point x="483" y="1032" type="line"/>
      <point x="484" y="1033" type="line"/>
      <point x="530" y="1079" type="line" smooth="yes"/>
      <point x="531" y="1080"/>
      <point x="533" y="1080"/>
      <point x="533" y="1079" type="qcurve" smooth="yes"/>
      <point x="540" y="1072" type="line" smooth="yes"/>
      <point x="541" y="1071"/>
      <point x="541" y="1070" type="qcurve" smooth="yes"/>
      <point x="541" y="1019" type="line" smooth="yes"/>
      <point x="541" y="1018"/>
      <point x="540" y="1017" type="qcurve" smooth="yes"/>
      <point x="494" y="971" type="line" smooth="yes"/>
      <point x="494" y="970"/>
    </contour>
  </outline>
</glyph>
