<?xml version="1.0" encoding="UTF-8"?>
<glyph name="R_X_S_E" format="2">
  <advance width="1874"/>
  <unicode hex="F4A00"/>
  <outline>
    <contour>
      <point x="812" y="274" type="move" smooth="yes"/>
    </contour>
    <contour>
      <point x="662" y="51" type="move" smooth="yes"/>
    </contour>
    <contour>
      <point x="218" y="783"/>
      <point x="219" y="784" type="qcurve" smooth="yes"/>
      <point x="265" y="830" type="line" smooth="yes"/>
      <point x="266" y="830"/>
      <point x="267" y="830" type="qcurve" smooth="yes"/>
      <point x="421" y="830" type="line" smooth="yes"/>
      <point x="424" y="830"/>
      <point x="433" y="831"/>
      <point x="434" y="831" type="qcurve" smooth="yes"/>
      <point x="515" y="831"/>
      <point x="573" y="773" type="qcurve" smooth="yes"/>
      <point x="580" y="766" type="line" smooth="yes"/>
      <point x="637" y="709"/>
      <point x="637" y="628" type="qcurve" smooth="yes"/>
      <point x="637" y="622"/>
      <point x="637" y="616" type="qcurve" smooth="yes"/>
      <point x="632" y="542"/>
      <point x="580" y="489" type="qcurve" smooth="yes"/>
      <point x="534" y="443" type="line" smooth="yes"/>
      <point x="471" y="381"/>
      <point x="383" y="386" type="qcurve" smooth="yes"/>
      <point x="382" y="386"/>
      <point x="381" y="386" type="qcurve" smooth="yes"/>
      <point x="324" y="386" type="line"/>
      <point x="326" y="382"/>
      <point x="329" y="379" type="qcurve" smooth="yes"/>
      <point x="634.035" y="51.112" type="line"/>
      <point x="812" y="274" type="line"/>
      <point x="858" y="320" type="line" smooth="yes"/>
      <point x="860" y="321"/>
      <point x="861" y="320" type="qcurve" smooth="yes"/>
      <point x="868" y="313" type="line" smooth="yes"/>
      <point x="870" y="311"/>
      <point x="869" y="309" type="qcurve" smooth="yes"/>
      <point x="663" y="52" type="line"/>
      <point x="662" y="51" type="line"/>
      <point x="616" y="5" type="line" smooth="yes"/>
      <point x="615" y="4"/>
      <point x="613" y="5" type="qcurve" smooth="yes"/>
      <point x="606" y="12" type="line" smooth="yes"/>
      <point x="604" y="14"/>
      <point x="606" y="16" type="qcurve"/>
      <point x="590" y="0" type="line" smooth="yes"/>
      <point x="590" y="-1"/>
      <point x="587" y="-1"/>
      <point x="587" y="0" type="qcurve" smooth="yes"/>
      <point x="580" y="7" type="line"/>
      <point x="219" y="394" type="line" smooth="yes"/>
      <point x="218" y="394"/>
      <point x="218" y="396"/>
      <point x="219" y="397" type="qcurve" smooth="yes"/>
      <point x="265" y="443" type="line" smooth="yes"/>
      <point x="266" y="444"/>
      <point x="267" y="444" type="qcurve" smooth="yes"/>
      <point x="421" y="444" type="line"/>
      <point x="489" y="439"/>
      <point x="544" y="478" type="qcurve"/>
      <point x="575" y="522"/>
      <point x="579" y="576" type="qcurve" smooth="yes"/>
      <point x="579" y="582"/>
      <point x="579" y="589" type="qcurve" smooth="yes"/>
      <point x="579" y="665"/>
      <point x="527" y="720" type="qcurve"/>
      <point x="471" y="773"/>
      <point x="395" y="773" type="qcurve" smooth="yes"/>
      <point x="389" y="773"/>
      <point x="382" y="772" type="qcurve" smooth="yes"/>
      <point x="228" y="772" type="line" smooth="yes"/>
      <point x="227" y="772"/>
      <point x="226" y="773" type="qcurve" smooth="yes"/>
      <point x="219" y="780" type="line" smooth="yes"/>
      <point x="218" y="781"/>
    </contour>
    <contour>
      <point x="164" y="830"/>
      <point x="165" y="829" type="qcurve" smooth="yes"/>
      <point x="172" y="822" type="line" smooth="yes"/>
      <point x="173" y="822"/>
      <point x="173" y="821" type="qcurve" smooth="yes"/>
      <point x="173" y="48" type="line" smooth="yes"/>
      <point x="173" y="47"/>
      <point x="172" y="46" type="qcurve" smooth="yes"/>
      <point x="126" y="0" type="line" smooth="yes"/>
      <point x="126" y="-1"/>
      <point x="124" y="-1"/>
      <point x="123" y="0" type="qcurve" smooth="yes"/>
      <point x="116" y="7" type="line" smooth="yes"/>
      <point x="115" y="8"/>
      <point x="115" y="9" type="qcurve" smooth="yes"/>
      <point x="115" y="782" type="line" smooth="yes"/>
      <point x="115" y="783"/>
      <point x="116" y="784" type="qcurve" smooth="yes"/>
      <point x="162" y="830" type="line" smooth="yes"/>
      <point x="163" y="830"/>
    </contour>
    <contour>
      <point x="652" y="835" type="line" smooth="yes"/>
      <point x="653.4" y="836.4"/>
      <point x="655" y="835" type="qcurve" smooth="yes"/>
      <point x="663" y="828" type="line"/>
      <point x="663" y="827" type="line"/>
      <point x="1075" y="142" type="line" smooth="yes"/>
      <point x="1075.54" y="141.46"/>
      <point x="1075.21" y="140.629" type="qcurve" smooth="yes"/>
      <point x="1115.73" y="107.289"/>
      <point x="1173" y="81" type="qcurve" smooth="yes"/>
      <point x="1255" y="44"/>
      <point x="1435" y="60"/>
      <point x="1499" y="114" type="qcurve"/>
      <point x="1531" y="145" type="line" smooth="yes"/>
      <point x="1533" y="146"/>
      <point x="1534" y="145" type="qcurve" smooth="yes"/>
      <point x="1541" y="138" type="line" smooth="yes"/>
      <point x="1543" y="136"/>
      <point x="1541" y="135" type="qcurve" smooth="yes"/>
      <point x="1534" y="126"/>
      <point x="1526" y="118" type="qcurve" smooth="yes"/>
      <point x="1480" y="72" type="line" smooth="yes"/>
      <point x="1471.56" y="63.5566"/>
      <point x="1462.48" y="56" type="qcurve"/>
      <point x="1765" y="56" type="line" smooth="yes"/>
      <point x="1766" y="56"/>
      <point x="1767" y="56" type="qcurve" smooth="yes"/>
      <point x="1774" y="49" type="line" smooth="yes"/>
      <point x="1775" y="48"/>
      <point x="1775" y="46"/>
      <point x="1774" y="45" type="qcurve" smooth="yes"/>
      <point x="1728" y="-1" type="line"/>
      <point x="1727" y="-2" type="line"/>
      <point x="1358" y="-2" type="line" smooth="yes"/>
      <point x="1357" y="-2"/>
      <point x="1356" y="-1" type="qcurve" smooth="yes"/>
      <point x="1353.13" y="1.87197" type="line"/>
      <point x="1305.17" y="-10.0839"/>
      <point x="1255" y="-6.5" type="qcurve" smooth="yes"/>
      <point x="1192" y="-2"/>
      <point x="1132" y="24" type="qcurve" smooth="yes"/>
      <point x="1075" y="48"/>
      <point x="1028" y="88" type="qcurve"/>
      <point x="1028" y="89" type="line"/>
      <point x="1021" y="96" type="line" smooth="yes"/>
      <point x="1019.64" y="97.362"/>
      <point x="1020.13" y="98.2603" type="qcurve" smooth="yes"/>
      <point x="1017" y="101" type="line"/>
      <point x="605" y="786" type="line" smooth="yes"/>
      <point x="604" y="787"/>
      <point x="606" y="789" type="qcurve" smooth="yes"/>
    </contour>
    <contour>
      <point x="1067" y="645" type="line" smooth="yes"/>
      <point x="1068.5" y="646.5"/>
      <point x="1070" y="645" type="qcurve" smooth="yes"/>
      <point x="1077" y="638" type="line"/>
      <point x="1078" y="637" type="line"/>
      <point x="1099" y="601"/>
      <point x="1130" y="569" type="qcurve" smooth="yes"/>
      <point x="1171" y="529"/>
      <point x="1237" y="488" type="qcurve" smooth="yes"/>
      <point x="1273.18" y="465.524"/>
      <point x="1309.36" y="442.898" type="qcurve" smooth="yes"/>
      <point x="1309.68" y="443"/>
      <point x="1310" y="443" type="qcurve" smooth="yes"/>
      <point x="1741" y="443" type="line" smooth="yes"/>
      <point x="1742" y="443"/>
      <point x="1743" y="442" type="qcurve" smooth="yes"/>
      <point x="1750" y="435" type="line" smooth="yes"/>
      <point x="1751" y="434"/>
      <point x="1751" y="433"/>
      <point x="1750" y="432" type="qcurve" smooth="yes"/>
      <point x="1704" y="386" type="line"/>
      <point x="1703" y="385" type="line"/>
      <point x="1485" y="385" type="line" smooth="yes"/>
      <point x="1437.25" y="385"/>
      <point x="1400.05" y="385.049" type="qcurve"/>
      <point x="1445.12" y="353.883"/>
      <point x="1476" y="323" type="qcurve" smooth="yes"/>
      <point x="1483" y="316" type="line"/>
      <point x="1484" y="315" type="line" smooth="yes"/>
      <point x="1526" y="273"/>
      <point x="1542" y="241" type="qcurve" smooth="yes"/>
      <point x="1543.01" y="238.971"/>
      <point x="1541" y="237" type="qcurve" smooth="yes"/>
      <point x="1495" y="192" type="line"/>
      <point x="1495" y="191" type="line" smooth="yes"/>
      <point x="1494" y="190"/>
      <point x="1492" y="192" type="qcurve" smooth="yes"/>
      <point x="1485" y="199" type="line"/>
      <point x="1484" y="199" type="line"/>
      <point x="1459" y="241"/>
      <point x="1432" y="268" type="qcurve" smooth="yes"/>
      <point x="1391" y="308"/>
      <point x="1259" y="390"/>
      <point x="1193" y="431" type="qcurve" smooth="yes"/>
      <point x="1130" y="470"/>
      <point x="1086" y="514" type="qcurve" smooth="yes"/>
      <point x="1079" y="521" type="line"/>
      <point x="1078" y="521" type="line"/>
      <point x="1053" y="563"/>
      <point x="1020" y="596" type="qcurve" smooth="yes"/>
      <point x="1019" y="597"/>
      <point x="1021" y="599" type="qcurve" smooth="yes"/>
    </contour>
    <contour>
      <point x="1541" y="737" type="qcurve" smooth="yes"/>
      <point x="1495" y="691" type="line" smooth="yes"/>
      <point x="1494" y="690"/>
      <point x="1492" y="691" type="qcurve" smooth="yes"/>
      <point x="1468" y="712"/>
      <point x="1441" y="730" type="qcurve" smooth="yes"/>
      <point x="1351" y="788"/>
      <point x="1139" y="787"/>
      <point x="1064" y="724" type="qcurve"/>
      <point x="1031" y="691" type="line" smooth="yes"/>
      <point x="1029.5" y="689.5"/>
      <point x="1028" y="691" type="qcurve" smooth="yes"/>
      <point x="1021" y="698" type="line" smooth="yes"/>
      <point x="1019" y="700"/>
      <point x="1021" y="702" type="qcurve" smooth="yes"/>
      <point x="1025" y="706"/>
      <point x="1037" y="719" type="qcurve" smooth="yes"/>
      <point x="1083" y="765" type="line" smooth="yes"/>
      <point x="1133" y="815"/>
      <point x="1272" y="853"/>
      <point x="1344.5" y="840.5" type="qcurve" smooth="yes"/>
      <point x="1369.3" y="836.336"/>
      <point x="1394.17" y="828.173" type="qcurve"/>
      <point x="1395" y="829" type="line" smooth="yes"/>
      <point x="1396" y="830"/>
      <point x="1397" y="830" type="qcurve" smooth="yes"/>
      <point x="1757" y="830" type="line" smooth="yes"/>
      <point x="1758" y="830"/>
      <point x="1759" y="829" type="qcurve" smooth="yes"/>
      <point x="1766" y="822" type="line" smooth="yes"/>
      <point x="1767" y="821"/>
      <point x="1767" y="819"/>
      <point x="1766" y="818" type="qcurve" smooth="yes"/>
      <point x="1720" y="772" type="line"/>
      <point x="1719" y="772" type="line"/>
      <point x="1504.98" y="772" type="line"/>
      <point x="1522.19" y="759.807"/>
      <point x="1534" y="748" type="qcurve" smooth="yes"/>
      <point x="1541" y="741" type="line" smooth="yes"/>
      <point x="1543" y="739"/>
    </contour>
  </outline>
</glyph>
