<?xml version="1.0" encoding="UTF-8"?>
<glyph name="w" format="2">
  <advance width="832"/>
  <unicode hex="0077"/>
  <outline>
    <contour>
      <point x="262" y="3" type="qcurve" smooth="yes"/>
      <point x="255" y="10" type="line" smooth="yes"/>
      <point x="253" y="12"/>
      <point x="254" y="13" type="qcurve" smooth="yes"/>
      <point x="382" y="270" type="line"/>
      <point x="383" y="270" type="line"/>
      <point x="429" y="316" type="line" smooth="yes"/>
      <point x="430" y="317"/>
      <point x="431" y="317" type="qcurve" smooth="yes"/>
      <point x="438" y="310" type="line" smooth="yes"/>
      <point x="440" y="309"/>
      <point x="440" y="307" type="qcurve" smooth="yes"/>
      <point x="568" y="52" type="line" smooth="yes"/>
      <point x="569" y="51"/>
      <point x="567" y="49" type="qcurve" smooth="yes"/>
      <point x="521" y="3" type="line" smooth="yes"/>
      <point x="520" y="2"/>
      <point x="518" y="3" type="qcurve" smooth="yes"/>
      <point x="511" y="11" type="line"/>
      <point x="413" y="207" type="line" smooth="yes"/>
      <point x="412" y="209"/>
      <point x="410" y="211" type="qcurve" smooth="yes"/>
      <point x="404" y="216"/>
      <point x="395" y="217" type="qcurve"/>
      <point x="312" y="50" type="line"/>
      <point x="311" y="49" type="line"/>
      <point x="265" y="3" type="line" smooth="yes"/>
      <point x="264" y="2"/>
    </contour>
    <contour>
      <point x="122" y="574" type="line"/>
      <point x="123" y="574"/>
      <point x="125" y="573" type="qcurve" smooth="yes"/>
      <point x="132" y="565" type="line"/>
      <point x="132" y="564" type="line"/>
      <point x="209" y="51" type="line" smooth="yes"/>
      <point x="209" y="50"/>
      <point x="208" y="49" type="qcurve" smooth="yes"/>
      <point x="162" y="3" type="line"/>
      <point x="161" y="2" type="line" smooth="yes"/>
      <point x="160" y="2"/>
      <point x="159" y="4" type="qcurve" smooth="yes"/>
      <point x="152" y="11" type="line" smooth="yes"/>
      <point x="151" y="11"/>
      <point x="151" y="12" type="qcurve" smooth="yes"/>
      <point x="74" y="525" type="line" smooth="yes"/>
      <point x="74" y="526"/>
      <point x="75" y="527" type="qcurve" smooth="yes"/>
      <point x="121" y="573" type="line"/>
      <point x="122" y="573" type="line"/>
    </contour>
    <contour>
      <point x="622" y="2" type="qcurve"/>
      <point x="622" y="3"/>
      <point x="621" y="3" type="qcurve" smooth="yes"/>
      <point x="614" y="10" type="line" smooth="yes"/>
      <point x="613" y="11"/>
      <point x="613" y="12" type="qcurve" smooth="yes"/>
      <point x="690" y="525" type="line" smooth="yes"/>
      <point x="690" y="526"/>
      <point x="691" y="527" type="qcurve" smooth="yes"/>
      <point x="737" y="573" type="line" smooth="yes"/>
      <point x="738" y="574"/>
      <point x="739" y="574" type="qcurve"/>
      <point x="739" y="573"/>
      <point x="740" y="573" type="qcurve" smooth="yes"/>
      <point x="747" y="566" type="line" smooth="yes"/>
      <point x="748" y="565"/>
      <point x="748" y="564" type="qcurve" smooth="yes"/>
      <point x="671" y="51" type="line" smooth="yes"/>
      <point x="671" y="50"/>
      <point x="670" y="49" type="qcurve" smooth="yes"/>
      <point x="624" y="3" type="line" smooth="yes"/>
      <point x="623" y="2"/>
    </contour>
  </outline>
</glyph>
