<?xml version="1.0" encoding="UTF-8"?>
<glyph name="X_C_E" format="2">
  <advance width="700"/>
  <unicode hex="F5620"/>
  <outline>
    <contour>
      <point x="116.548" y="-3" type="line"/>
      <point x="81.5479" y="33" type="line"/>
      <point x="80.5479" y="34" type="line"/>
      <point x="81.5479" y="35" type="line"/>
      <point x="302.547" y="311" type="line"/>
      <point x="334.547" y="343.914" type="line"/>
      <point x="334.547" y="344" type="line"/>
      <point x="335.547" y="345" type="line"/>
      <point x="337.547" y="347" type="line"/>
      <point x="370.547" y="380" type="line"/>
      <point x="371.547" y="380" type="line"/>
      <point x="372.547" y="380" type="line"/>
      <point x="408.547" y="344" type="line"/>
      <point x="408.547" y="116" type="line"/>
      <point x="407.547" y="115" type="line"/>
      <point x="372.547" y="80" type="line"/>
      <point x="371.547" y="80" type="line"/>
      <point x="370.547" y="80" type="line"/>
      <point x="334.547" y="116" type="line"/>
      <point x="334.547" y="257.796" type="line"/>
      <point x="154.548" y="33" type="line"/>
      <point x="118.548" y="-3" type="line"/>
      <point x="117.548" y="-3" type="line"/>
    </contour>
    <contour>
      <point x="116.548" y="843" type="line" smooth="yes"/>
      <point x="117.533" y="843.986"/>
      <point x="118.548" y="843" type="qcurve" smooth="yes"/>
      <point x="154.548" y="808" type="line"/>
      <point x="391.889" y="475" type="line"/>
      <point x="582.547" y="475" type="line" smooth="yes"/>
      <point x="583.547" y="475"/>
      <point x="583.547" y="474" type="qcurve" smooth="yes"/>
      <point x="619.547" y="439" type="line"/>
      <point x="619.547" y="438" type="line" smooth="yes"/>
      <point x="619.547" y="437"/>
      <point x="618.547" y="437" type="qcurve" smooth="yes"/>
      <point x="583.547" y="401" type="line"/>
      <point x="582.547" y="401" type="line"/>
      <point x="380.547" y="401" type="line"/>
      <point x="380.342" y="401.205" type="line" smooth="yes"/>
      <point x="379.833" y="401.143"/>
      <point x="379.65" y="401.897" type="qcurve" smooth="yes"/>
      <point x="379.547" y="402" type="line"/>
      <point x="344.547" y="437" type="line"/>
      <point x="343.547" y="438" type="line"/>
      <point x="80.5479" y="806" type="line" smooth="yes"/>
      <point x="80.1309" y="806.583"/>
      <point x="81.5479" y="808" type="qcurve" smooth="yes"/>
    </contour>
    <contour>
      <point x="618.547" y="27" type="line"/>
      <point x="617.547" y="26" type="line"/>
      <point x="582.547" y="-9" type="line"/>
      <point x="581.547" y="-9" type="line"/>
      <point x="370.547" y="-9" type="line"/>
      <point x="369.547" y="-9" type="line"/>
      <point x="334.547" y="27" type="line"/>
      <point x="333.547" y="27" type="line"/>
      <point x="333.547" y="28.0273"/>
      <point x="334.547" y="29" type="qcurve" smooth="yes"/>
      <point x="370.547" y="64" type="line"/>
      <point x="581.547" y="64" type="line" smooth="yes"/>
      <point x="582.547" y="64"/>
      <point x="582.547" y="63" type="qcurve" smooth="yes"/>
      <point x="618.547" y="28" type="line"/>
    </contour>
    <contour>
      <point x="426.547" y="237" type="line"/>
      <point x="427.547" y="238" type="line"/>
      <point x="463.547" y="274" type="line"/>
      <point x="580.547" y="274" type="line" smooth="yes"/>
      <point x="581.547" y="274"/>
      <point x="581.547" y="273" type="qcurve" smooth="yes"/>
      <point x="617.547" y="238" type="line"/>
      <point x="617.547" y="237" type="line" smooth="yes"/>
      <point x="617.547" y="236"/>
      <point x="616.547" y="236" type="qcurve" smooth="yes"/>
      <point x="581.547" y="200" type="line"/>
      <point x="580.547" y="200" type="line"/>
      <point x="463.547" y="200" type="line"/>
      <point x="462.547" y="201" type="line"/>
      <point x="427.547" y="236" type="line"/>
    </contour>
    <contour>
      <point x="460.816" y="512.184" type="line"/>
      <point x="428.06" y="520.609"/>
      <point x="402" y="546" type="qcurve" smooth="yes"/>
      <point x="367" y="582" type="line" smooth="yes"/>
      <point x="329" y="620"/>
      <point x="329" y="727"/>
      <point x="367" y="765" type="qcurve" smooth="yes"/>
      <point x="402" y="801" type="line"/>
      <point x="403" y="802" type="line" smooth="yes"/>
      <point x="428.268" y="825.972"/>
      <point x="459.413" y="834.413" type="qcurve"/>
      <point x="464" y="839" type="line"/>
      <point x="495" y="839" type="line"/>
      <point x="581" y="839" type="line" smooth="yes"/>
      <point x="582" y="839"/>
      <point x="582" y="838" type="qcurve" smooth="yes"/>
      <point x="618" y="803" type="line"/>
      <point x="618" y="802" type="line" smooth="yes"/>
      <point x="618" y="801"/>
      <point x="617" y="801" type="qcurve" smooth="yes"/>
      <point x="582" y="765" type="line"/>
      <point x="581" y="765" type="line"/>
      <point x="495" y="765" type="line" smooth="yes"/>
      <point x="456" y="765"/>
      <point x="424" y="744" type="qcurve"/>
      <point x="403" y="712"/>
      <point x="403" y="635"/>
      <point x="424" y="603" type="qcurve"/>
      <point x="446.352" y="587.633"/>
      <point x="472.118" y="583" type="qcurve"/>
      <point x="581" y="583" type="line" smooth="yes"/>
      <point x="582" y="583"/>
      <point x="582" y="582" type="qcurve" smooth="yes"/>
      <point x="618" y="547" type="line"/>
      <point x="618" y="546" type="line" smooth="yes"/>
      <point x="618" y="545"/>
      <point x="617" y="545" type="qcurve" smooth="yes"/>
      <point x="582" y="509" type="line"/>
      <point x="581" y="509" type="line"/>
      <point x="496.029" y="509" type="line"/>
      <point x="495" y="508" type="line"/>
      <point x="486.24" y="508"/>
      <point x="477.875" y="509" type="qcurve" smooth="yes"/>
      <point x="464" y="509" type="line"/>
      <point x="463" y="510" type="line"/>
    </contour>
  </outline>
</glyph>
