<?xml version="1.0" encoding="UTF-8"?>
<glyph name="adieresis" format="1">
  <advance width="854"/>
  <unicode hex="00E4"/>
  <outline>
    <contour>
      <point x="566.346" y="499.785" type="line"/>
      <point x="581.854" y="478.728" type="line"/>
      <point x="597.362" y="499.785" type="line"/>
      <point x="581.854" y="520.843" type="line"/>
    </contour>
    <contour>
      <point x="499.328" y="538.371" type="curve" smooth="yes"/>
      <point x="548.608" y="573.57" type="line" smooth="yes"/>
      <point x="569.316" y="588.362"/>
      <point x="593.39" y="586.865"/>
      <point x="611.999" y="573.571" type="curve" smooth="yes"/>
      <point x="661.28" y="538.371" type="line" smooth="yes"/>
      <point x="691.568" y="516.736"/>
      <point x="681.538" y="477.666"/>
      <point x="661.28" y="463.2" type="curve" smooth="yes"/>
      <point x="612" y="428" type="line" smooth="yes"/>
      <point x="589.507" y="411.933"/>
      <point x="565.665" y="415.813"/>
      <point x="548.608" y="428" type="curve" smooth="yes"/>
      <point x="499.331" y="463.198" type="line" smooth="yes"/>
      <point x="469.035" y="484.834"/>
      <point x="479.073" y="523.902"/>
    </contour>
    <contour>
      <point x="292.346" y="499.785" type="line"/>
      <point x="307.854" y="478.728" type="line"/>
      <point x="323.362" y="499.785" type="line"/>
      <point x="307.854" y="520.843" type="line"/>
    </contour>
    <contour>
      <point x="225.328" y="538.371" type="curve" smooth="yes"/>
      <point x="274.608" y="573.57" type="line" smooth="yes"/>
      <point x="295.316" y="588.362"/>
      <point x="319.39" y="586.865"/>
      <point x="337.999" y="573.571" type="curve" smooth="yes"/>
      <point x="387.28" y="538.371" type="line" smooth="yes"/>
      <point x="417.568" y="516.736"/>
      <point x="407.538" y="477.666"/>
      <point x="387.28" y="463.2" type="curve" smooth="yes"/>
      <point x="338" y="428" type="line" smooth="yes"/>
      <point x="315.507" y="411.933"/>
      <point x="291.665" y="415.813"/>
      <point x="274.608" y="428" type="curve" smooth="yes"/>
      <point x="225.331" y="463.198" type="line" smooth="yes"/>
      <point x="195.035" y="484.834"/>
      <point x="205.073" y="523.902"/>
    </contour>
    <contour>
      <point x="725.995" y="-12.5" type="curve" smooth="yes"/>
      <point x="708.829" y="-12.5"/>
      <point x="691.662" y="-12.5"/>
      <point x="674.496" y="-12.5" type="curve"/>
      <point x="674.496" y="448.5" type="line"/>
      <point x="691.662" y="448.5"/>
      <point x="708.829" y="448.5"/>
      <point x="725.995" y="448.5" type="curve" smooth="yes"/>
      <point x="743.162" y="448.5"/>
      <point x="760.329" y="448.5"/>
      <point x="777.496" y="448.5" type="curve"/>
      <point x="777.496" y="-12.5" type="line"/>
      <point x="760.329" y="-12.5"/>
      <point x="743.162" y="-12.5"/>
    </contour>
    <contour>
      <point x="746.4" y="285.537" type="curve" smooth="yes"/>
      <point x="736.123" y="278.872"/>
      <point x="725.847" y="272.206"/>
      <point x="715.57" y="265.541" type="curve"/>
      <point x="685.266" y="285.317"/>
      <point x="654.958" y="305.091"/>
      <point x="624.652" y="324.866" type="curve"/>
      <point x="540.406" y="353.055" type="line"/>
      <point x="444.249" y="362.872" type="line"/>
      <point x="345.401" y="352.798" type="line"/>
      <point x="259.086" y="323.178" type="line"/>
      <point x="198.797" y="283.55" type="line"/>
      <point x="166.543" y="236.812" type="line"/>
      <point x="162.751" y="215.341"/>
      <point x="158.958" y="193.87"/>
      <point x="155.165" y="172.399" type="curve"/>
      <point x="139.539" y="173.112"/>
      <point x="123.912" y="173.826"/>
      <point x="108.286" y="174.539" type="curve" smooth="yes"/>
      <point x="89.4639" y="175.398"/>
      <point x="70.6416" y="176.257"/>
      <point x="51.8193" y="177.116" type="curve"/>
      <point x="56.6436" y="204.992"/>
      <point x="61.4678" y="232.868"/>
      <point x="66.292" y="260.744" type="curve"/>
      <point x="66.292" y="260.744"/>
      <point x="69.0879" y="271.697"/>
      <point x="72.0391" y="276.688" type="curve" smooth="yes"/>
      <point x="86.6543" y="298.375"/>
      <point x="101.544" y="319.788"/>
      <point x="116.261" y="341.375" type="curve"/>
      <point x="116.261" y="341.375"/>
      <point x="122.699" y="349.413"/>
      <point x="126.229" y="352.236" type="curve" smooth="yes"/>
      <point x="149.637" y="370.967"/>
      <point x="177.437" y="386.407"/>
      <point x="202.298" y="402.898" type="curve" smooth="yes"/>
      <point x="207.358" y="406.288"/>
      <point x="207.383" y="406.432"/>
      <point x="213.767" y="408.958" type="curve" smooth="yes"/>
      <point x="312.799" y="443.162" type="line" smooth="yes"/>
      <point x="316.24" y="444.524"/>
      <point x="320.234" y="445.662"/>
      <point x="326.123" y="446.372" type="curve" smooth="yes"/>
      <point x="437.765" y="457.839" type="line" smooth="yes"/>
      <point x="441.801" y="458.326"/>
      <point x="446.097" y="458.406"/>
      <point x="450.791" y="457.835" type="curve" smooth="yes"/>
      <point x="559.521" y="446.645" type="line" smooth="yes"/>
      <point x="564.407" y="446.052"/>
      <point x="569.885" y="444.438"/>
      <point x="569.885" y="444.438" type="curve"/>
      <point x="603.3" y="433.152"/>
      <point x="636.8" y="421.951"/>
      <point x="670.163" y="410.614" type="curve" smooth="yes"/>
      <point x="673.913" y="409.156"/>
      <point x="680.653" y="405.086"/>
      <point x="680.725" y="405.039" type="curve" smooth="yes"/>
      <point x="723.844" y="376.781"/>
      <point x="762.679" y="351.311"/>
      <point x="805.028" y="323.557" type="curve"/>
      <point x="785.485" y="310.884"/>
      <point x="765.942" y="298.211"/>
    </contour>
    <contour>
      <point x="682.211" y="34.3242" type="curve" smooth="yes"/>
      <point x="678.938" y="32.0117"/>
      <point x="680.427" y="33.4238"/>
      <point x="676.713" y="31.8291" type="curve" smooth="yes"/>
      <point x="645.241" y="19.8975"/>
      <point x="613.632" y="8.10352"/>
      <point x="582.108" y="-3.77637" type="curve"/>
      <point x="582.108" y="-3.77637"/>
      <point x="572.92" y="-6.54883"/>
      <point x="570.012" y="-6.99707" type="curve" smooth="yes"/>
      <point x="463.918" y="-21.334" type="line" smooth="yes"/>
      <point x="459.237" y="-22.0537"/>
      <point x="454.977" y="-22.1064"/>
      <point x="450.95" y="-21.7529" type="curve" smooth="yes"/>
      <point x="340.372" y="-14.0332" type="line" smooth="yes"/>
      <point x="334.307" y="-13.499"/>
      <point x="329.638" y="-12.0869"/>
      <point x="329.638" y="-12.0869" type="curve"/>
      <point x="295.27" y="-1.60352"/>
      <point x="260.818" y="8.79688"/>
      <point x="226.501" y="19.3311" type="curve" smooth="yes"/>
      <point x="220.811" y="21.3447"/>
      <point x="218.084" y="23.1338"/>
      <point x="212.99" y="26.2461" type="curve" smooth="yes"/>
      <point x="187.765" y="41.4346"/>
      <point x="162.212" y="56.2959"/>
      <point x="137.179" y="71.6768" type="curve" smooth="yes"/>
      <point x="131.458" y="75.8428"/>
      <point x="128.429" y="79.8545"/>
      <point x="128.429" y="79.8545" type="curve"/>
      <point x="111.851" y="101.181"/>
      <point x="95.0635" y="122.298"/>
      <point x="78.6074" y="143.746" type="curve" smooth="yes"/>
      <point x="73.1074" y="151.963"/>
      <point x="73.1406" y="154.981"/>
      <point x="73.1406" y="154.981" type="curve"/>
      <point x="64.6377" y="185.198"/>
      <point x="56.1338" y="215.414"/>
      <point x="47.6299" y="245.63" type="curve"/>
      <point x="67.4219" y="247.214"/>
      <point x="87.2129" y="248.797"/>
      <point x="107.005" y="250.381" type="curve" smooth="yes"/>
      <point x="121.84" y="251.568"/>
      <point x="136.675" y="252.755"/>
      <point x="151.51" y="253.941" type="curve"/>
      <point x="157.697" y="232.336"/>
      <point x="163.884" y="210.73"/>
      <point x="170.071" y="189.125" type="curve"/>
      <point x="205.992" y="143.523" type="line"/>
      <point x="268.751" y="106.437" type="line"/>
      <point x="355.91" y="80.1143" type="line"/>
      <point x="453.751" y="73.3623" type="line"/>
      <point x="547.303" y="85.9258" type="line"/>
      <point x="627.691" y="115.949" type="line"/>
      <point x="656.25" y="136.349"/>
      <point x="684.809" y="156.748"/>
      <point x="713.367" y="177.146" type="curve"/>
      <point x="723.968" y="170.841"/>
      <point x="734.568" y="164.535"/>
      <point x="745.168" y="158.229" type="curve" smooth="yes"/>
      <point x="765.169" y="146.329"/>
      <point x="785.171" y="134.431"/>
      <point x="805.172" y="122.531" type="curve"/>
      <point x="764.185" y="93.1289"/>
      <point x="723.198" y="63.7266"/>
    </contour>
  </outline>
</glyph>
