<?xml version="1.0" encoding="UTF-8"?>
<glyph name="i" format="1">
  <advance width="298"/>
  <unicode hex="0069"/>
  <outline>
    <contour>
      <point x="140.492" y="728" type="line"/>
      <point x="156" y="706.942" type="line"/>
      <point x="171.509" y="728" type="line"/>
      <point x="156" y="749.058" type="line"/>
    </contour>
    <contour>
      <point x="76.0234" y="765.586" type="curve" smooth="yes"/>
      <point x="125.309" y="800.789" type="line" smooth="yes"/>
      <point x="146.016" y="815.574"/>
      <point x="170.079" y="814.081"/>
      <point x="188.696" y="800.785" type="curve" smooth="yes"/>
      <point x="237.977" y="765.586" type="line" smooth="yes"/>
      <point x="268.266" y="743.95"/>
      <point x="258.234" y="704.885"/>
      <point x="237.977" y="690.414" type="curve" smooth="yes"/>
      <point x="188.695" y="655.212" type="line" smooth="yes"/>
      <point x="166.198" y="639.145"/>
      <point x="142.368" y="643.028"/>
      <point x="125.304" y="655.214" type="curve" smooth="yes"/>
      <point x="76.0234" y="690.414" type="line" smooth="yes"/>
      <point x="45.7334" y="712.05"/>
      <point x="55.7666" y="751.116"/>
    </contour>
    <contour>
      <point x="157" y="567.5" type="curve" smooth="yes"/>
      <point x="174.167" y="567.5"/>
      <point x="191.333" y="567.5"/>
      <point x="208.5" y="567.5" type="curve"/>
      <point x="208.5" y="373.833"/>
      <point x="208.5" y="180.167"/>
      <point x="208.5" y="-13.5" type="curve"/>
      <point x="191.333" y="-13.5"/>
      <point x="174.167" y="-13.5"/>
      <point x="157" y="-13.5" type="curve" smooth="yes"/>
      <point x="139.833" y="-13.5"/>
      <point x="122.667" y="-13.5"/>
      <point x="105.5" y="-13.5" type="curve"/>
      <point x="105.5" y="180.167"/>
      <point x="105.5" y="373.833"/>
      <point x="105.5" y="567.5" type="curve"/>
      <point x="122.667" y="567.5"/>
      <point x="139.833" y="567.5"/>
    </contour>
  </outline>
</glyph>
