<?xml version="1.0" encoding="UTF-8"?>
<glyph name="m" format="1">
  <advance width="1402"/>
  <unicode hex="006D"/>
  <outline>
    <contour>
      <point x="151.601" y="-14.5" type="curve" smooth="yes"/>
      <point x="134.434" y="-14.5"/>
      <point x="117.268" y="-14.5"/>
      <point x="100.101" y="-14.5" type="curve"/>
      <point x="100.101" y="566.5" type="line"/>
      <point x="117.268" y="566.5"/>
      <point x="134.434" y="566.5"/>
      <point x="151.601" y="566.5" type="curve" smooth="yes"/>
      <point x="168.767" y="566.5"/>
      <point x="185.934" y="566.5"/>
      <point x="203.1" y="566.5" type="curve"/>
      <point x="203.1" y="-14.5" type="line"/>
      <point x="185.934" y="-14.5"/>
      <point x="168.767" y="-14.5"/>
    </contour>
    <contour>
      <point x="706" y="-14.5" type="curve" smooth="yes"/>
      <point x="688.833" y="-14.5"/>
      <point x="671.667" y="-14.5"/>
      <point x="654.5" y="-14.5" type="curve"/>
      <point x="654.5" y="123.234"/>
      <point x="654.5" y="260.968"/>
      <point x="654.5" y="398.702" type="curve"/>
      <point x="587.646" y="458.395" type="line"/>
      <point x="489.159" y="480.378" type="line"/>
      <point x="353.045" y="456.071" type="line"/>
      <point x="285.039" y="425.711"/>
      <point x="217.033" y="395.352"/>
      <point x="149.027" y="364.991" type="curve"/>
      <point x="140.479" y="374.763"/>
      <point x="131.929" y="384.534"/>
      <point x="123.38" y="394.305" type="curve" smooth="yes"/>
      <point x="109.755" y="409.875"/>
      <point x="96.1309" y="425.445"/>
      <point x="82.5059" y="441.015" type="curve"/>
      <point x="159.572" y="475.419"/>
      <point x="236.638" y="509.823"/>
      <point x="313.703" y="544.228" type="curve" smooth="yes"/>
      <point x="318.215" y="546.24"/>
      <point x="321.166" y="547.181"/>
      <point x="326.413" y="548.117" type="curve" smooth="yes"/>
      <point x="480.417" y="575.618" type="line" smooth="yes"/>
      <point x="488.095" y="576.988"/>
      <point x="493.436" y="577.22"/>
      <point x="502.745" y="575.145" type="curve" smooth="yes"/>
      <point x="625.937" y="547.646" type="line" smooth="yes"/>
      <point x="634.128" y="545.819"/>
      <point x="640.731" y="543.554"/>
      <point x="649.507" y="535.72" type="curve" smooth="yes"/>
      <point x="741.919" y="453.21" type="line" smooth="yes"/>
      <point x="750.226" y="445.787"/>
      <point x="757.5" y="434.933"/>
      <point x="757.5" y="419" type="curve" smooth="yes"/>
      <point x="757.5" y="274.5"/>
      <point x="757.5" y="130"/>
      <point x="757.5" y="-14.5" type="curve"/>
      <point x="740.333" y="-14.5"/>
      <point x="723.167" y="-14.5"/>
    </contour>
    <contour>
      <point x="1260.4" y="-14.5" type="curve" smooth="yes"/>
      <point x="1243.23" y="-14.5"/>
      <point x="1226.07" y="-14.5"/>
      <point x="1208.9" y="-14.5" type="curve"/>
      <point x="1208.9" y="123.234"/>
      <point x="1208.9" y="260.968"/>
      <point x="1208.9" y="398.702" type="curve"/>
      <point x="1142.04" y="458.395" type="line"/>
      <point x="1043.56" y="480.378" type="line"/>
      <point x="907.445" y="456.071" type="line"/>
      <point x="839.439" y="425.711"/>
      <point x="771.434" y="395.352"/>
      <point x="703.427" y="364.991" type="curve"/>
      <point x="694.877" y="374.764"/>
      <point x="686.326" y="384.536"/>
      <point x="677.776" y="394.309" type="curve" smooth="yes"/>
      <point x="664.155" y="409.879"/>
      <point x="650.534" y="425.448"/>
      <point x="636.914" y="441.018" type="curve"/>
      <point x="713.974" y="475.419"/>
      <point x="791.033" y="509.821"/>
      <point x="868.093" y="544.223" type="curve" smooth="yes"/>
      <point x="872.617" y="546.242"/>
      <point x="875.559" y="547.179"/>
      <point x="880.812" y="548.117" type="curve" smooth="yes"/>
      <point x="1034.82" y="575.618" type="line" smooth="yes"/>
      <point x="1042.49" y="576.987"/>
      <point x="1047.84" y="577.22"/>
      <point x="1057.14" y="575.145" type="curve" smooth="yes"/>
      <point x="1180.34" y="547.646" type="line" smooth="yes"/>
      <point x="1188.54" y="545.816"/>
      <point x="1195.11" y="543.565"/>
      <point x="1203.91" y="535.72" type="curve" smooth="yes"/>
      <point x="1296.3" y="453.224" type="line" smooth="yes"/>
      <point x="1304.64" y="445.786"/>
      <point x="1311.9" y="434.913"/>
      <point x="1311.9" y="419" type="curve" smooth="yes"/>
      <point x="1311.9" y="274.5"/>
      <point x="1311.9" y="130"/>
      <point x="1311.9" y="-14.5" type="curve"/>
      <point x="1294.73" y="-14.5"/>
      <point x="1277.57" y="-14.5"/>
    </contour>
  </outline>
</glyph>
