<?xml version="1.0" encoding="UTF-8"?>
<glyph name="Uacute" format="1">
  <advance width="888"/>
  <unicode hex="00DA"/>
  <outline>
    <contour>
      <point x="333.472" y="565.545" type="curve" smooth="yes"/>
      <point x="318.868" y="579.646"/>
      <point x="304.265" y="593.745"/>
      <point x="289.661" y="607.846" type="curve"/>
      <point x="405.454" y="675.212"/>
      <point x="454.727" y="709.057"/>
      <point x="570.52" y="776.423" type="curve"/>
      <point x="580.028" y="767.241"/>
      <point x="589.538" y="758.06"/>
      <point x="599.048" y="748.878" type="curve" smooth="yes"/>
      <point x="613.651" y="734.777"/>
      <point x="628.255" y="720.678"/>
      <point x="642.858" y="706.577" type="curve"/>
      <point x="527.065" y="639.211"/>
      <point x="477.793" y="605.366"/>
      <point x="362" y="538" type="curve"/>
      <point x="352.491" y="547.182"/>
      <point x="342.981" y="556.363"/>
    </contour>
    <contour>
      <point x="779.044" y="237.13" type="curve" smooth="yes"/>
      <point x="798.546" y="231.708"/>
      <point x="818.048" y="226.287"/>
      <point x="837.55" y="220.865" type="curve"/>
      <point x="816.87" y="182.907"/>
      <point x="796.19" y="144.949"/>
      <point x="775.511" y="106.99" type="curve" smooth="yes"/>
      <point x="771.69" y="99.9961"/>
      <point x="768.644" y="96.9238"/>
      <point x="763.932" y="93.0547" type="curve" smooth="yes"/>
      <point x="694.531" y="35.9805" type="line" smooth="yes"/>
      <point x="689.354" y="31.7197"/>
      <point x="686.079" y="30.0576"/>
      <point x="681.197" y="28.0713" type="curve" smooth="yes"/>
      <point x="589.231" y="-9.34668" type="line" smooth="yes"/>
      <point x="583.682" y="-11.6055"/>
      <point x="580.193" y="-12.3643"/>
      <point x="575.246" y="-12.9834" type="curve" smooth="yes"/>
      <point x="468.071" y="-26.417" type="line" smooth="yes"/>
      <point x="462.443" y="-27.1211"/>
      <point x="458.902" y="-27.04"/>
      <point x="453.916" y="-26.416" type="curve" smooth="yes"/>
      <point x="346.741" y="-12.9814" type="line" smooth="yes"/>
      <point x="341.124" y="-12.2754"/>
      <point x="337.694" y="-11.3486"/>
      <point x="332.775" y="-9.34961" type="curve" smooth="yes"/>
      <point x="240.806" y="28.0703" type="line" smooth="yes"/>
      <point x="235.226" y="30.3398"/>
      <point x="232.052" y="32.2158"/>
      <point x="227.476" y="35.9746" type="curve" smooth="yes"/>
      <point x="158.068" y="93.0547" type="line" smooth="yes"/>
      <point x="152.714" y="97.458"/>
      <point x="149.893" y="100.749"/>
      <point x="146.479" y="107.009" type="curve" smooth="yes"/>
      <point x="125.802" y="144.961"/>
      <point x="105.126" y="182.913"/>
      <point x="84.4502" y="220.865" type="curve"/>
      <point x="103.952" y="226.287"/>
      <point x="123.454" y="231.709"/>
      <point x="142.957" y="237.13" type="curve" smooth="yes"/>
      <point x="156.878" y="240.999"/>
      <point x="170.799" y="244.869"/>
      <point x="184.72" y="248.739" type="curve"/>
      <point x="201.168" y="218.545"/>
      <point x="217.618" y="188.352"/>
      <point x="234.067" y="158.159" type="curve"/>
      <point x="290.284" y="111.927" type="line"/>
      <point x="368.214" y="80.2188" type="line"/>
      <point x="461" y="68.5879" type="line"/>
      <point x="553.786" y="80.2188" type="line"/>
      <point x="631.716" y="111.927" type="line"/>
      <point x="687.933" y="158.159" type="line"/>
      <point x="704.382" y="188.352"/>
      <point x="720.832" y="218.545"/>
      <point x="737.28" y="248.739" type="curve"/>
      <point x="751.201" y="244.869"/>
      <point x="765.122" y="240.999"/>
    </contour>
    <contour>
      <point x="769" y="629.5" type="curve" smooth="yes"/>
      <point x="786.167" y="629.5"/>
      <point x="803.333" y="629.5"/>
      <point x="820.5" y="629.5" type="curve"/>
      <point x="820.5" y="163.5" type="line"/>
      <point x="803.333" y="163.5"/>
      <point x="786.167" y="163.5"/>
      <point x="769" y="163.5" type="curve" smooth="yes"/>
      <point x="751.833" y="163.5"/>
      <point x="734.667" y="163.5"/>
      <point x="717.5" y="163.5" type="curve"/>
      <point x="717.5" y="629.5" type="line"/>
      <point x="734.667" y="629.5"/>
      <point x="751.833" y="629.5"/>
    </contour>
    <contour>
      <point x="153" y="629.5" type="curve" smooth="yes"/>
      <point x="170.167" y="629.5"/>
      <point x="187.333" y="629.5"/>
      <point x="204.5" y="629.5" type="curve"/>
      <point x="204.5" y="163.5" type="line"/>
      <point x="187.333" y="163.5"/>
      <point x="170.167" y="163.5"/>
      <point x="153" y="163.5" type="curve" smooth="yes"/>
      <point x="135.833" y="163.5"/>
      <point x="118.667" y="163.5"/>
      <point x="101.5" y="163.5" type="curve"/>
      <point x="101.5" y="629.5" type="line"/>
      <point x="118.667" y="629.5"/>
      <point x="135.833" y="629.5"/>
    </contour>
  </outline>
</glyph>
