<?xml version="1.0" encoding="UTF-8"?>
<glyph name="underscore" format="1">
  <advance width="763"/>
  <unicode hex="005F"/>
  <outline>
    <contour>
      <point x="32.5" y="-10" type="curve" smooth="yes"/>
      <point x="32.5" y="5.83301"/>
      <point x="32.5" y="21.667"/>
      <point x="32.5" y="37.5" type="curve"/>
      <point x="262.833" y="37.5"/>
      <point x="493.167" y="37.5"/>
      <point x="723.5" y="37.5" type="curve"/>
      <point x="723.5" y="21.667"/>
      <point x="723.5" y="5.83301"/>
      <point x="723.5" y="-10" type="curve" smooth="yes"/>
      <point x="723.5" y="-25.833"/>
      <point x="723.5" y="-41.667"/>
      <point x="723.5" y="-57.5" type="curve"/>
      <point x="493.167" y="-57.5"/>
      <point x="262.833" y="-57.5"/>
      <point x="32.5" y="-57.5" type="curve"/>
      <point x="32.5" y="-41.667"/>
      <point x="32.5" y="-25.833"/>
    </contour>
  </outline>
</glyph>
