<?xml version="1.0" encoding="UTF-8"?>
<glyph name="Atilde" format="1">
  <advance width="604"/>
  <unicode hex="00C3"/>
  <outline>
    <contour>
      <point x="329.304" y="891.6" type="line"/>
      <point x="335.484" y="892.563" type="line"/>
      <point x="327.858" y="820.029" type="line"/>
      <point x="372.517" y="776.578" type="line"/>
      <point x="445.121" y="783.31" type="line"/>
      <point x="508.546" y="838.374" type="line"/>
      <point x="511.978" y="834.4" type="line"/>
      <point x="515.408" y="830.427" type="line"/>
      <point x="449.939" y="773.587" type="line" smooth="yes"/>
      <point x="448.906" y="772.69"/>
      <point x="447.062" y="771.734"/>
      <point x="445.476" y="771.588" type="curve" smooth="yes"/>
      <point x="368.034" y="764.408" type="line" smooth="yes"/>
      <point x="366.812" y="764.295"/>
      <point x="365.104" y="764.681"/>
      <point x="364.128" y="765.631" type="curve" smooth="yes"/>
      <point x="316.493" y="811.977" type="line" smooth="yes"/>
      <point x="315.742" y="812.708"/>
      <point x="315.09" y="814.227"/>
      <point x="315.252" y="815.763" type="curve" smooth="yes"/>
      <point x="323.124" y="890.636" type="line"/>
    </contour>
    <contour>
      <point x="695.829" y="781.6" type="line"/>
      <point x="689.65" y="780.651" type="line"/>
      <point x="697.574" y="854.082" type="line"/>
      <point x="651.645" y="897.298" type="line"/>
      <point x="577.88" y="888.457" type="line"/>
      <point x="515.633" y="830.628" type="line"/>
      <point x="511.978" y="834.4" type="line"/>
      <point x="508.322" y="838.173" type="line"/>
      <point x="572.598" y="897.886" type="line" smooth="yes"/>
      <point x="573.648" y="898.861"/>
      <point x="575.483" y="899.873"/>
      <point x="577.11" y="900.067" type="curve" smooth="yes"/>
      <point x="655.845" y="909.504" type="line" smooth="yes"/>
      <point x="657.13" y="909.658"/>
      <point x="658.863" y="909.3"/>
      <point x="659.876" y="908.347" type="curve" smooth="yes"/>
      <point x="708.901" y="862.22" type="line" smooth="yes"/>
      <point x="709.702" y="861.466"/>
      <point x="710.359" y="859.938"/>
      <point x="710.19" y="858.371" type="curve" smooth="yes"/>
      <point x="702.008" y="782.548" type="line"/>
    </contour>
    <contour>
      <point x="348.082" y="896" type="line"/>
      <point x="354.226" y="898.393" type="line"/>
      <point x="370.301" y="802.04" type="line"/>
      <point x="476.384" y="830.737" type="line"/>
      <point x="567.789" y="930.077" type="line" smooth="yes"/>
      <point x="569.547" y="931.989"/>
      <point x="572.144" y="933.005"/>
      <point x="574.215" y="932.761" type="curve" smooth="yes"/>
      <point x="723.499" y="915.161" type="line" smooth="yes"/>
      <point x="725.899" y="914.878"/>
      <point x="727.473" y="913.009"/>
      <point x="727.432" y="910.655" type="curve" smooth="yes"/>
      <point x="725.22" y="787.455" type="line"/>
      <point x="719.009" y="786" type="line"/>
      <point x="712.797" y="784.545" type="line"/>
      <point x="714.937" y="903.711" type="line"/>
      <point x="573.227" y="920.418" type="line"/>
      <point x="482.967" y="822.322" type="line" smooth="yes"/>
      <point x="481.922" y="821.187"/>
      <point x="480.438" y="820.24"/>
      <point x="478.956" y="819.84" type="curve" smooth="yes"/>
      <point x="365.103" y="789.04" type="line" smooth="yes"/>
      <point x="362.411" y="788.312"/>
      <point x="359.308" y="789.502"/>
      <point x="358.823" y="792.407" type="curve" smooth="yes"/>
      <point x="341.939" y="893.607" type="line"/>
    </contour>
    <contour>
      <point x="491.244" y="710" type="line"/>
      <point x="497.44" y="711.95" type="line"/>
      <point x="522.203" y="370" type="line"/>
      <point x="548.929" y="0.950195" type="line"/>
      <point x="542.732" y="-1" type="line"/>
      <point x="536.536" y="-2.9502" type="line"/>
      <point x="509.89" y="365" type="line"/>
      <point x="485.048" y="708.05" type="line"/>
    </contour>
    <contour>
      <point x="517.645" y="710" type="line"/>
      <point x="523.841" y="711.95" type="line"/>
      <point x="575.329" y="0.950195" type="line"/>
      <point x="569.133" y="-1" type="line"/>
      <point x="562.937" y="-2.9502" type="line"/>
      <point x="511.448" y="708.05" type="line"/>
    </contour>
    <contour>
      <point x="491.244" y="710" type="line"/>
      <point x="496.396" y="708.05" type="line"/>
      <point x="63.8838" y="-2.9502" type="line"/>
      <point x="58.7324" y="-1" type="line"/>
      <point x="53.5811" y="0.950195" type="line"/>
      <point x="486.093" y="711.95" type="line"/>
    </contour>
    <contour>
      <point x="464.844" y="710" type="line"/>
      <point x="469.995" y="708.05" type="line"/>
      <point x="37.4834" y="-2.9502" type="line"/>
      <point x="32.332" y="-1" type="line"/>
      <point x="27.1807" y="0.950195" type="line"/>
      <point x="459.692" y="711.95" type="line"/>
    </contour>
    <contour>
      <point x="179.662" y="204" type="line"/>
      <point x="181.27" y="210" type="line"/>
      <point x="533.27" y="210" type="line"/>
      <point x="531.662" y="204" type="line"/>
      <point x="530.054" y="198" type="line"/>
      <point x="178.054" y="198" type="line"/>
    </contour>
    <contour>
      <point x="172.588" y="177.6" type="line"/>
      <point x="174.195" y="183.6" type="line"/>
      <point x="526.195" y="183.6" type="line"/>
      <point x="524.588" y="177.6" type="line"/>
      <point x="522.979" y="171.6" type="line"/>
      <point x="170.979" y="171.6" type="line"/>
    </contour>
  </outline>
</glyph>
