<?xml version="1.0" encoding="UTF-8" standalone="no"?>
<!-- Created with Inkscape (http://www.inkscape.org/) -->

<svg
   width="420mm"
   height="297mm"
   viewBox="0 0 420 297"
   version="1.1"
   id="svg5"
   inkscape:version="1.2 (dc2aedaf03, 2022-05-15)"
   sodipodi:docname="specimen_p2.svg"
   inkscape:export-filename="specimen_2_p2.png"
   inkscape:export-xdpi="300"
   inkscape:export-ydpi="300"
   xml:space="preserve"
   xmlns:inkscape="http://www.inkscape.org/namespaces/inkscape"
   xmlns:sodipodi="http://sodipodi.sourceforge.net/DTD/sodipodi-0.dtd"
   xmlns="http://www.w3.org/2000/svg"
   xmlns:svg="http://www.w3.org/2000/svg"><sodipodi:namedview
     id="namedview7"
     pagecolor="#ffffff"
     bordercolor="#666666"
     borderopacity="1.0"
     inkscape:showpageshadow="2"
     inkscape:pageopacity="0.0"
     inkscape:pagecheckerboard="0"
     inkscape:deskcolor="#d1d1d1"
     inkscape:document-units="mm"
     showgrid="true"
     showguides="true"
     inkscape:zoom="0.73673542"
     inkscape:cx="445.88599"
     inkscape:cy="572.79722"
     inkscape:window-width="1920"
     inkscape:window-height="1007"
     inkscape:window-x="0"
     inkscape:window-y="0"
     inkscape:window-maximized="1"
     inkscape:current-layer="svg5"><inkscape:grid
       type="xygrid"
       id="grid132"
       units="cm"
       originx="10"
       spacingx="10"
       spacingy="10" /><sodipodi:guide
       position="9.649827,261.9559"
       orientation="1,0"
       id="guide134"
       inkscape:locked="false" /><sodipodi:guide
       position="103.60867,286.8423"
       orientation="0,-1"
       id="guide186"
       inkscape:locked="false" /><sodipodi:guide
       position="409.86371,147.17374"
       orientation="1,0"
       id="guide188"
       inkscape:locked="false" /><sodipodi:guide
       position="36.706595,9.5576184"
       orientation="0,-1"
       id="guide190"
       inkscape:locked="false" /><sodipodi:guide
       position="209.73155,101.63362"
       orientation="1,0"
       id="guide654"
       inkscape:locked="false" /></sodipodi:namedview><defs
     id="defs2"><rect
       x="-151.03195"
       y="326.33688"
       width="207.20085"
       height="232.90907"
       id="rect2498" /><rect
       x="-128.00991"
       y="824.54002"
       width="206.72768"
       height="196.73882"
       id="rect2212" /><rect
       x="410.50358"
       y="381.17055"
       width="353.68289"
       height="284.81212"
       id="rect8612" /><rect
       x="415.21107"
       y="375.68547"
       width="338.06118"
       height="192.29185"
       id="rect8606" /><inkscape:path-effect
       effect="rough_hatches"
       id="path-effect6229"
       is_visible="true"
       lpeversion="1.2"
       direction="105.12114,75.036745 , 47.53344,0"
       dist_rdm="30.8;3313989593"
       growth="0"
       do_bend="true"
       bender="105.12114,80.036745 , 5,0"
       bottom_edge_variation="0.0227097;1"
       top_edge_variation="0.0227097;1"
       bottom_tgt_variation="0;1"
       top_tgt_variation="0;1"
       scale_bf="1"
       scale_bb="1"
       scale_tf="1"
       scale_tb="1"
       top_smth_variation="0;1"
       bottom_smth_variation="0;1"
       fat_output="true"
       stroke_width_top="1"
       stroke_width_bottom="1"
       front_thickness="1"
       back_thickness="0.25" /><rect
       x="32.525424"
       y="-116.42934"
       width="195.57507"
       height="52.486552"
       id="rect4630" /><rect
       x="32.525425"
       y="-116.42934"
       width="195.57507"
       height="52.486553"
       id="rect4630-3" /><rect
       x="32.525425"
       y="-116.42934"
       width="195.57507"
       height="52.486553"
       id="rect4630-3-5" /><rect
       x="32.525425"
       y="-116.42934"
       width="195.57507"
       height="52.486553"
       id="rect4630-9" /><rect
       x="32.525425"
       y="-116.42934"
       width="195.57507"
       height="52.486553"
       id="rect4630-3-5-8" /><rect
       x="32.525425"
       y="-116.42934"
       width="195.57507"
       height="52.486553"
       id="rect4630-9-9" /><rect
       x="32.525425"
       y="-116.42934"
       width="611.62792"
       height="403.36345"
       id="rect4630-9-9-6" /><rect
       x="410.50357"
       y="381.17056"
       width="353.68289"
       height="284.81213"
       id="rect8612-6" /><rect
       x="410.50357"
       y="381.17056"
       width="375.11752"
       height="281.51059"
       id="rect8612-5" /><rect
       x="32.525425"
       y="-116.42934"
       width="448.58313"
       height="481.02886"
       id="rect4630-9-9-6-4" /><rect
       x="410.50357"
       y="381.17056"
       width="353.68289"
       height="284.81213"
       id="rect8612-5-1" /><rect
       x="-128.0099"
       y="824.54004"
       width="206.72768"
       height="196.73882"
       id="rect2212-3" /><rect
       x="-128.0099"
       y="824.54004"
       width="206.72768"
       height="196.73882"
       id="rect2212-3-7" /><rect
       x="-151.03195"
       y="326.33688"
       width="207.20085"
       height="232.90907"
       id="rect2498-0" /><rect
       x="-151.03195"
       y="326.33688"
       width="207.20085"
       height="232.90907"
       id="rect2498-0-6" /><rect
       x="-151.03195"
       y="326.33688"
       width="207.20085"
       height="232.90907"
       id="rect2498-06" /><rect
       x="-151.03195"
       y="326.33688"
       width="207.20085"
       height="232.90907"
       id="rect2498-06-0" /><rect
       x="-151.03195"
       y="326.33688"
       width="207.20085"
       height="232.90907"
       id="rect2498-06-0-1" /><rect
       x="-151.03195"
       y="326.33688"
       width="207.20085"
       height="232.90907"
       id="rect2498-06-0-1-5" /><rect
       x="-151.03195"
       y="326.33688"
       width="207.20085"
       height="232.90907"
       id="rect2498-06-0-1-7" /><rect
       x="-151.03195"
       y="326.33688"
       width="207.20085"
       height="232.90907"
       id="rect2498-06-0-1-56" /><rect
       x="-151.03195"
       y="326.33688"
       width="207.20085"
       height="232.90907"
       id="rect2498-06-0-1-3" /><rect
       x="-151.03195"
       y="326.33688"
       width="207.20085"
       height="232.90907"
       id="rect2498-06-0-1-7-4" /></defs><rect
     style="fill:#ffffff;stroke:#d40000;stroke-width:0.25;stroke-linecap:round;stroke-linejoin:round;stroke-dasharray:none"
     id="rect5747"
     width="493.57584"
     height="357.88712"
     x="-35.805202"
     y="-28.963539" /><text
     xml:space="preserve"
     transform="matrix(1.7685409,0,0,1.7685409,626.95398,-487.80139)"
     id="text2496-32-6-5-7"
     style="font-style:normal;font-weight:normal;font-size:40px;line-height:1.25;font-family:sans-serif;white-space:pre;shape-inside:url(#rect2498-06-0-1-3);display:inline;fill:#2ca05a;fill-opacity:1;stroke:none;stroke-width:0.138391;stroke-dasharray:none"><tspan
       x="-151.03125"
       y="363.33594"
       id="tspan10118"><tspan
         style="font-family:'Ductus Calligraphic';-inkscape-font-specification:'Ductus Calligraphic'"
         id="tspan10116">Y</tspan></tspan></text><text
     xml:space="preserve"
     transform="matrix(1.7685409,0,0,1.7685409,553.15797,-485.52677)"
     id="text2496-32-6-5-9"
     style="font-style:normal;font-weight:normal;font-size:40px;line-height:1.25;font-family:sans-serif;white-space:pre;shape-inside:url(#rect2498-06-0-1-56);display:inline;fill:#2ca05a;fill-opacity:1;stroke:none;stroke-width:0.138391;stroke-dasharray:none"><tspan
       x="-151.03125"
       y="363.33594"
       id="tspan10122"><tspan
         style="font-family:'Ductus Calligraphic';-inkscape-font-specification:'Ductus Calligraphic'"
         id="tspan10120">W</tspan></tspan></text><text
     xml:space="preserve"
     transform="matrix(1.9002857,0,0,1.9002857,314.98979,-553.57279)"
     id="text2496"
     style="font-style:normal;font-weight:normal;font-size:40px;line-height:1.25;font-family:sans-serif;white-space:pre;shape-inside:url(#rect2498);display:inline;fill:none;fill-opacity:1;stroke:#2ca05a;stroke-width:0.138391;stroke-dasharray:none"><tspan
       x="-151.03125"
       y="363.33594"
       id="tspan10126"><tspan
         style="font-family:'Ductus Calligraphic';-inkscape-font-specification:'Ductus Calligraphic'"
         id="tspan10124">e</tspan></tspan></text><text
     xml:space="preserve"
     transform="matrix(1.7685409,0,0,1.7685409,551.92331,-566.39595)"
     id="text2496-32-6"
     style="font-style:normal;font-weight:normal;font-size:40px;line-height:1.25;font-family:sans-serif;white-space:pre;shape-inside:url(#rect2498-06-0);display:inline;fill:#2ca05a;fill-opacity:1;stroke:none;stroke-width:0.138391;stroke-dasharray:none"><tspan
       x="-151.03125"
       y="363.33594"
       id="tspan10130"><tspan
         style="font-family:'Ductus Calligraphic';-inkscape-font-specification:'Ductus Calligraphic'"
         id="tspan10128">O</tspan></tspan></text><text
     xml:space="preserve"
     transform="matrix(1.7685409,0,0,1.7685409,488.80986,-565.37658)"
     id="text2496-32-6-5"
     style="font-style:normal;font-weight:normal;font-size:40px;line-height:1.25;font-family:sans-serif;white-space:pre;shape-inside:url(#rect2498-06-0-1);display:inline;fill:#2ca05a;fill-opacity:1;stroke:none;stroke-width:0.138391;stroke-dasharray:none"><tspan
       x="-151.03125"
       y="363.33594"
       id="tspan10134"><tspan
         style="font-family:'Ductus Calligraphic';-inkscape-font-specification:'Ductus Calligraphic'"
         id="tspan10132">A</tspan></tspan></text><text
     xml:space="preserve"
     transform="matrix(1.7685409,0,0,1.7685409,621.9907,-566.43538)"
     id="text2496-32-6-5-4"
     style="font-style:normal;font-weight:normal;font-size:40px;line-height:1.25;font-family:sans-serif;white-space:pre;shape-inside:url(#rect2498-06-0-1-5);display:inline;fill:#2ca05a;fill-opacity:1;stroke:none;stroke-width:0.138391;stroke-dasharray:none"><tspan
       x="-151.03125"
       y="363.33594"
       id="tspan10138"><tspan
         style="font-family:'Ductus Calligraphic';-inkscape-font-specification:'Ductus Calligraphic'"
         id="tspan10136">J</tspan></tspan></text><text
     xml:space="preserve"
     transform="matrix(1.7685409,0,0,1.7685409,488.06836,-486.3062)"
     id="text2496-32-6-5-6"
     style="font-style:normal;font-weight:normal;font-size:40px;line-height:1.25;font-family:sans-serif;white-space:pre;shape-inside:url(#rect2498-06-0-1-7);display:inline;fill:#2ca05a;fill-opacity:1;stroke:none;stroke-width:0.138391;stroke-dasharray:none"><tspan
       x="-151.03125"
       y="363.33594"
       id="tspan10142"><tspan
         style="font-family:'Ductus Calligraphic';-inkscape-font-specification:'Ductus Calligraphic'"
         id="tspan10140">B</tspan></tspan></text><text
     xml:space="preserve"
     transform="matrix(1.7685409,0,0,1.7685409,488.07446,-405.81026)"
     id="text2496-32-6-5-6-5"
     style="font-style:normal;font-weight:normal;font-size:40px;line-height:1.25;font-family:sans-serif;white-space:pre;shape-inside:url(#rect2498-06-0-1-7-4);display:inline;fill:#2ca05a;fill-opacity:1;stroke:none;stroke-width:0.138391;stroke-dasharray:none"><tspan
       x="-151.03125"
       y="363.33594"
       id="tspan10146"><tspan
         style="font-family:'Ductus Calligraphic';-inkscape-font-specification:'Ductus Calligraphic'"
         id="tspan10144">N</tspan></tspan></text><text
     xml:space="preserve"
     transform="matrix(1.9002857,0,0,1.9002857,313.11669,-483.75972)"
     id="text2496-3"
     style="font-style:normal;font-weight:normal;font-size:40px;line-height:1.25;font-family:sans-serif;white-space:pre;shape-inside:url(#rect2498-0);display:inline;fill:none;fill-opacity:1;stroke:#2ca05a;stroke-width:0.138391;stroke-dasharray:none"><tspan
       x="-151.03125"
       y="363.33594"
       id="tspan10150"><tspan
         style="font-family:'Ductus Calligraphic';-inkscape-font-specification:'Ductus Calligraphic'"
         id="tspan10148">n</tspan></tspan></text><text
     xml:space="preserve"
     transform="matrix(1.9002857,0,0,1.9002857,314.44725,-413.52444)"
     id="text2496-3-1"
     style="font-style:normal;font-weight:normal;font-size:40px;line-height:1.25;font-family:sans-serif;white-space:pre;shape-inside:url(#rect2498-0-6);display:inline;fill:none;fill-opacity:1;stroke:#2ca05a;stroke-width:0.138391;stroke-dasharray:none"><tspan
       x="-151.03125"
       y="363.33594"
       id="tspan10154"><tspan
         style="font-family:'Ductus Calligraphic';-inkscape-font-specification:'Ductus Calligraphic'"
         id="tspan10152">z</tspan></tspan></text><g
     inkscape:label="Calque 1"
     inkscape:groupmode="layer"
     id="layer1" /><g
     inkscape:groupmode="layer"
     id="layer2"
     inkscape:label="Calque 2" /><text
     xml:space="preserve"
     transform="matrix(0.26458333,0,0,0.26458333,4.8307669,45.866356)"
     id="text4628-2-7-1"
     style="font-style:normal;font-weight:normal;font-size:26.6667px;line-height:1.25;font-family:sans-serif;white-space:pre;shape-inside:url(#rect4630-9-9-6);display:inline;fill:#2ca05a;fill-opacity:1;stroke:none"><tspan
       x="32.525391"
       y="-91.76299"
       id="tspan10158"><tspan
         style="font-family:'Ductus Calligraphic';-inkscape-font-specification:'Ductus Calligraphic'"
         id="tspan10156">Ductus est une famille typographique </tspan></tspan><tspan
       x="32.525391"
       y="-58.02628"
       id="tspan10162"><tspan
         style="font-family:'Ductus Calligraphic';-inkscape-font-specification:'Ductus Calligraphic'"
         id="tspan10160">inspirée des ductus traditionnels de </tspan></tspan><tspan
       x="32.525391"
       y="-24.289574"
       id="tspan10166"><tspan
         style="font-family:'Ductus Calligraphic';-inkscape-font-specification:'Ductus Calligraphic'"
         id="tspan10164">calligraphie romaine.
</tspan></tspan><tspan
       x="32.525391"
       y="9.4471315"
       id="tspan10170"><tspan
         style="font-family:'Ductus Calligraphic';-inkscape-font-specification:'Ductus Calligraphic'"
         id="tspan10168">Elle a été dessinée avec Metapost 
</tspan></tspan><tspan
       x="32.525391"
       y="43.183837"
       id="tspan10174"><tspan
         style="font-family:'Ductus Calligraphic';-inkscape-font-specification:'Ductus Calligraphic'"
         id="tspan10172">de façon à reproduire les tracés </tspan></tspan><tspan
       x="32.525391"
       y="76.920543"
       id="tspan10178"><tspan
         style="font-family:'Ductus Calligraphic';-inkscape-font-specification:'Ductus Calligraphic'"
         id="tspan10176">multiples composant les glyphes.</tspan></tspan></text><text
     xml:space="preserve"
     transform="matrix(0.26458333,0,0,0.26458333,275.00869,206.77345)"
     id="text4628-2-7-1-8"
     style="font-style:normal;font-weight:normal;font-size:32px;line-height:1.25;font-family:sans-serif;white-space:pre;shape-inside:url(#rect4630-9-9-6-4);display:inline;fill:#2ca05a;fill-opacity:1;stroke:none"><tspan
       x="32.525391"
       y="-86.829688"
       id="tspan10182"><tspan
         style="font-family:'Ductus Calligraphic';-inkscape-font-specification:'Ductus Calligraphic'"
         id="tspan10180">La graisse des glyphes </tspan></tspan><tspan
       x="32.525391"
       y="-46.345694"
       id="tspan10186"><tspan
         style="font-family:'Ductus Calligraphic';-inkscape-font-specification:'Ductus Calligraphic'"
         id="tspan10184">de Ductus Calligraphic </tspan></tspan><tspan
       x="32.525391"
       y="-5.8617004"
       id="tspan10190"><tspan
         style="font-family:'Ductus Calligraphic';-inkscape-font-specification:'Ductus Calligraphic'"
         id="tspan10188">est définie par l'outil  </tspan></tspan><tspan
       x="32.525391"
       y="34.622293"
       id="tspan10194"><tspan
         style="font-family:'Ductus Calligraphic';-inkscape-font-specification:'Ductus Calligraphic'"
         id="tspan10192">« penrazor » de </tspan></tspan><tspan
       x="32.525391"
       y="75.106287"
       id="tspan10198"><tspan
         style="font-family:'Ductus Calligraphic';-inkscape-font-specification:'Ductus Calligraphic'"
         id="tspan10196">Metapost, qui applique </tspan></tspan><tspan
       x="32.525391"
       y="115.59028"
       id="tspan10202"><tspan
         style="font-family:'Ductus Calligraphic';-inkscape-font-specification:'Ductus Calligraphic'"
         id="tspan10200">un contour biseauté à </tspan></tspan><tspan
       x="32.525391"
       y="156.07427"
       id="tspan10206"><tspan
         style="font-family:'Ductus Calligraphic';-inkscape-font-specification:'Ductus Calligraphic'"
         id="tspan10204">45 degrés sur les </tspan></tspan><tspan
       x="32.525391"
       y="196.55827"
       id="tspan10210"><tspan
         style="font-family:'Ductus Calligraphic';-inkscape-font-specification:'Ductus Calligraphic'"
         id="tspan10208">tracés de base.</tspan></tspan></text><text
     xml:space="preserve"
     transform="scale(0.26458333)"
     id="text8604"
     style="font-style:normal;font-weight:normal;font-size:40px;line-height:1.25;font-family:sans-serif;white-space:pre;shape-inside:url(#rect8606);display:inline;fill:#000000;fill-opacity:1;stroke:none" /><text
     xml:space="preserve"
     transform="matrix(0.26458333,0,0,0.26458333,-2.8239452,-12.372322)"
     id="text8610"
     style="font-style:normal;font-weight:normal;font-size:16px;line-height:1.25;font-family:sans-serif;letter-spacing:0px;white-space:pre;shape-inside:url(#rect8612);display:inline;fill:#2ca05a;fill-opacity:1;stroke:none"
     inkscape:export-filename="text8610.png"
     inkscape:export-xdpi="300"
     inkscape:export-ydpi="300"><tspan
       x="410.50391"
       y="395.96992"
       id="tspan10214"><tspan
         style="font-family:'Ductus Calligraphic';-inkscape-font-specification:'Ductus Calligraphic'"
         id="tspan10212">pickup penrazor scaled 8;
</tspan></tspan><tspan
       x="410.50391"
       y="416.21193"
       id="tspan10218"><tspan
         style="font-family:'Ductus Calligraphic';-inkscape-font-specification:'Ductus Calligraphic'"
         id="tspan10216">z1=(0cm,1cm);
</tspan></tspan><tspan
       x="410.50391"
       y="436.45393"
       id="tspan10222"><tspan
         style="font-family:'Ductus Calligraphic';-inkscape-font-specification:'Ductus Calligraphic'"
         id="tspan10220">z2=(0.8cm,0cm);
</tspan></tspan><tspan
       x="410.50391"
       y="456.69594"
       id="tspan10226"><tspan
         style="font-family:'Ductus Calligraphic';-inkscape-font-specification:'Ductus Calligraphic'"
         id="tspan10224">z3=(1.6cm,0.3cm);
</tspan></tspan><tspan
       x="410.50391"
       y="476.93794"
       id="tspan10230"><tspan
         style="font-family:'Ductus Calligraphic';-inkscape-font-specification:'Ductus Calligraphic'"
         id="tspan10228">z5=(0.8cm,2cm);
</tspan></tspan><tspan
       x="410.50391"
       y="497.17994"
       id="tspan10234"><tspan
         style="font-family:'Ductus Calligraphic';-inkscape-font-specification:'Ductus Calligraphic'"
         id="tspan10232">z6=(1.65cm,1.5cm);
</tspan></tspan><tspan
       x="410.50391"
       y="517.42195"
       id="tspan10238"><tspan
         style="font-family:'Ductus Calligraphic';-inkscape-font-specification:'Ductus Calligraphic'"
         id="tspan10236">z7=(0.8cm,1cm);
</tspan></tspan><tspan
       x="410.50391"
       y="537.66395"
       id="tspan10242"><tspan
         style="font-family:'Ductus Calligraphic';-inkscape-font-specification:'Ductus Calligraphic'"
         id="tspan10240">z8=(0cm,1.5cm);
</tspan></tspan><tspan
       x="410.50391"
       y="557.90596"
       id="tspan10246"><tspan
         style="font-family:'Ductus Calligraphic';-inkscape-font-specification:'Ductus Calligraphic'"
         id="tspan10244">draw z1..z2..z3;
</tspan></tspan><tspan
       x="410.50391"
       y="578.14796"
       id="tspan10250"><tspan
         style="font-family:'Ductus Calligraphic';-inkscape-font-specification:'Ductus Calligraphic'"
         id="tspan10248">draw z8..z5..z6..z7..cycle;</tspan></tspan></text><text
     xml:space="preserve"
     transform="matrix(0.26458333,0,0,0.26458333,-2.8239452,57.801667)"
     id="text8610-0"
     style="font-style:normal;font-weight:normal;font-size:16px;line-height:1.25;font-family:sans-serif;letter-spacing:0px;white-space:pre;shape-inside:url(#rect8612-5);display:inline;fill:#2ca05a;fill-opacity:1;stroke:none"
     inkscape:export-filename="text8610.png"
     inkscape:export-xdpi="300"
     inkscape:export-ydpi="300"><tspan
       x="410.50391"
       y="395.96992"
       id="tspan10254"><tspan
         style="font-family:'Ductus Calligraphic';-inkscape-font-specification:'Ductus Calligraphic'"
         id="tspan10252">pickup penrazor scaled 8;
</tspan></tspan><tspan
       x="410.50391"
       y="416.21193"
       id="tspan10258"><tspan
         style="font-family:'Ductus Calligraphic';-inkscape-font-specification:'Ductus Calligraphic'"
         id="tspan10256">z1=(0cm,0cm);
</tspan></tspan><tspan
       x="410.50391"
       y="436.45393"
       id="tspan10262"><tspan
         style="font-family:'Ductus Calligraphic';-inkscape-font-specification:'Ductus Calligraphic'"
         id="tspan10260">z2=(0cm,2cm);
</tspan></tspan><tspan
       x="410.50391"
       y="456.69594"
       id="tspan10266"><tspan
         style="font-family:'Ductus Calligraphic';-inkscape-font-specification:'Ductus Calligraphic'"
         id="tspan10264">z3=(0.25cm,1.3cm);
</tspan></tspan><tspan
       x="410.50391"
       y="476.93794"
       id="tspan10270"><tspan
         style="font-family:'Ductus Calligraphic';-inkscape-font-specification:'Ductus Calligraphic'"
         id="tspan10268">z8=(0.8cm,2cm);
</tspan></tspan><tspan
       x="410.50391"
       y="497.17994"
       id="tspan10274"><tspan
         style="font-family:'Ductus Calligraphic';-inkscape-font-specification:'Ductus Calligraphic'"
         id="tspan10272">z9=(1.6cm,1.3cm);
</tspan></tspan><tspan
       x="410.50391"
       y="517.42195"
       id="tspan10278"><tspan
         style="font-family:'Ductus Calligraphic';-inkscape-font-specification:'Ductus Calligraphic'"
         id="tspan10276">z10=(1.6cm,0cm);
</tspan></tspan><tspan
       x="410.50391"
       y="537.66395"
       id="tspan10282"><tspan
         style="font-family:'Ductus Calligraphic';-inkscape-font-specification:'Ductus Calligraphic'"
         id="tspan10280">draw z1--z2;
</tspan></tspan><tspan
       x="410.50391"
       y="557.90596"
       id="tspan10286"><tspan
         style="font-family:'Ductus Calligraphic';-inkscape-font-specification:'Ductus Calligraphic'"
         id="tspan10284">draw z3{dir 90}..z8..{dir 270}z9--z10;
</tspan></tspan></text><text
     xml:space="preserve"
     transform="matrix(0.26458333,0,0,0.26458333,-2.8239452,127.44397)"
     id="text8610-0-7"
     style="font-style:normal;font-weight:normal;font-size:16px;line-height:1.25;font-family:sans-serif;letter-spacing:0px;white-space:pre;shape-inside:url(#rect8612-5-1);display:inline;fill:#2ca05a;fill-opacity:1;stroke:none"
     inkscape:export-filename="text8610.png"
     inkscape:export-xdpi="300"
     inkscape:export-ydpi="300"><tspan
       x="410.50391"
       y="395.96992"
       id="tspan10290"><tspan
         style="font-family:'Ductus Calligraphic';-inkscape-font-specification:'Ductus Calligraphic'"
         id="tspan10288">pickup penrazor scaled 8;
</tspan></tspan><tspan
       x="410.50391"
       y="416.21193"
       id="tspan10294"><tspan
         style="font-family:'Ductus Calligraphic';-inkscape-font-specification:'Ductus Calligraphic'"
         id="tspan10292">z1=(1.8cm,2cm);
</tspan></tspan><tspan
       x="410.50391"
       y="436.45393"
       id="tspan10298"><tspan
         style="font-family:'Ductus Calligraphic';-inkscape-font-specification:'Ductus Calligraphic'"
         id="tspan10296">z2=(0cm,0cm);
</tspan></tspan><tspan
       x="410.50391"
       y="456.69594"
       id="tspan10302"><tspan
         style="font-family:'Ductus Calligraphic';-inkscape-font-specification:'Ductus Calligraphic'"
         id="tspan10300">z3=(0cm,2cm);
</tspan></tspan><tspan
       x="410.50391"
       y="476.93794"
       id="tspan10306"><tspan
         style="font-family:'Ductus Calligraphic';-inkscape-font-specification:'Ductus Calligraphic'"
         id="tspan10304">z5=(1.3cm,2cm);
</tspan></tspan><tspan
       x="410.50391"
       y="497.17994"
       id="tspan10310"><tspan
         style="font-family:'Ductus Calligraphic';-inkscape-font-specification:'Ductus Calligraphic'"
         id="tspan10308">z6=(0.5cm,0cm);
</tspan></tspan><tspan
       x="410.50391"
       y="517.42195"
       id="tspan10314"><tspan
         style="font-family:'Ductus Calligraphic';-inkscape-font-specification:'Ductus Calligraphic'"
         id="tspan10312">z8=(1.8cm,0cm);
</tspan></tspan><tspan
       x="410.50391"
       y="537.66395"
       id="tspan10318"><tspan
         style="font-family:'Ductus Calligraphic';-inkscape-font-specification:'Ductus Calligraphic'"
         id="tspan10316">draw z1--z2;
</tspan></tspan><tspan
       x="410.50391"
       y="557.90596"
       id="tspan10322"><tspan
         style="font-family:'Ductus Calligraphic';-inkscape-font-specification:'Ductus Calligraphic'"
         id="tspan10320">draw z3..z5;
</tspan></tspan><tspan
       x="410.50391"
       y="578.14796"
       id="tspan10326"><tspan
         style="font-family:'Ductus Calligraphic';-inkscape-font-specification:'Ductus Calligraphic'"
         id="tspan10324">draw z6..z8;</tspan></tspan></text><path
     style="fill:none;stroke:#2ca05a;stroke-width:0.264583px;stroke-linecap:butt;stroke-linejoin:miter;stroke-opacity:1"
     d="M 9.2623872,79.823571 H 199.49676"
     id="path10577" /><path
     style="fill:none;stroke:#2ca05a;stroke-width:0.264583px;stroke-linecap:butt;stroke-linejoin:miter;stroke-opacity:1"
     d="M 9.2623872,150.55114 H 200.16304"
     id="path10579" /><path
     style="fill:none;stroke:#2ca05a;stroke-width:0.264583px;stroke-linecap:butt;stroke-linejoin:miter;stroke-opacity:1"
     d="M 9.2623872,220.23231 H 200.16304"
     id="path10579-7" /><g
     id="g12432"
     style="stroke:#ffffff;stroke-width:0.20563857;stroke-dasharray:none"
     transform="matrix(2.4314505,0,0,2.4314505,-406.7734,-142.8068)"><path
       d="m 268.69516,66.964392 -6.75,22.499994"
       style="fill:none;stroke:#ffffff;stroke-width:0.20563857;stroke-linecap:round;stroke-linejoin:round;stroke-miterlimit:10;stroke-dasharray:none"
       id="path12254" /><path
       d="m 278.44516,89.464386 -6.75,-22.499994"
       style="fill:none;stroke:#ffffff;stroke-width:0.20563857;stroke-linecap:round;stroke-linejoin:round;stroke-miterlimit:10;stroke-dasharray:none"
       id="path12256" /><path
       d="m 266.44516,81.964388 h 7.5"
       style="fill:none;stroke:#ffffff;stroke-width:0.20563857;stroke-linecap:round;stroke-linejoin:round;stroke-miterlimit:10;stroke-dasharray:none"
       id="path12258" /></g><g
     id="g13006"
     transform="matrix(2.4314505,0,0,2.4314505,-346.86983,-75.48632)"
     style="stroke:#ffffff;stroke-width:0.20563857;stroke-dasharray:none"><path
       d="m 263.97007,48.778603 v 4.499999 c 0.0296,4.544037 3.70596,8.220412 8.25,8.249998 4.28273,0.02788 7.8708,-3.233994 8.25,-7.499998"
       style="fill:none;stroke:#ffffff;stroke-width:0.20563857;stroke-linecap:round;stroke-linejoin:round;stroke-miterlimit:10;stroke-dasharray:none"
       id="path12838" /><path
       d="m 263.97007,45.778604 c 0.73222,-3.963015 4.22046,-6.817029 8.25,-6.749998 4.5248,0.07527 8.17473,3.725194 8.25,8.249998 v 3.749999"
       style="fill:none;stroke:#ffffff;stroke-width:0.20563857;stroke-linecap:round;stroke-linejoin:round;stroke-miterlimit:10;stroke-dasharray:none"
       id="path12840" /></g><g
     id="g15520"
     transform="matrix(2.4314505,0,0,2.4314505,-414.25679,-109.13298)"
     style="stroke:#ffffff;stroke-width:0.20563857;stroke-dasharray:none"><path
       d="m 319.6935,68.747533 c 0,3.727921 3.02208,6.749998 6.75,6.749998 3.72792,0 6.75,-3.022077 6.75,-6.749998 V 55.997536"
       style="fill:none;stroke:#ffffff;stroke-width:0.20563857;stroke-linecap:round;stroke-linejoin:round;stroke-miterlimit:10;stroke-dasharray:none"
       id="path14263" /><path
       d="m 333.1935,52.997537 h -9.75"
       style="fill:none;stroke:#ffffff;stroke-width:0.20563857;stroke-linecap:round;stroke-linejoin:round;stroke-miterlimit:10;stroke-dasharray:none"
       id="path14265" /></g><g
     id="g16130"
     transform="matrix(2.4314505,0,0,2.4314505,-667.46825,-101.37563)"
     style="stroke:#ffffff;stroke-width:0.20563857;stroke-dasharray:none"><path
       d="M 369.59326,82.708847 V 105.20884"
       style="fill:none;stroke:#ffffff;stroke-width:0.20563857;stroke-linecap:round;stroke-linejoin:round;stroke-miterlimit:10;stroke-dasharray:none"
       id="path15952" /><path
       d="m 372.59326,82.708847 h 4.5 c 3.24924,-0.209847 6,2.36899 6,5.624998 0,3.256009 -2.75076,5.834845 -6,5.624999"
       style="fill:none;stroke:#ffffff;stroke-width:0.20563857;stroke-linecap:round;stroke-linejoin:round;stroke-miterlimit:10;stroke-dasharray:none"
       id="path15954" /><path
       d="m 372.59326,93.958844 h 4.5 c 3.24924,-0.209847 6,2.36899 6,5.624998 0,3.256008 -2.75076,5.834848 -6,5.624998 h -4.5"
       style="fill:none;stroke:#ffffff;stroke-width:0.20563857;stroke-linecap:round;stroke-linejoin:round;stroke-miterlimit:10;stroke-dasharray:none"
       id="path15956" /></g><g
     id="g17096"
     style="stroke:#ffffff;stroke-width:0.20563857;stroke-dasharray:none"
     transform="matrix(2.4314505,0,0,2.4314505,-479.75525,-70.278592)"><path
       d="m 292.40478,102.95315 v 22.49999"
       style="fill:none;stroke:#ffffff;stroke-width:0.20563857;stroke-linecap:round;stroke-linejoin:round;stroke-miterlimit:10;stroke-dasharray:none"
       id="path16918" /><path
       d="m 305.90478,102.95315 v 22.49999"
       style="fill:none;stroke:#ffffff;stroke-width:0.20563857;stroke-linecap:round;stroke-linejoin:round;stroke-miterlimit:10;stroke-dasharray:none"
       id="path16920" /><path
       d="m 295.40478,102.95315 7.5,22.49999"
       style="fill:none;stroke:#ffffff;stroke-width:0.20563857;stroke-linecap:round;stroke-linejoin:round;stroke-miterlimit:10;stroke-dasharray:none"
       id="path16922" /></g><g
     id="g17432"
     style="stroke:#ffffff;stroke-width:0.20563857;stroke-dasharray:none"
     transform="matrix(2.4314505,0,0,2.4314505,-416.34171,-153.53856)"><path
       d="m 334.16989,103.08116 -6.82346,15.23111 v 7.5"
       style="fill:none;stroke:#ffffff;stroke-width:0.20563857;stroke-linecap:round;stroke-linejoin:round;stroke-miterlimit:10;stroke-dasharray:none"
       id="path17264"
       sodipodi:nodetypes="ccc" /><path
       d="m 320.48967,103.38543 6.09991,12.24949"
       style="fill:none;stroke:#ffffff;stroke-width:0.20563857;stroke-linecap:round;stroke-linejoin:round;stroke-miterlimit:10;stroke-dasharray:none"
       id="path17266"
       sodipodi:nodetypes="cc" /></g><g
     id="g16485"
     transform="matrix(2.4314505,0,0,2.4314505,-344.55803,-246.28598)"
     style="fill:none;stroke:#ffffff;stroke-width:0.20563857;stroke-dasharray:none"><path
       d="m 277.96094,165.13934 2.25,-22.49999"
       style="fill:none;stroke:#ffffff;stroke-width:0.20563857;stroke-linecap:round;stroke-linejoin:round;stroke-miterlimit:10;stroke-dasharray:none"
       id="path16307" /><path
       d="m 262.21094,142.63935 2.25,22.49999"
       style="fill:none;stroke:#ffffff;stroke-width:0.20563857;stroke-linecap:round;stroke-linejoin:round;stroke-miterlimit:10;stroke-dasharray:none"
       id="path16309" /><path
       d="m 267.46094,165.13934 3.75,-7.5 3.75,7.5"
       style="fill:none;stroke:#ffffff;stroke-width:0.20563857;stroke-linecap:round;stroke-linejoin:round;stroke-miterlimit:10;stroke-dasharray:none"
       id="path16311" /></g><g
     transform="matrix(0.70026334,0,0,0.70026333,30.270464,117.0324)"
     style="fill:#2ca05a"
     id="g423"><g
       transform="scale(0.009963)"
       id="use421"
       style="fill:#2ca05a"><path
         style="fill:#2ca05a;fill-rule:evenodd"
         d="m 294,-640 c 0,-24 0,-26 -23,-26 -62,64 -150,64 -182,64 v 31 c 20,0 79,0 131,-26 v 518 c 0,36 -3,48 -93,48 H 95 V 0 c 35,-3 122,-3 162,-3 40,0 127,0 162,3 v -31 h -32 c -90,0 -93,-11 -93,-48"
         id="path772" /></g></g><path
     d="m 36.917837,114.78444 v 0"
     style="fill:none;stroke:#2ca05a;stroke-width:2.10078;stroke-linecap:round;stroke-linejoin:round;stroke-miterlimit:10"
     id="path425" /><g
     transform="matrix(0.70026334,0,0,0.70026333,51.053756,143.34784)"
     style="fill:#2ca05a"
     id="g429"><g
       transform="scale(0.009963)"
       id="use427"
       style="fill:#2ca05a"><path
         style="fill:#2ca05a;fill-rule:evenodd"
         d="m 127,-77 106,-103 c 156,-138 216,-192 216,-292 0,-114 -90,-194 -212,-194 -113,0 -187,92 -187,181 0,56 50,56 53,56 17,0 52,-12 52,-53 0,-26 -18,-52 -53,-52 -8,0 -10,0 -13,1 23,-65 77,-102 135,-102 91,0 134,81 134,163 0,80 -50,159 -105,221 L 61,-37 C 50,-26 50,-24 50,0 h 371 l 28,-174 h -25 c -5,30 -12,74 -22,89 -7,8 -73,8 -95,8"
         id="path776" /></g></g><path
     d="m 52.797883,134.63445 v 0"
     style="fill:none;stroke:#2ca05a;stroke-width:2.10078;stroke-linecap:round;stroke-linejoin:round;stroke-miterlimit:10"
     id="path431" /><g
     transform="matrix(0.70026334,0,0,0.70026333,70.677639,135.17504)"
     style="fill:#2ca05a"
     id="g435"><g
       transform="scale(0.009963)"
       id="use433"
       style="fill:#2ca05a"><path
         style="fill:#2ca05a;fill-rule:evenodd"
         d="m 290,-352 c 82,-27 140,-97 140,-176 0,-82 -88,-138 -184,-138 -101,0 -177,60 -177,136 0,33 22,52 51,52 31,0 51,-22 51,-51 0,-50 -47,-50 -62,-50 31,-49 97,-62 133,-62 41,0 96,22 96,112 0,12 -2,70 -28,114 -30,48 -64,51 -89,52 -8,1 -32,3 -39,3 -8,1 -15,2 -15,12 0,11 7,11 24,11 h 44 c 82,0 119,68 119,166 0,136 -69,165 -113,165 -43,0 -118,-17 -153,-76 35,5 66,-17 66,-55 0,-36 -27,-56 -56,-56 -24,0 -56,14 -56,58 0,91 93,157 202,157 122,0 213,-91 213,-193 0,-82 -63,-160 -167,-181"
         id="path788" /></g></g><path
     d="m 68.67793,128.67939 v 0"
     style="fill:none;stroke:#2ca05a;stroke-width:2.10078;stroke-linecap:round;stroke-linejoin:round;stroke-miterlimit:10"
     id="path437" /><g
     transform="matrix(0.70026334,0,0,0.70026333,30.270464,107.10746)"
     style="fill:#2ca05a"
     id="g441"><g
       transform="scale(0.009963)"
       id="use439"
       style="fill:#2ca05a"><path
         style="fill:#2ca05a;fill-rule:evenodd"
         d="m 294,-165 v 87 c 0,36 -2,47 -76,47 H 197 V 0 c 41,-3 93,-3 135,-3 42,0 95,0 136,3 v -31 h -21 c -74,0 -76,-11 -76,-47 v -87 h 100 v -31 H 371 v -455 c 0,-20 0,-26 -16,-26 -9,0 -12,0 -20,12 L 28,-196 v 31 m 272,-31 H 56 l 244,-373"
         id="path792" /></g></g><path
     d="m 36.917837,104.85946 v 0"
     style="fill:none;stroke:#2ca05a;stroke-width:2.10078;stroke-linecap:round;stroke-linejoin:round;stroke-miterlimit:10"
     id="path443" /><g
     transform="matrix(0.70026334,0,0,0.70026333,51.053756,91.246208)"
     style="fill:#2ca05a"
     id="g447"><g
       transform="scale(0.009963)"
       id="use445"
       style="fill:#2ca05a"><path
         style="fill:#2ca05a;fill-rule:evenodd"
         d="m 449,-201 c 0,-119 -82,-219 -190,-219 -48,0 -91,16 -127,51 v -195 c 20,6 53,13 85,13 123,0 193,-91 193,-104 0,-6 -3,-11 -10,-11 -1,0 -3,0 -8,3 -20,9 -69,29 -136,29 -40,0 -86,-7 -133,-28 -8,-3 -10,-3 -12,-3 -10,0 -10,8 -10,24 v 296 c 0,18 0,26 14,26 7,0 9,-3 13,-9 11,-16 48,-70 129,-70 52,0 77,46 85,64 16,37 18,76 18,126 0,35 0,95 -24,137 -24,39 -61,65 -107,65 -73,0 -130,-53 -147,-112 3,1 6,2 17,2 33,0 50,-25 50,-49 0,-24 -17,-49 -50,-49 -14,0 -49,7 -49,53 0,86 69,183 181,183 116,0 218,-96 218,-223"
         id="path780" /></g></g><path
     d="m 52.797883,94.934502 v 0"
     style="fill:none;stroke:#2ca05a;stroke-width:2.10078;stroke-linecap:round;stroke-linejoin:round;stroke-miterlimit:10"
     id="path449" /><g
     transform="matrix(0.70026334,0,0,0.70026333,72.829303,107.10746)"
     style="fill:#2ca05a"
     id="g453"><g
       transform="scale(0.009963)"
       id="use451"
       style="fill:#2ca05a"><path
         style="fill:#2ca05a;fill-rule:evenodd"
         d="m 132,-328 v -24 c 0,-253 124,-289 175,-289 24,0 66,6 88,40 -15,0 -55,0 -55,45 0,31 24,46 46,46 16,0 46,-9 46,-48 0,-60 -44,-108 -127,-108 -128,0 -263,129 -263,350 0,267 116,338 209,338 111,0 206,-94 206,-226 0,-127 -89,-223 -200,-223 -68,0 -105,51 -125,99 M 251,-6 c -63,0 -93,-60 -99,-75 -18,-47 -18,-127 -18,-145 0,-78 32,-178 122,-178 16,0 62,0 93,62 18,37 18,88 18,137 0,48 0,98 -17,134 -30,60 -76,65 -99,65"
         id="path784" /></g></g><path
     d="m 69.670184,104.85946 v 0"
     style="fill:none;stroke:#2ca05a;stroke-width:2.10078;stroke-linecap:round;stroke-linejoin:round;stroke-miterlimit:10"
     id="path455" /><g
     transform="matrix(0.70026334,0,0,0.70026333,51.053756,122.96868)"
     style="fill:#2ca05a"
     id="g459"><g
       transform="scale(0.009963)"
       id="use457"
       style="fill:#2ca05a"><path
         style="fill:#2ca05a;fill-rule:evenodd"
         d="m 476,-609 c 9,-12 9,-14 9,-35 H 242 c -122,0 -124,-13 -128,-32 H 89 l -33,206 h 25 c 3,-16 12,-79 25,-91 7,-6 85,-6 98,-6 h 207 c -11,16 -90,125 -112,158 -90,135 -123,274 -123,376 0,10 0,55 46,55 46,0 46,-45 46,-55 v -51 c 0,-55 3,-110 11,-164 4,-23 18,-109 62,-171"
         id="path796" /></g></g><path
     d="m 52.797883,114.78444 v 0"
     style="fill:none;stroke:#2ca05a;stroke-width:2.10078;stroke-linecap:round;stroke-linejoin:round;stroke-miterlimit:10"
     id="path461" /><g
     transform="matrix(0.70026334,0,0,0.70026333,30.686363,167.50158)"
     style="fill:#2ca05a"
     id="g906"><g
       transform="scale(0.009963)"
       id="use904"
       style="fill:#2ca05a"><path
         style="fill:#2ca05a;fill-rule:evenodd"
         d="m 294,-640 c 0,-24 0,-26 -23,-26 -62,64 -150,64 -182,64 v 31 c 20,0 79,0 131,-26 v 518 c 0,36 -3,48 -93,48 H 95 V 0 c 35,-3 122,-3 162,-3 40,0 127,0 162,3 v -31 h -32 c -90,0 -93,-11 -93,-48"
         id="path1229" /></g></g><path
     d="m 37.333738,165.25356 v 0"
     style="fill:none;stroke:#2ca05a;stroke-width:2.10078;stroke-linecap:round;stroke-linejoin:round;stroke-miterlimit:10"
     id="path908" /><g
     transform="matrix(0.70026334,0,0,0.70026333,30.686363,207.20149)"
     style="fill:#2ca05a"
     id="g912"><g
       transform="scale(0.009963)"
       id="use910"
       style="fill:#2ca05a"><path
         style="fill:#2ca05a;fill-rule:evenodd"
         d="m 127,-77 106,-103 c 156,-138 216,-192 216,-292 0,-114 -90,-194 -212,-194 -113,0 -187,92 -187,181 0,56 50,56 53,56 17,0 52,-12 52,-53 0,-26 -18,-52 -53,-52 -8,0 -10,0 -13,1 23,-65 77,-102 135,-102 91,0 134,81 134,163 0,80 -50,159 -105,221 L 61,-37 C 50,-26 50,-24 50,0 h 371 l 28,-174 h -25 c -5,30 -12,74 -22,89 -7,8 -73,8 -95,8"
         id="path1241" /></g></g><path
     d="m 37.333738,204.9535 v 0"
     style="fill:none;stroke:#2ca05a;stroke-width:2.10078;stroke-linecap:round;stroke-linejoin:round;stroke-miterlimit:10"
     id="path914" /><g
     transform="matrix(0.70026334,0,0,0.70026333,44.295947,185.64414)"
     style="fill:#2ca05a"
     id="g918"><g
       transform="scale(0.009963)"
       id="use916"
       style="fill:#2ca05a"><path
         style="fill:#2ca05a;fill-rule:evenodd"
         d="m 290,-352 c 82,-27 140,-97 140,-176 0,-82 -88,-138 -184,-138 -101,0 -177,60 -177,136 0,33 22,52 51,52 31,0 51,-22 51,-51 0,-50 -47,-50 -62,-50 31,-49 97,-62 133,-62 41,0 96,22 96,112 0,12 -2,70 -28,114 -30,48 -64,51 -89,52 -8,1 -32,3 -39,3 -8,1 -15,2 -15,12 0,11 7,11 24,11 h 44 c 82,0 119,68 119,166 0,136 -69,165 -113,165 -43,0 -118,-17 -153,-76 35,5 66,-17 66,-55 0,-36 -27,-56 -56,-56 -24,0 -56,14 -56,58 0,91 93,157 202,157 122,0 213,-91 213,-193 0,-82 -63,-160 -167,-181"
         id="path1245" /></g></g><path
     d="m 42.296226,179.1485 v 0"
     style="fill:none;stroke:#2ca05a;stroke-width:2.10078;stroke-linecap:round;stroke-linejoin:round;stroke-miterlimit:10"
     id="path920" /><g
     transform="matrix(0.70026334,0,0,0.70026333,53.586317,162.09442)"
     style="fill:#2ca05a"
     id="g924"><g
       transform="scale(0.009963)"
       id="use922"
       style="fill:#2ca05a"><path
         style="fill:#2ca05a;fill-rule:evenodd"
         d="m 294,-165 v 87 c 0,36 -2,47 -76,47 H 197 V 0 c 41,-3 93,-3 135,-3 42,0 95,0 136,3 v -31 h -21 c -74,0 -76,-11 -76,-47 v -87 h 100 v -31 H 371 v -455 c 0,-20 0,-26 -16,-26 -9,0 -12,0 -20,12 L 28,-196 v 31 m 272,-31 H 56 l 244,-373"
         id="path1249" /></g></g><path
     d="m 55.330447,165.25356 v 0"
     style="fill:none;stroke:#2ca05a;stroke-width:2.10078;stroke-linecap:round;stroke-linejoin:round;stroke-miterlimit:10"
     id="path926" /><g
     transform="matrix(0.70026334,0,0,0.70026333,71.723782,181.39649)"
     style="fill:#2ca05a"
     id="g930"><g
       transform="scale(0.009963)"
       id="use928"
       style="fill:#2ca05a"><path
         style="fill:#2ca05a;fill-rule:evenodd"
         d="m 449,-201 c 0,-119 -82,-219 -190,-219 -48,0 -91,16 -127,51 v -195 c 20,6 53,13 85,13 123,0 193,-91 193,-104 0,-6 -3,-11 -10,-11 -1,0 -3,0 -8,3 -20,9 -69,29 -136,29 -40,0 -86,-7 -133,-28 -8,-3 -10,-3 -12,-3 -10,0 -10,8 -10,24 v 296 c 0,18 0,26 14,26 7,0 9,-3 13,-9 11,-16 48,-70 129,-70 52,0 77,46 85,64 16,37 18,76 18,126 0,35 0,95 -24,137 -24,39 -61,65 -107,65 -73,0 -130,-53 -147,-112 3,1 6,2 17,2 33,0 50,-25 50,-49 0,-24 -17,-49 -50,-49 -14,0 -49,7 -49,53 0,86 69,183 181,183 116,0 218,-96 218,-223"
         id="path1233" /></g></g><path
     d="m 68.564661,179.1485 v 0"
     style="fill:none;stroke:#2ca05a;stroke-width:2.10078;stroke-linecap:round;stroke-linejoin:round;stroke-miterlimit:10"
     id="path932" /><g
     transform="matrix(0.70026334,0,0,0.70026333,71.723782,207.20149)"
     style="fill:#2ca05a"
     id="g936"><g
       transform="scale(0.009963)"
       id="use934"
       style="fill:#2ca05a"><path
         style="fill:#2ca05a;fill-rule:evenodd"
         d="m 132,-328 v -24 c 0,-253 124,-289 175,-289 24,0 66,6 88,40 -15,0 -55,0 -55,45 0,31 24,46 46,46 16,0 46,-9 46,-48 0,-60 -44,-108 -127,-108 -128,0 -263,129 -263,350 0,267 116,338 209,338 111,0 206,-94 206,-226 0,-127 -89,-223 -200,-223 -68,0 -105,51 -125,99 M 251,-6 c -63,0 -93,-60 -99,-75 -18,-47 -18,-127 -18,-145 0,-78 32,-178 122,-178 16,0 62,0 93,62 18,37 18,88 18,137 0,48 0,98 -17,134 -30,60 -76,65 -99,65"
         id="path1237" /></g></g><path
     d="m 68.564661,204.9535 v 0"
     style="fill:none;stroke:#2ca05a;stroke-width:2.10078;stroke-linecap:round;stroke-linejoin:round;stroke-miterlimit:10"
     id="path938" /><g
     transform="matrix(0.70026334,0,0,0.70026333,34.274431,232.36693)"
     style="fill:#2ca05a"
     id="g1301"><g
       transform="scale(0.009963)"
       id="use1299"
       style="fill:#2ca05a"><path
         style="fill:#2ca05a;fill-rule:evenodd"
         d="m 294,-640 c 0,-24 0,-26 -23,-26 -62,64 -150,64 -182,64 v 31 c 20,0 79,0 131,-26 v 518 c 0,36 -3,48 -93,48 H 95 V 0 c 35,-3 122,-3 162,-3 40,0 127,0 162,3 v -31 h -32 c -90,0 -93,-11 -93,-48"
         id="path1648" /></g></g><path
     d="m 36.018554,235.52609 v 0"
     style="fill:none;stroke:#2ca05a;stroke-width:2.10078;stroke-linecap:round;stroke-linejoin:round;stroke-miterlimit:10"
     id="path1303" /><g
     transform="matrix(0.70026334,0,0,0.70026333,60.079468,232.36693)"
     style="fill:#2ca05a"
     id="g1307"><g
       transform="scale(0.009963)"
       id="use1305"
       style="fill:#2ca05a"><path
         style="fill:#2ca05a;fill-rule:evenodd"
         d="m 127,-77 106,-103 c 156,-138 216,-192 216,-292 0,-114 -90,-194 -212,-194 -113,0 -187,92 -187,181 0,56 50,56 53,56 17,0 52,-12 52,-53 0,-26 -18,-52 -53,-52 -8,0 -10,0 -13,1 23,-65 77,-102 135,-102 91,0 134,81 134,163 0,80 -50,159 -105,221 L 61,-37 C 50,-26 50,-24 50,0 h 371 l 28,-174 h -25 c -5,30 -12,74 -22,89 -7,8 -73,8 -95,8"
         id="path1632" /></g></g><path
     d="m 61.823594,235.52609 v 0"
     style="fill:none;stroke:#2ca05a;stroke-width:2.10078;stroke-linecap:round;stroke-linejoin:round;stroke-miterlimit:10"
     id="path1309" /><g
     transform="matrix(0.70026334,0,0,0.70026333,74.907701,237.77404)"
     style="fill:#2ca05a"
     id="g1313"><g
       transform="scale(0.009963)"
       id="use1311"
       style="fill:#2ca05a"><path
         style="fill:#2ca05a;fill-rule:evenodd"
         d="m 290,-352 c 82,-27 140,-97 140,-176 0,-82 -88,-138 -184,-138 -101,0 -177,60 -177,136 0,33 22,52 51,52 31,0 51,-22 51,-51 0,-50 -47,-50 -62,-50 31,-49 97,-62 133,-62 41,0 96,22 96,112 0,12 -2,70 -28,114 -30,48 -64,51 -89,52 -8,1 -32,3 -39,3 -8,1 -15,2 -15,12 0,11 7,11 24,11 h 44 c 82,0 119,68 119,166 0,136 -69,165 -113,165 -43,0 -118,-17 -153,-76 35,5 66,-17 66,-55 0,-36 -27,-56 -56,-56 -24,0 -56,14 -56,58 0,91 93,157 202,157 122,0 213,-91 213,-193 0,-82 -63,-160 -167,-181"
         id="path1640" /></g></g><path
     d="m 71.748581,235.52609 v 0"
     style="fill:none;stroke:#2ca05a;stroke-width:2.10078;stroke-linecap:round;stroke-linejoin:round;stroke-miterlimit:10"
     id="path1315" /><g
     transform="matrix(0.70026334,0,0,0.70026333,29.371184,277.47397)"
     style="fill:#2ca05a"
     id="g1319"><g
       transform="scale(0.009963)"
       id="use1317"
       style="fill:#2ca05a"><path
         style="fill:#2ca05a;fill-rule:evenodd"
         d="m 294,-165 v 87 c 0,36 -2,47 -76,47 H 197 V 0 c 41,-3 93,-3 135,-3 42,0 95,0 136,3 v -31 h -21 c -74,0 -76,-11 -76,-47 v -87 h 100 v -31 H 371 v -455 c 0,-20 0,-26 -16,-26 -9,0 -12,0 -20,12 L 28,-196 v 31 m 272,-31 H 56 l 244,-373"
         id="path1636" /></g></g><path
     d="m 36.018554,275.226 v 0"
     style="fill:none;stroke:#2ca05a;stroke-width:2.10078;stroke-linecap:round;stroke-linejoin:round;stroke-miterlimit:10"
     id="path1321" /><g
     transform="matrix(0.70026334,0,0,0.70026333,44.199425,282.88108)"
     style="fill:#2ca05a"
     id="g1325"><g
       transform="scale(0.009963)"
       id="use1323"
       style="fill:#2ca05a"><path
         style="fill:#2ca05a;fill-rule:evenodd"
         d="m 449,-201 c 0,-119 -82,-219 -190,-219 -48,0 -91,16 -127,51 v -195 c 20,6 53,13 85,13 123,0 193,-91 193,-104 0,-6 -3,-11 -10,-11 -1,0 -3,0 -8,3 -20,9 -69,29 -136,29 -40,0 -86,-7 -133,-28 -8,-3 -10,-3 -12,-3 -10,0 -10,8 -10,24 v 296 c 0,18 0,26 14,26 7,0 9,-3 13,-9 11,-16 48,-70 129,-70 52,0 77,46 85,64 16,37 18,76 18,126 0,35 0,95 -24,137 -24,39 -61,65 -107,65 -73,0 -130,-53 -147,-112 3,1 6,2 17,2 33,0 50,-25 50,-49 0,-24 -17,-49 -50,-49 -14,0 -49,7 -49,53 0,86 69,183 181,183 116,0 218,-96 218,-223"
         id="path1644" /></g></g><path
     d="m 45.943547,275.226 v 0"
     style="fill:none;stroke:#2ca05a;stroke-width:2.10078;stroke-linecap:round;stroke-linejoin:round;stroke-miterlimit:10"
     id="path1327" /><g
     transform="matrix(0.70026334,0,0,0.70026333,70.004449,282.88108)"
     style="fill:#2ca05a"
     id="g1331"><g
       transform="scale(0.009963)"
       id="use1329"
       style="fill:#2ca05a"><path
         style="fill:#2ca05a;fill-rule:evenodd"
         d="m 132,-328 v -24 c 0,-253 124,-289 175,-289 24,0 66,6 88,40 -15,0 -55,0 -55,45 0,31 24,46 46,46 16,0 46,-9 46,-48 0,-60 -44,-108 -127,-108 -128,0 -263,129 -263,350 0,267 116,338 209,338 111,0 206,-94 206,-226 0,-127 -89,-223 -200,-223 -68,0 -105,51 -125,99 M 251,-6 c -63,0 -93,-60 -99,-75 -18,-47 -18,-127 -18,-145 0,-78 32,-178 122,-178 16,0 62,0 93,62 18,37 18,88 18,137 0,48 0,98 -17,134 -30,60 -76,65 -99,65"
         id="path1652" /></g></g><path
     d="m 71.748581,275.226 v 0"
     style="fill:none;stroke:#2ca05a;stroke-width:2.10078;stroke-linecap:round;stroke-linejoin:round;stroke-miterlimit:10"
     id="path1333" /></svg>
