<?xml version="1.0" encoding="UTF-8"?>
<glyph name="braceright" format="1">
  <advance width="282"/>
  <unicode hex="007D"/>
  <outline>
    <contour>
      <point x="178.423" y="753.635" type="curve" smooth="yes"/>
      <point x="177.39" y="736.828"/>
      <point x="176.356" y="720.021"/>
      <point x="175.323" y="703.215" type="curve"/>
      <point x="189.436" y="698.298"/>
      <point x="203.547" y="693.38"/>
      <point x="217.658" y="688.462" type="curve"/>
      <point x="230.665" y="649.333" type="line"/>
      <point x="229.216" y="609.553" type="line"/>
      <point x="217.834" y="585.387"/>
      <point x="206.451" y="561.221"/>
      <point x="195.069" y="537.055" type="curve"/>
      <point x="200.09" y="523.649"/>
      <point x="205.109" y="510.244"/>
      <point x="210.13" y="496.838" type="curve" smooth="yes"/>
      <point x="213.157" y="488.756"/>
      <point x="216.184" y="480.674"/>
      <point x="219.21" y="472.592" type="curve"/>
      <point x="230.348" y="496.238"/>
      <point x="241.485" y="519.884"/>
      <point x="252.623" y="543.53" type="curve" smooth="yes"/>
      <point x="255.408" y="549.446"/>
      <point x="258.444" y="558.21"/>
      <point x="259.135" y="577.236" type="curve" smooth="yes"/>
      <point x="262.218" y="661.84" type="line" smooth="yes"/>
      <point x="262.801" y="677.85"/>
      <point x="261.147" y="690.878"/>
      <point x="257.697" y="701.269" type="curve" smooth="yes"/>
      <point x="235.562" y="767.859" type="line" smooth="yes"/>
      <point x="232.78" y="776.219"/>
      <point x="230.21" y="779.711"/>
      <point x="226.511" y="780.999" type="curve" smooth="yes"/>
      <point x="211.367" y="786.276"/>
      <point x="196.223" y="791.554"/>
      <point x="181.079" y="796.831" type="curve"/>
      <point x="180.193" y="782.433"/>
      <point x="179.308" y="768.033"/>
    </contour>
    <contour>
      <point x="254.838" y="345.833" type="curve" smooth="yes"/>
      <point x="257.518" y="362.792"/>
      <point x="260.196" y="379.751"/>
      <point x="262.876" y="396.709" type="curve"/>
      <point x="252.585" y="405.924"/>
      <point x="242.295" y="415.138"/>
      <point x="232.004" y="424.352" type="curve"/>
      <point x="224.595" y="447.06" type="line"/>
      <point x="223.654" y="467.374" type="line"/>
      <point x="228.57" y="492.191"/>
      <point x="233.486" y="517.008"/>
      <point x="238.402" y="541.825" type="curve"/>
      <point x="232.521" y="548.431"/>
      <point x="226.638" y="555.037"/>
      <point x="220.756" y="561.643" type="curve" smooth="yes"/>
      <point x="216.754" y="566.137"/>
      <point x="212.752" y="570.631"/>
      <point x="208.75" y="575.125" type="curve"/>
      <point x="203.961" y="550.95"/>
      <point x="199.171" y="526.775"/>
      <point x="194.382" y="502.6" type="curve" smooth="yes"/>
      <point x="192.644" y="493.828"/>
      <point x="191.607" y="485.196"/>
      <point x="192.275" y="470.854" type="curve" smooth="yes"/>
      <point x="194.74" y="417.651" type="line" smooth="yes"/>
      <point x="195.285" y="405.82"/>
      <point x="196.511" y="398.646"/>
      <point x="199.103" y="390.705" type="curve" smooth="yes"/>
      <point x="212.897" y="348.429" type="line" smooth="yes"/>
      <point x="215.018" y="341.916"/>
      <point x="216.605" y="339.117"/>
      <point x="219.435" y="336.58" type="curve" smooth="yes"/>
      <point x="229.347" y="327.704"/>
      <point x="239.258" y="318.829"/>
      <point x="249.17" y="309.953" type="curve"/>
      <point x="251.06" y="321.913"/>
      <point x="252.948" y="333.873"/>
    </contour>
    <contour>
      <point x="255.644" y="374.252" type="curve" smooth="yes"/>
      <point x="254.396" y="387.879"/>
      <point x="253.148" y="401.507"/>
      <point x="251.901" y="415.134" type="curve"/>
      <point x="241.651" y="409.814"/>
      <point x="231.401" y="404.495"/>
      <point x="221.152" y="399.177" type="curve" smooth="yes"/>
      <point x="218.202" y="397.646"/>
      <point x="216.107" y="394.84"/>
      <point x="213.704" y="388.525" type="curve" smooth="yes"/>
      <point x="199.196" y="350.425" type="line" smooth="yes"/>
      <point x="196.418" y="343.131"/>
      <point x="194.637" y="334.525"/>
      <point x="193.996" y="321.492" type="curve" smooth="yes"/>
      <point x="191.479" y="270.421" type="line" smooth="yes"/>
      <point x="190.73" y="255.267"/>
      <point x="192.091" y="244.409"/>
      <point x="194.158" y="235.463" type="curve" smooth="yes"/>
      <point x="199.349" y="213.001"/>
      <point x="204.539" y="190.539"/>
      <point x="209.73" y="168.077" type="curve"/>
      <point x="213.579" y="173.119"/>
      <point x="217.429" y="178.161"/>
      <point x="221.278" y="183.203" type="curve" smooth="yes"/>
      <point x="227.149" y="190.895"/>
      <point x="233.021" y="198.585"/>
      <point x="238.892" y="206.275" type="curve"/>
      <point x="233.586" y="229.239"/>
      <point x="228.278" y="252.204"/>
      <point x="222.972" y="275.168" type="curve"/>
      <point x="223.676" y="289.457" type="line"/>
      <point x="230.632" y="307.723" type="line"/>
      <point x="240.529" y="312.859"/>
      <point x="250.427" y="317.996"/>
      <point x="260.325" y="323.133" type="curve"/>
      <point x="258.765" y="340.173"/>
      <point x="257.204" y="357.212"/>
    </contour>
    <contour>
      <point x="178.653" y="-12.502" type="curve" smooth="yes"/>
      <point x="179.866" y="-26.21"/>
      <point x="181.078" y="-39.917"/>
      <point x="182.291" y="-53.625" type="curve"/>
      <point x="196.637" y="-46.4277"/>
      <point x="210.981" y="-39.2305"/>
      <point x="225.327" y="-32.0342" type="curve" smooth="yes"/>
      <point x="228.363" y="-30.5088"/>
      <point x="231.204" y="-26.8105"/>
      <point x="233.847" y="-18.502" type="curve" smooth="yes"/>
      <point x="254.434" y="46.1514" type="line" smooth="yes"/>
      <point x="257.214" y="54.8857"/>
      <point x="259.193" y="68.0439"/>
      <point x="258.765" y="83.585" type="curve" smooth="yes"/>
      <point x="256.525" y="164.549" type="line" smooth="yes"/>
      <point x="256.081" y="180.566"/>
      <point x="253.434" y="191.309"/>
      <point x="250.701" y="197.883" type="curve" smooth="yes"/>
      <point x="240.54" y="222.33"/>
      <point x="230.378" y="246.776"/>
      <point x="220.217" y="271.224" type="curve"/>
      <point x="217.034" y="263.725"/>
      <point x="213.852" y="256.226"/>
      <point x="210.67" y="248.727" type="curve" smooth="yes"/>
      <point x="205.388" y="236.28"/>
      <point x="200.106" y="223.834"/>
      <point x="194.824" y="211.389" type="curve"/>
      <point x="205.32" y="186.137"/>
      <point x="215.815" y="160.885"/>
      <point x="226.312" y="135.634" type="curve"/>
      <point x="227.371" y="97.3105" type="line"/>
      <point x="215.231" y="59.1855" type="line"/>
      <point x="201.532" y="52.3125"/>
      <point x="187.834" y="45.4395"/>
      <point x="174.135" y="38.5664" type="curve"/>
      <point x="175.641" y="21.5439"/>
      <point x="177.147" y="4.52051"/>
    </contour>
  </outline>
</glyph>
