prologues:=3;
outputformat:="mps";
outputtemplate:=("%j" & "." & outputformat);
verbatimtex
%&latex
\documentclass{minimal}
\begin{document}
etex
beginfig(0);
pickup pencircle scaled 8;
z1=(1.8cm,3cm);
z2=(1.8cm,0cm);
z3=(0cm,1cm);
z5=(0.9cm,2cm);
z7=(0.9cm,0cm);
z9=(1.8cm,1cm);
draw z1--z2;
draw z3..z7..z9..z5..cycle;
endfig;
end