prologues:=3;
outputformat:="mps";
outputtemplate:=("%j" & "." & outputformat);
verbatimtex
%&latex
\documentclass{minimal}
\begin{document}
etex
beginfig(0);
z1=(1.8cm,2cm);
z2=(1cm,1.3cm);
z3=(0cm,2cm);
z5=(1.8cm,0cm);
z6=(0cm,0cm);
z8=(0.8cm,0.7cm);
pickup pencircle scaled 8;
draw z1--z2;
draw z3..z5;
draw z6--z8;
endfig;
end