prologues:=3;
outputformat:="mps";
outputtemplate:=("%j" & "." & outputformat);
verbatimtex
%&latex
\documentclass{minimal}
\begin{document}
etex
beginfig(0);
pickup pencircle scaled 8;
z1=(0.9cm,2.6cm);
z2=(0.9cm,0cm);
z3=(0cm,3cm);
z5=(1.8cm,3cm);
draw z1--z2;
draw z3--z5;
endfig;
end