prologues:=3;
outputformat:="mps";
outputtemplate:=("%j" & "." & outputformat);
verbatimtex
%&latex
\documentclass{minimal}
\begin{document}
etex
beginfig(0);
z1=(1.8cm,0cm);
z2=(2.1cm,3cm);
z3=(-0.3cm,3cm);
z6=(0cm,0cm);
z4=(0.4cm, 0cm);
z5=(0.9cm, 1cm);
z7=(1.4cm, 0cm);
pickup pencircle scaled 8;
draw z1--z2;
draw z3--z6;
draw z4--z5--z7;
endfig;
end