<?xml version="1.0" encoding="UTF-8"?>
<glyph name="A_L" format="2">
  <advance width="1017"/>
  <unicode hex="F1020"/>
  <outline>
    <contour>
      <point x="235" y="292" type="line" smooth="yes"/>
      <point x="235" y="293"/>
      <point x="236" y="294" type="qcurve" smooth="yes"/>
      <point x="271" y="329" type="line" smooth="yes"/>
      <point x="271" y="330"/>
      <point x="272" y="330" type="qcurve" smooth="yes"/>
      <point x="413" y="330" type="line"/>
      <point x="413" y="810" type="line"/>
      <point x="414" y="811" type="line"/>
      <point x="450" y="847" type="line"/>
      <point x="451" y="847" type="line" smooth="yes"/>
      <point x="452" y="847"/>
      <point x="453" y="847" type="qcurve" smooth="yes"/>
      <point x="488" y="811" type="line" smooth="yes"/>
      <point x="489" y="811"/>
      <point x="489" y="810" type="qcurve" smooth="yes"/>
      <point x="489" y="40" type="line" smooth="yes"/>
      <point x="489" y="39"/>
      <point x="488" y="38" type="qcurve" smooth="yes"/>
      <point x="453" y="3" type="line" smooth="yes"/>
      <point x="452" y="3"/>
      <point x="452" y="2" type="qcurve"/>
      <point x="451" y="2"/>
      <point x="450" y="3" type="qcurve" smooth="yes"/>
      <point x="414" y="38" type="line" smooth="yes"/>
      <point x="414" y="39"/>
      <point x="413" y="40" type="qcurve" smooth="yes"/>
      <point x="413" y="254" type="line"/>
      <point x="273" y="254" type="line" smooth="yes"/>
      <point x="272" y="254"/>
      <point x="271" y="255" type="qcurve" smooth="yes"/>
      <point x="236" y="290" type="line"/>
      <point x="235" y="291" type="line"/>
    </contour>
    <contour>
      <point x="312" y="806" type="line"/>
      <point x="348" y="842" type="line" smooth="yes"/>
      <point x="349" y="843"/>
      <point x="350" y="843" type="qcurve" smooth="yes"/>
      <point x="351" y="843" type="line"/>
      <point x="351" y="842" type="line"/>
      <point x="386" y="807" type="line" smooth="yes"/>
      <point x="388" y="806"/>
      <point x="387" y="804" type="qcurve" smooth="yes"/>
      <point x="156" y="35" type="line"/>
      <point x="156" y="34" type="line"/>
      <point x="121" y="-1" type="line" smooth="yes"/>
      <point x="119" y="-3"/>
      <point x="118" y="-2" type="qcurve" smooth="yes"/>
      <point x="117" y="-2" type="line"/>
      <point x="82" y="34" type="line" smooth="yes"/>
      <point x="81" y="35"/>
      <point x="81" y="36" type="qcurve" smooth="yes"/>
    </contour>
    <contour>
      <point x="516" y="40" type="line" smooth="yes"/>
      <point x="516" y="41"/>
      <point x="517" y="42" type="qcurve" smooth="yes"/>
      <point x="552" y="77" type="line" smooth="yes"/>
      <point x="553" y="77"/>
      <point x="554" y="78" type="qcurve" smooth="yes"/>
      <point x="913" y="78" type="line" smooth="yes"/>
      <point x="914" y="78"/>
      <point x="915" y="77" type="qcurve" smooth="yes"/>
      <point x="950" y="42" type="line" smooth="yes"/>
      <point x="950" y="41"/>
      <point x="951" y="40" type="qcurve" smooth="yes"/>
      <point x="951" y="39"/>
      <point x="950" y="38" type="qcurve" smooth="yes"/>
      <point x="915" y="3" type="line" smooth="yes"/>
      <point x="914" y="3"/>
      <point x="913" y="2" type="qcurve" smooth="yes"/>
      <point x="554" y="2" type="line" smooth="yes"/>
      <point x="553" y="2"/>
      <point x="552" y="3" type="qcurve" smooth="yes"/>
      <point x="517" y="38" type="line" smooth="yes"/>
      <point x="516" y="39"/>
      <point x="516" y="39.5" type="qcurve" smooth="yes"/>
    </contour>
  </outline>
</glyph>
