<?xml version="1.0" encoding="UTF-8"?>
<glyph name="degree" format="2">
  <advance width="428"/>
  <unicode hex="00B0"/>
  <outline>
    <contour>
      <point x="142" y="590"/>
      <point x="156" y="566" type="qcurve"/>
      <point x="179" y="552"/>
      <point x="207" y="552" type="qcurve" smooth="yes"/>
      <point x="234" y="552"/>
      <point x="258" y="566" type="qcurve"/>
      <point x="272" y="589"/>
      <point x="272" y="645"/>
      <point x="258" y="668" type="qcurve"/>
      <point x="234" y="682"/>
      <point x="207" y="682" type="qcurve" smooth="yes"/>
      <point x="179" y="682"/>
      <point x="156" y="668" type="qcurve"/>
      <point x="142" y="644"/>
    </contour>
    <contour>
      <point x="66" y="661"/>
      <point x="97" y="692" type="qcurve" smooth="yes"/>
      <point x="132" y="727" type="line" smooth="yes"/>
      <point x="163" y="758"/>
      <point x="251" y="758"/>
      <point x="282" y="727" type="qcurve" smooth="yes"/>
      <point x="317" y="692" type="line" smooth="yes"/>
      <point x="348" y="661"/>
      <point x="348" y="573"/>
      <point x="317" y="542" type="qcurve" smooth="yes"/>
      <point x="282" y="507" type="line"/>
      <point x="281" y="506" type="line" smooth="yes"/>
      <point x="250" y="476"/>
      <point x="207" y="476" type="qcurve" smooth="yes"/>
      <point x="163" y="476"/>
      <point x="132" y="507" type="qcurve" smooth="yes"/>
      <point x="97" y="542" type="line" smooth="yes"/>
      <point x="66" y="573"/>
    </contour>
  </outline>
</glyph>
