prologues:=3;
outputformat:="mps";
outputtemplate:=("%j" & "." & outputformat);
verbatimtex
%&latex
\documentclass{minimal}
\begin{document}
etex
beginfig(0);
pickup pencircle scaled 8;
z1=(1.8cm,1.55cm);
z2=(1.6cm,1.7cm);
z3=(0cm,1.3cm);
z4=(1.8cm,0.5cm);
z5=(0.4cm,0cm);
z6=(0cm,0.25cm);
z7=(0cm,1.55cm);
z8=(1.8cm,0.25cm);
draw z1..z2..{dir 230}z7;
draw z3{dir 300}..{dir 300}z4;
draw z8{dir 230}..z5..z6;
endfig;
end