prologues:=3;
outputformat:="mps";
outputtemplate:=("%j" & "." & outputformat);
verbatimtex
%&latex
\documentclass{minimal}
\begin{document}
etex
beginfig(0);
pickup pencircle scaled 8;
z0=(0.5cm,1.1cm);
z1=(0.5cm,2.3cm);
z3=(1.8cm,0cm);
z4=(0cm,2cm);
z5=(1.8cm,2cm);
draw z3{dir 170}..{dir 90}z0--z1;
draw z4--z5;
endfig;
end