prologues:=3;
outputformat:="mps";
outputtemplate:=("%j" & "." & outputformat);
verbatimtex
%&latex
\documentclass{minimal}
\begin{document}
etex
beginfig(0);
pickup pencircle scaled 8;
z5=(1.8cm,3cm);
z6=(0cm, 2.4cm);
draw z6..z5;
endfig;
end