prologues:=3;
outputformat:="mps";
outputtemplate:=("%j" & "." & outputformat);
verbatimtex
%&latex
\documentclass{minimal}
\begin{document}
etex
beginfig(0);
pickup pencircle scaled 8;
z1=(0cm,3cm);
z2=(0cm,0cm);
z3=(0.4cm,3cm);
z5=(1cm,3cm);
z4=(1.8cm,2.25cm);
z6=(1cm, 1.5cm);
z7=(0.4cm,1.5cm);
draw z1--z2;
draw z3--z5..z4..z6--z7;
endfig;
end