prologues:=3;
outputformat:="mps";
outputtemplate:=("%j" & "." & outputformat);
verbatimtex
%&latex
\documentclass{minimal}
\begin{document}
etex
beginfig(0);
pickup pencircle scaled 8;
z1=(0cm,3cm);
z2=(0cm,0.9cm);
z3=(0.9cm,0cm);
z4=(1.8cm,0.9cm);
z5=(0cm, 2.1cm);
z6=(0.9cm,3cm);
z7=(1.8cm,3cm);
z8=(1.8cm, 1.3cm);
draw z1--z2..z3..z4;
draw z7--z8;
endfig;
end