<?xml version="1.0" encoding="UTF-8"?>
<glyph name="less" format="1">
  <advance width="356"/>
  <unicode hex="003C"/>
  <outline>
    <contour>
      <point x="321.452" y="394.715" type="line"/>
      <point x="323.659" y="385.431" type="line"/>
      <point x="141.427" y="262.715" type="line"/>
      <point x="323.659" y="140" type="line"/>
      <point x="321.452" y="130.715" type="line"/>
      <point x="319.247" y="121.431" type="line"/>
      <point x="123.227" y="253.431" type="line" smooth="yes"/>
      <point x="122.114" y="254.18"/>
      <point x="120.767" y="256.039"/>
      <point x="120.107" y="258.284" type="curve" smooth="yes"/>
      <point x="118.595" y="263.438"/>
      <point x="120.057" y="269.865"/>
      <point x="123.227" y="272" type="curve" smooth="yes"/>
      <point x="319.247" y="404" type="line"/>
    </contour>
  </outline>
</glyph>
