<?xml version="1.0"?>
<!-- Created by MetaPost 2.000 on 2019.12.08:0946 -->
<svg version="1.1" xmlns="http://www.w3.org/2000/svg" xmlns:xlink="http://www.w3.org/1999/xlink" width="326.345133" height="375.663655" viewBox="0 0 326.345133 375.663655">
<!-- Original BoundingBox: -21.866867 -23.001936 304.478266 352.661719 -->
  <path d="M12.496065 173.417365C4.579764 260.968226,51.594994 346.455713,134.385800 360.503935C232.049314 377.075808,314.010632 288.185615,312.968435 181.921300C312.078289 91.160335,249.291952 11.161374,162.732250 11.842600C79.982523 12.493841,20.277874 87.353932,12.496065 173.417365Z" style="stroke:rgb(0.000000%,0.000000%,0.000000%); stroke-width: 25.000000;stroke-linecap: round;stroke-linejoin: round;stroke-miterlimit: 10.000000;fill: none;"></path>
</svg>
