<?xml version="1.0"?>
<!-- Created by MetaPost 2.000 on 2019.12.07:1037 -->
<svg version="1.1" xmlns="http://www.w3.org/2000/svg" xmlns:xlink="http://www.w3.org/1999/xlink" width="421.850300" height="365.157400" viewBox="0 0 421.850300 365.157400">
<!-- Original BoundingBox: -12.500000 -12.500000 409.350300 352.657400 -->
  <path d="M12.000000 11.842600L125.385800 11.842600" style="stroke:rgb(0.000000%,0.000000%,0.000000%); stroke-width: 25.000000;stroke-linecap: round;stroke-linejoin: round;stroke-miterlimit: 10.000000;fill: none;"></path>
  <path d="M68.692900 11.842600L210.425150 352.000000L352.157400 11.842600" style="stroke:rgb(0.000000%,0.000000%,0.000000%); stroke-width: 25.000000;stroke-linecap: round;stroke-linejoin: round;stroke-miterlimit: 10.000000;fill: none;"></path>
  <path d="M295.464500 11.842600L408.850300 11.842600" style="stroke:rgb(0.000000%,0.000000%,0.000000%); stroke-width: 25.000000;stroke-linecap: round;stroke-linejoin: round;stroke-miterlimit: 10.000000;fill: none;"></path>
</svg>
