<?xml version="1.0"?>
<!-- Created by MetaPost 2.000 on 2019.12.28:0958 -->
<svg version="1.1" xmlns="http://www.w3.org/2000/svg" xmlns:xlink="http://www.w3.org/1999/xlink" width="184.366775" height="195.143049" viewBox="0 0 184.366775 195.143049">
<!-- Original BoundingBox: 72.539350 -182.643049 184.366775 12.500000 -->
  <path d="M113.385800 12.000000L85.039350 82.866125C115.211004 58.310060,160.675016 73.464731,170.078700 111.212575C182.403395 160.685809,128.520272 200.200099,85.039350 173.574765" style="stroke:rgb(0.000000%,0.000000%,0.000000%); stroke-width: 25.000000;stroke-linecap: round;stroke-linejoin: round;stroke-miterlimit: 10.000000;fill: none;"></path>
</svg>
