<?xml version="1.0"?>
<!-- Created by MetaPost 2.000 on 2019.12.28:1033 -->
<svg version="1.1" xmlns="http://www.w3.org/2000/svg" xmlns:xlink="http://www.w3.org/1999/xlink" width="365.157400" height="308.464500" viewBox="0 0 365.157400 308.464500">
<!-- Original BoundingBox: -12.500000 -12.500000 352.657400 295.964500 -->
  <path d="M12.000000 11.535500L182.078700 153.267750L12.000000 295.000000" style="stroke:rgb(0.000000%,0.000000%,0.000000%); stroke-width: 25.000000;stroke-linecap: round;stroke-linejoin: round;stroke-miterlimit: 10.000000;fill: none;"></path>
  <path d="M182.078700 11.535500L352.157400 153.267750L182.078700 295.000000" style="stroke:rgb(0.000000%,0.000000%,0.000000%); stroke-width: 25.000000;stroke-linecap: round;stroke-linejoin: round;stroke-miterlimit: 10.000000;fill: none;"></path>
</svg>
