<?xml version="1.0"?>
<!-- Created by MetaPost 2.000 on 2019.12.27:1035 -->
<svg version="1.1" xmlns="http://www.w3.org/2000/svg" xmlns:xlink="http://www.w3.org/1999/xlink" width="404.787871" height="435.395435" viewBox="0 0 404.787871 435.395435">
<!-- Original BoundingBox: -23.784021 -20.052207 381.003850 415.343228 -->
  <path d="M391.503850 378.149615C324.178100 494.761234,150.265684 371.012943,108.039350 131.535500C98.068776 74.989566,126.362961 17.652404,178.905475 12.480410C216.594507 8.770511,249.771600 37.414481,249.771600 74.842600C249.771600 195.134149,67.845372 169.649081,23.000000 259.094525C-14.705852 334.299982,46.897497 422.608437,136.385800 420.669290C259.605598 417.999206,306.464500 271.950746,306.464500 131.535500" style="stroke:rgb(0.000000%,0.000000%,0.000000%); stroke-width: 25.000000;stroke-linecap: round;stroke-linejoin: round;stroke-miterlimit: 10.000000;fill: none;"></path>
  <path d="M249.771600 131.535500L363.157400 131.535500" style="stroke:rgb(0.000000%,0.000000%,0.000000%); stroke-width: 25.000000;stroke-linecap: round;stroke-linejoin: round;stroke-miterlimit: 10.000000;fill: none;"></path>
</svg>
