<?xml version="1.0"?>
<!-- Created by MetaPost 2.000 on 2019.12.27:1046 -->
<svg version="1.1" xmlns="http://www.w3.org/2000/svg" xmlns:xlink="http://www.w3.org/1999/xlink" width="117.855376" height="535.236100" viewBox="0 0 117.855376 535.236100">
<!-- Original BoundingBox: -48.662476 -69.192900 69.192900 466.043200 -->
  <path d="M104.692900 522.692900C-19.114269 375.145262,-19.114269 160.004438,104.692900 12.456800" style="stroke:rgb(0.000000%,0.000000%,0.000000%); stroke-width: 25.000000;stroke-linecap: round;stroke-linejoin: round;stroke-miterlimit: 10.000000;fill: none;"></path>
</svg>
