<?xml version="1.0"?>
<!-- Created by MetaPost 2.000 on 2019.12.27:1050 -->
<svg version="1.1" xmlns="http://www.w3.org/2000/svg" xmlns:xlink="http://www.w3.org/1999/xlink" width="365.157400" height="365.157400" viewBox="0 0 365.157400 365.157400">
<!-- Original BoundingBox: -40.846450 -12.500000 324.310950 352.657400 -->
  <path d="M181.732250 352.000000L181.732250 11.842600" style="stroke:rgb(0.000000%,0.000000%,0.000000%); stroke-width: 25.000000;stroke-linecap: round;stroke-linejoin: round;stroke-miterlimit: 10.000000;fill: none;"></path>
  <path d="M11.653550 181.921300L351.810950 181.921300" style="stroke:rgb(0.000000%,0.000000%,0.000000%); stroke-width: 25.000000;stroke-linecap: round;stroke-linejoin: round;stroke-miterlimit: 10.000000;fill: none;"></path>
</svg>
