<?xml version="1.0"?>
<!-- Created by MetaPost 2.000 on 2019.12.27:0618 -->
<svg version="1.1" xmlns="http://www.w3.org/2000/svg" xmlns:xlink="http://www.w3.org/1999/xlink" width="237.598375" height="421.850300" viewBox="0 0 237.598375 421.850300">
<!-- Original BoundingBox: -83.366125 -12.500000 154.232250 409.350300 -->
  <path d="M139.692900 409.000000L139.692900 210.574850" style="stroke:rgb(0.000000%,0.000000%,0.000000%); stroke-width: 25.000000;stroke-linecap: round;stroke-linejoin: round;stroke-miterlimit: 10.000000;fill: none;"></path>
  <path d="M224.732250 295.614200L12.133875 295.614200L139.692900 12.149700" style="stroke:rgb(0.000000%,0.000000%,0.000000%); stroke-width: 25.000000;stroke-linecap: round;stroke-linejoin: round;stroke-miterlimit: 10.000000;fill: none;"></path>
  <path d="M83.000000 409.000000L196.385800 409.000000" style="stroke:rgb(0.000000%,0.000000%,0.000000%); stroke-width: 25.000000;stroke-linecap: round;stroke-linejoin: round;stroke-miterlimit: 10.000000;fill: none;"></path>
</svg>
