<?xml version="1.0"?>
<!-- Created by MetaPost 2.000 on 2019.12.27:0627 -->
<svg version="1.1" xmlns="http://www.w3.org/2000/svg" xmlns:xlink="http://www.w3.org/1999/xlink" width="288.738708" height="427.556518" viewBox="0 0 288.738708 427.556518">
<!-- Original BoundingBox: 15.846450 -18.206218 288.738708 409.350300 -->
  <path d="M255.118050 12.149700C194.170846 22.896336,131.813329 22.896336,70.866125 12.149700L42.519675 196.401625" style="stroke:rgb(0.000000%,0.000000%,0.000000%); stroke-width: 25.000000;stroke-linecap: round;stroke-linejoin: round;stroke-miterlimit: 10.000000;fill: none;"></path>
  <path d="M42.519675 196.401625C64.991386 172.679088,95.097969 157.625796,127.559025 153.881950C189.478231 146.740593,249.530289 180.524421,269.291275 238.921300C298.160685 324.235033,233.462079 412.475826,141.732250 414.669290C95.474707 415.775411,52.183612 391.965308,28.346450 352.307100" style="stroke:rgb(0.000000%,0.000000%,0.000000%); stroke-width: 25.000000;stroke-linecap: round;stroke-linejoin: round;stroke-miterlimit: 10.000000;fill: none;"></path>
</svg>
