<?xml version="1.0"?>
<!-- Created by MetaPost 2.000 on 2019.12.27:0634 -->
<svg version="1.1" xmlns="http://www.w3.org/2000/svg" xmlns:xlink="http://www.w3.org/1999/xlink" width="283.675052" height="428.324093" viewBox="0 0 283.675052 428.324093">
<!-- Original BoundingBox: 28.439724 -18.973793 283.675052 409.350300 -->
  <path d="M198.425150 12.149700C113.233419 71.801592,56.740412 164.244694,42.519675 267.267750" style="stroke:rgb(0.000000%,0.000000%,0.000000%); stroke-width: 25.000000;stroke-linecap: round;stroke-linejoin: round;stroke-miterlimit: 10.000000;fill: none;"></path>
  <path d="M42.519675 267.267750C49.617186 219.078475,80.836575 176.710499,127.559025 165.220530C193.811580 148.927724,257.729814 197.770703,269.291275 267.267750C282.962942 349.449448,220.360709 424.081297,141.732250 414.669290C73.880257 406.547251,32.128132 337.822186,42.519675 267.267750Z" style="stroke:rgb(0.000000%,0.000000%,0.000000%); stroke-width: 25.000000;stroke-linecap: round;stroke-linejoin: round;stroke-miterlimit: 10.000000;fill: none;"></path>
</svg>
