<?xml version="1.0"?>
<!-- Created by MetaPost 2.000 on 2019.12.28:0624 -->
<svg version="1.1" xmlns="http://www.w3.org/2000/svg" xmlns:xlink="http://www.w3.org/1999/xlink" width="138.385800" height="549.409325" viewBox="0 0 138.385800 549.409325">
<!-- Original BoundingBox: -69.192900 -83.366125 69.192900 466.043200 -->
  <path d="M12.307100 536.866125L125.692900 536.866125L125.692900 12.456800L12.307100 12.456800" style="stroke:rgb(0.000000%,0.000000%,0.000000%); stroke-width: 25.000000;stroke-linecap: round;stroke-linejoin: round;stroke-miterlimit: 10.000000;fill: none;"></path>
</svg>
