<?xml version="1.0" encoding="UTF-8"?>
<glyph name="D_E_S" format="2">
  <advance width="1621"/>
  <unicode hex="F1620"/>
  <outline>
    <contour>
      <point x="575" y="801" type="qcurve" smooth="yes"/>
      <point x="575" y="810"/>
      <point x="584" y="825"/>
      <point x="600" y="835"/>
      <point x="609" y="835" type="qcurve" smooth="yes"/>
      <point x="1133.16" y="835" type="line"/>
      <point x="1211.42" y="859.609"/>
      <point x="1292.5" y="846.5" type="qcurve" smooth="yes"/>
      <point x="1376" y="833"/>
      <point x="1449" y="787" type="qcurve" smooth="yes"/>
      <point x="1479" y="768"/>
      <point x="1505" y="745" type="qcurve" smooth="yes"/>
      <point x="1516" y="736"/>
      <point x="1518" y="707"/>
      <point x="1508" y="697" type="qcurve" smooth="yes"/>
      <point x="1502" y="690"/>
      <point x="1485" y="684"/>
      <point x="1467" y="688"/>
      <point x="1460" y="694" type="qcurve" smooth="yes"/>
      <point x="1438" y="714"/>
      <point x="1413" y="729" type="qcurve" smooth="yes"/>
      <point x="1320" y="789"/>
      <point x="1109" y="773"/>
      <point x="1045" y="698" type="qcurve" smooth="yes"/>
      <point x="1036" y="687"/>
      <point x="1008" y="684"/>
      <point x="987" y="702"/>
      <point x="984" y="731"/>
      <point x="993" y="741" type="qcurve" smooth="yes"/>
      <point x="1004.56" y="754.873"/>
      <point x="1017.25" y="767" type="qcurve"/>
      <point x="609" y="767" type="line" smooth="yes"/>
      <point x="602" y="767"/>
      <point x="590" y="772"/>
      <point x="581" y="781"/>
      <point x="575" y="794"/>
    </contour>
    <contour>
      <point x="144" y="836" type="qcurve" smooth="yes"/>
      <point x="158" y="836"/>
      <point x="178" y="816"/>
      <point x="178" y="802" type="qcurve" smooth="yes"/>
      <point x="178" y="28" type="line" smooth="yes"/>
      <point x="178" y="14"/>
      <point x="158" y="-6"/>
      <point x="130" y="-6"/>
      <point x="110" y="14"/>
      <point x="110" y="28" type="qcurve" smooth="yes"/>
      <point x="110" y="802" type="line" smooth="yes"/>
      <point x="110" y="811"/>
      <point x="119" y="826"/>
      <point x="135" y="836"/>
    </contour>
    <contour>
      <point x="236" y="836"/>
      <point x="250" y="835" type="qcurve" smooth="yes"/>
      <point x="358" y="828"/>
      <point x="539" y="712"/>
      <point x="590.5" y="618" type="qcurve" smooth="yes"/>
      <point x="634.121" y="538.381"/>
      <point x="640.795" y="448" type="qcurve"/>
      <point x="970" y="448" type="line" smooth="yes"/>
      <point x="984" y="448"/>
      <point x="1004" y="428"/>
      <point x="1004" y="400"/>
      <point x="984" y="380"/>
      <point x="970" y="380" type="qcurve" smooth="yes"/>
      <point x="640.642" y="380" type="line"/>
      <point x="633.638" y="290.738"/>
      <point x="590.5" y="212" type="qcurve" smooth="yes"/>
      <point x="539" y="118"/>
      <point x="358" y="2"/>
      <point x="250" y="-5" type="qcurve" smooth="yes"/>
      <point x="236" y="-6"/>
      <point x="214" y="12"/>
      <point x="212" y="40"/>
      <point x="231" y="61"/>
      <point x="245" y="62" type="qcurve" smooth="yes"/>
      <point x="384" y="72"/>
      <point x="574" y="276"/>
      <point x="574" y="554"/>
      <point x="384" y="758"/>
      <point x="245" y="768" type="qcurve" smooth="yes"/>
      <point x="231" y="769"/>
      <point x="212" y="790"/>
      <point x="214" y="818"/>
    </contour>
    <contour>
      <point x="1042" y="646"/>
      <point x="1049" y="633" type="qcurve" smooth="yes"/>
      <point x="1070" y="596"/>
      <point x="1144" y="529"/>
      <point x="1224" y="480"/>
      <point x="1319" y="421"/>
      <point x="1403" y="365"/>
      <point x="1485" y="284"/>
      <point x="1512" y="237" type="qcurve" smooth="yes"/>
      <point x="1517" y="228"/>
      <point x="1517" y="211"/>
      <point x="1508" y="195"/>
      <point x="1500" y="190" type="qcurve" smooth="yes"/>
      <point x="1488" y="183"/>
      <point x="1460" y="191"/>
      <point x="1453" y="203" type="qcurve" smooth="yes"/>
      <point x="1428" y="247"/>
      <point x="1335" y="324"/>
      <point x="1230" y="386"/>
      <point x="1123" y="451"/>
      <point x="1021" y="544"/>
      <point x="990" y="599" type="qcurve" smooth="yes"/>
      <point x="983" y="612"/>
      <point x="990" y="639"/>
      <point x="1014" y="653"/>
    </contour>
    <contour>
      <point x="1518" y="106"/>
      <point x="1509" y="95" type="qcurve" smooth="yes"/>
      <point x="1461" y="38"/>
      <point x="1323" y="-16"/>
      <point x="1250.5" y="-12" type="qcurve" smooth="yes"/>
      <point x="1205.4" y="-9.51155"/>
      <point x="1161.65" y="2.65252" type="qcurve"/>
      <point x="1151.75" y="-7"/>
      <point x="1138" y="-7" type="qcurve" smooth="yes"/>
      <point x="609" y="-7" type="line" smooth="yes"/>
      <point x="595" y="-7"/>
      <point x="575" y="13"/>
      <point x="575" y="41"/>
      <point x="595" y="61"/>
      <point x="609" y="61" type="qcurve" smooth="yes"/>
      <point x="1035.5" y="61" type="line"/>
      <point x="1015.44" y="74.7764"/>
      <point x="997" y="91" type="qcurve" smooth="yes"/>
      <point x="986" y="100"/>
      <point x="984" y="128"/>
      <point x="1003" y="150"/>
      <point x="1031" y="152"/>
      <point x="1041" y="143" type="qcurve" smooth="yes"/>
      <point x="1084" y="106"/>
      <point x="1136" y="84" type="qcurve" smooth="yes"/>
      <point x="1222" y="45"/>
      <point x="1402" y="74"/>
      <point x="1457" y="139" type="qcurve" smooth="yes"/>
      <point x="1466" y="149"/>
      <point x="1494" y="152"/>
      <point x="1515" y="134"/>
    </contour>
  </outline>
</glyph>
