<?xml version="1.0" encoding="UTF-8"?>
<glyph name="T_E" format="2">
  <advance width="756"/>
  <unicode hex="F4810"/>
  <outline>
    <contour>
      <point x="353" y="448"/>
      <point x="367" y="448" type="qcurve" smooth="yes"/>
      <point x="579" y="448" type="line" smooth="yes"/>
      <point x="593" y="448"/>
      <point x="613" y="428"/>
      <point x="613" y="400"/>
      <point x="593" y="380"/>
      <point x="579" y="380" type="qcurve" smooth="yes"/>
      <point x="367" y="380" type="line" smooth="yes"/>
      <point x="353" y="380"/>
      <point x="333" y="400"/>
      <point x="333" y="428"/>
    </contour>
    <contour>
      <point x="304" y="713"/>
      <point x="304" y="699" type="qcurve" smooth="yes"/>
      <point x="304" y="30" type="line" smooth="yes"/>
      <point x="304" y="16"/>
      <point x="284" y="-4"/>
      <point x="256" y="-4"/>
      <point x="236" y="16"/>
      <point x="236" y="30" type="qcurve" smooth="yes"/>
      <point x="236" y="699" type="line" smooth="yes"/>
      <point x="236" y="713"/>
      <point x="256" y="733"/>
      <point x="284" y="733"/>
    </contour>
    <contour>
      <point x="4" y="802" type="qcurve" smooth="yes"/>
      <point x="4" y="811"/>
      <point x="13" y="827"/>
      <point x="29" y="836"/>
      <point x="38" y="836" type="qcurve" smooth="yes"/>
      <point x="628" y="836" type="line" smooth="yes"/>
      <point x="637" y="836"/>
      <point x="653" y="827"/>
      <point x="662" y="811"/>
      <point x="662" y="802" type="qcurve" smooth="yes"/>
      <point x="662" y="788"/>
      <point x="642" y="768"/>
      <point x="628" y="768" type="qcurve" smooth="yes"/>
      <point x="38" y="768" type="line" smooth="yes"/>
      <point x="24" y="768"/>
      <point x="4" y="788"/>
    </contour>
    <contour>
      <point x="334" y="29" type="qcurve" smooth="yes"/>
      <point x="334" y="38"/>
      <point x="343" y="54"/>
      <point x="359" y="63"/>
      <point x="368" y="63" type="qcurve" smooth="yes"/>
      <point x="628" y="63" type="line" smooth="yes"/>
      <point x="637" y="63"/>
      <point x="653" y="54"/>
      <point x="662" y="38"/>
      <point x="662" y="29" type="qcurve" smooth="yes"/>
      <point x="662" y="15"/>
      <point x="642" y="-5"/>
      <point x="628" y="-5" type="qcurve" smooth="yes"/>
      <point x="368" y="-5" type="line" smooth="yes"/>
      <point x="354" y="-5"/>
      <point x="334" y="15"/>
    </contour>
  </outline>
</glyph>
