<?xml version="1.0" encoding="UTF-8"?>
<glyph name="x_l_l" format="2">
  <advance width="790"/>
  <unicode hex="F5770"/>
  <outline>
    <contour>
      <point x="76.1738" y="568" type="qcurve" smooth="yes"/>
      <point x="83.1738" y="574"/>
      <point x="101.174" y="578"/>
      <point x="110.122" y="574.842" type="qcurve" smooth="yes"/>
      <point x="118.174" y="572"/>
      <point x="124.174" y="566" type="qcurve" smooth="yes"/>
      <point x="335.174" y="331" type="line" smooth="yes"/>
      <point x="345.164" y="319.873"/>
      <point x="344.174" y="307" type="qcurve" smooth="yes"/>
      <point x="343.174" y="293"/>
      <point x="322.174" y="274"/>
      <point x="308.174" y="274.5" type="qcurve" smooth="yes"/>
      <point x="295.09" y="275.003"/>
      <point x="285.174" y="286" type="qcurve" smooth="yes"/>
      <point x="74.1738" y="520" type="line" smooth="yes"/>
      <point x="64.1797" y="531.084"/>
      <point x="65.0732" y="544.396" type="qcurve" smooth="yes"/>
      <point x="66.1738" y="559"/>
    </contour>
    <contour>
      <point x="66.1738" y="44"/>
      <point x="77.1738" y="53" type="qcurve" smooth="yes"/>
      <point x="283.174" y="233" type="line" smooth="yes"/>
      <point x="293.174" y="243"/>
      <point x="322.174" y="241"/>
      <point x="331.174" y="230" type="qcurve" smooth="yes"/>
      <point x="337.174" y="223"/>
      <point x="340.174" y="205"/>
      <point x="335.174" y="188"/>
      <point x="328.174" y="182" type="qcurve" smooth="yes"/>
      <point x="121.174" y="2" type="line" smooth="yes"/>
      <point x="111.174" y="-7"/>
      <point x="83.1738" y="-5"/>
      <point x="64.1738" y="16"/>
    </contour>
    <contour>
      <point x="716.174" y="129"/>
      <point x="704.174" y="122" type="qcurve" smooth="yes"/>
      <point x="631.174" y="80"/>
      <point x="588.174" y="6" type="qcurve" smooth="yes"/>
      <point x="581.174" y="-6"/>
      <point x="552.174" y="-13"/>
      <point x="540.174" y="-5" type="qcurve" smooth="yes"/>
      <point x="525.174" y="5"/>
      <point x="525.174" y="23" type="qcurve" smooth="yes"/>
      <point x="525.174" y="114.751" type="line"/>
      <point x="460.578" y="73.8115"/>
      <point x="421.174" y="6" type="qcurve" smooth="yes"/>
      <point x="414.174" y="-6"/>
      <point x="385.174" y="-13"/>
      <point x="373.174" y="-5" type="qcurve" smooth="yes"/>
      <point x="358.174" y="5"/>
      <point x="358.174" y="23" type="qcurve" smooth="yes"/>
      <point x="358.174" y="698" type="line"/>
      <point x="322.174" y="663"/>
      <point x="281.174" y="639" type="qcurve" smooth="yes"/>
      <point x="269.174" y="632"/>
      <point x="241.174" y="640"/>
      <point x="227.174" y="664"/>
      <point x="235.174" y="691"/>
      <point x="247.174" y="698" type="qcurve" smooth="yes"/>
      <point x="320.174" y="741"/>
      <point x="362.174" y="814" type="qcurve" smooth="yes"/>
      <point x="371.174" y="829"/>
      <point x="389.174" y="831" type="qcurve" smooth="yes"/>
      <point x="404.174" y="832"/>
      <point x="426.174" y="812"/>
      <point x="426.174" y="797" type="qcurve" smooth="yes"/>
      <point x="426.174" y="705.406" type="line"/>
      <point x="490.688" y="747.109"/>
      <point x="529.174" y="814" type="qcurve" smooth="yes"/>
      <point x="538.174" y="829"/>
      <point x="556.174" y="831" type="qcurve" smooth="yes"/>
      <point x="571.174" y="832"/>
      <point x="593.174" y="812"/>
      <point x="593.174" y="797" type="qcurve" smooth="yes"/>
      <point x="593.174" y="122" type="line"/>
      <point x="628.174" y="157"/>
      <point x="670.174" y="181" type="qcurve" smooth="yes"/>
      <point x="682.174" y="188"/>
      <point x="710.174" y="181"/>
      <point x="723.174" y="157"/>
    </contour>
    <contour>
      <point x="426.174" y="635.074" type="qcurve"/>
      <point x="426.174" y="122" type="line"/>
      <point x="461.174" y="157"/>
      <point x="503.174" y="181" type="qcurve" smooth="yes"/>
      <point x="513.442" y="186.99"/>
      <point x="525.174" y="185.292" type="qcurve"/>
      <point x="525.174" y="698" type="line"/>
      <point x="489.174" y="663"/>
      <point x="448.174" y="639" type="qcurve" smooth="yes"/>
      <point x="437.906" y="633.01"/>
    </contour>
  </outline>
</glyph>
