<?xml version="1.0"?>
<!-- Created by MetaPost 2.000 on 2020.07.04:0859 -->
<svg version="1.1" xmlns="http://www.w3.org/2000/svg" xmlns:xlink="http://www.w3.org/1999/xlink" width="59.023610" height="64.692900" viewBox="0 0 59.023610 64.692900">
<!-- Original BoundingBox: -4.000000 -4.000000 55.023610 60.692900 -->
  <path d="M35.181095 60.000000L55.023610 3.307100" style="stroke:rgb(0.000000%,0.000000%,0.000000%); stroke-width: 8.000000;stroke-linecap: round;stroke-linejoin: round;stroke-miterlimit: 10.000000;fill: none;"></path>
  <path d="M4.000000 3.307100L23.842515 60.000000" style="stroke:rgb(0.000000%,0.000000%,0.000000%); stroke-width: 8.000000;stroke-linecap: round;stroke-linejoin: round;stroke-miterlimit: 10.000000;fill: none;"></path>
</svg>
