<?xml version="1.0"?>
<!-- Created by MetaPost 2.000 on 2020.07.04:1158 -->
<svg version="1.1" xmlns="http://www.w3.org/2000/svg" xmlns:xlink="http://www.w3.org/1999/xlink" width="59.023610" height="87.370060" viewBox="0 0 59.023610 87.370060">
<!-- Original BoundingBox: -4.000000 -26.677160 55.023610 60.692900 -->
  <path d="M55.023610 3.307100L21.007870 82.677160" style="stroke:rgb(0.000000%,0.000000%,0.000000%); stroke-width: 8.000000;stroke-linecap: round;stroke-linejoin: round;stroke-miterlimit: 10.000000;fill: none;"></path>
  <path d="M4.000000 3.307100L23.842515 55.748033" style="stroke:rgb(0.000000%,0.000000%,0.000000%); stroke-width: 8.000000;stroke-linecap: round;stroke-linejoin: round;stroke-miterlimit: 10.000000;fill: none;"></path>
</svg>
