<?xml version="1.0"?>
<!-- Created by MetaPost 2.000 on 2020.07.11:0638 -->
<svg version="1.1" xmlns="http://www.w3.org/2000/svg" xmlns:xlink="http://www.w3.org/1999/xlink" width="13.669290" height="64.692900" viewBox="0 0 13.669290 64.692900">
<!-- Original BoundingBox: -4.000000 -15.338580 9.669290 49.354320 -->
  <path d="M4.000000 60.338580C7.679996 55.431918,9.669290 49.464037,9.669290 43.330710L4.000000 43.330710" style="stroke:rgb(0.000000%,0.000000%,0.000000%); stroke-width: 8.000000;stroke-linecap: round;stroke-linejoin: round;stroke-miterlimit: 10.000000;fill: none;"></path>
  <path d="M9.669290 6.480325L9.669290 3.645680" style="stroke:rgb(0.000000%,0.000000%,0.000000%); stroke-width: 8.000000;stroke-linecap: round;stroke-linejoin: round;stroke-miterlimit: 10.000000;fill: none;"></path>
</svg>
