<?xml version="1.0"?>
<!-- Created by MetaPost 2.000 on 2020.07.11:0902 -->
<svg version="1.1" xmlns="http://www.w3.org/2000/svg" xmlns:xlink="http://www.w3.org/1999/xlink" width="59.023610" height="98.708640" viewBox="0 0 59.023610 98.708640">
<!-- Original BoundingBox: -4.000000 -9.669290 55.023610 89.039350 -->
  <path d="M32.346450 32.307100C24.518794 32.307100,18.173225 38.652669,18.173225 46.480325C18.173225 54.307981,24.518794 60.653550,32.346450 60.653550" style="stroke:rgb(0.000000%,0.000000%,0.000000%); stroke-width: 8.000000;stroke-linecap: round;stroke-linejoin: round;stroke-miterlimit: 10.000000;fill: none;"></path>
  <path d="M43.685030 32.307100L43.685030 60.653550C43.685030 63.784612,46.223258 66.322840,49.354320 66.322840C52.485382 66.322840,55.023610 63.784612,55.023610 60.653550L55.023610 29.472455C55.023610 15.382674,43.601586 3.960650,29.511805 3.960650C15.422024 3.960650,4.000000 15.382674,4.000000 29.472455" style="stroke:rgb(0.000000%,0.000000%,0.000000%); stroke-width: 8.000000;stroke-linecap: round;stroke-linejoin: round;stroke-miterlimit: 10.000000;fill: none;"></path>
  <path d="M4.000000 37.976390C4.000000 61.705404,17.078374 83.502695,38.015740 94.669290" style="stroke:rgb(0.000000%,0.000000%,0.000000%); stroke-width: 8.000000;stroke-linecap: round;stroke-linejoin: round;stroke-miterlimit: 10.000000;fill: none;"></path>
</svg>
