<?xml version="1.0"?>
<!-- Created by MetaPost 2.000 on 2020.07.05:0552 -->
<svg version="1.1" xmlns="http://www.w3.org/2000/svg" xmlns:xlink="http://www.w3.org/1999/xlink" width="59.023610" height="93.039350" viewBox="0 0 59.023610 93.039350">
<!-- Original BoundingBox: -4.000000 -4.000000 55.023610 89.039350 -->
  <path d="M23.842515 3.960650L4.000000 89.000000" style="stroke:rgb(0.000000%,0.000000%,0.000000%); stroke-width: 8.000000;stroke-linecap: round;stroke-linejoin: round;stroke-miterlimit: 10.000000;fill: none;"></path>
  <path d="M55.023610 89.000000L35.181095 3.960650" style="stroke:rgb(0.000000%,0.000000%,0.000000%); stroke-width: 8.000000;stroke-linecap: round;stroke-linejoin: round;stroke-miterlimit: 10.000000;fill: none;"></path>
  <path d="M18.173225 60.653550L40.850385 60.653550" style="stroke:rgb(0.000000%,0.000000%,0.000000%); stroke-width: 8.000000;stroke-linecap: round;stroke-linejoin: round;stroke-miterlimit: 10.000000;fill: none;"></path>
</svg>
