<?xml version="1.0"?>
<!-- Created by MetaPost 2.000 on 2020.07.05:0610 -->
<svg version="1.1" xmlns="http://www.w3.org/2000/svg" xmlns:xlink="http://www.w3.org/1999/xlink" width="59.023610" height="93.039350" viewBox="0 0 59.023610 93.039350">
<!-- Original BoundingBox: -4.000000 -4.000000 55.023610 89.039350 -->
  <path d="M4.000000 40.811035L4.000000 63.488195C4.000000 77.577976,15.422024 89.000000,29.511805 89.000000C43.601586 89.000000,55.023610 77.577976,55.023610 63.488195" style="stroke:rgb(0.000000%,0.000000%,0.000000%); stroke-width: 8.000000;stroke-linecap: round;stroke-linejoin: round;stroke-miterlimit: 10.000000;fill: none;"></path>
  <path d="M4.000000 29.472455C4.000000 15.382674,15.422024 3.960650,29.511805 3.960650C43.601586 3.960650,55.023610 15.382674,55.023610 29.472455" style="stroke:rgb(0.000000%,0.000000%,0.000000%); stroke-width: 8.000000;stroke-linecap: round;stroke-linejoin: round;stroke-miterlimit: 10.000000;fill: none;"></path>
</svg>
