prologues:=3;
outputformat:="mps";
outputtemplate:=("%j" & "." & outputformat);
verbatimtex
%&latex
\documentclass{minimal}
\begin{document}
etex
beginfig(0);
u = 2cm;

z1 = (5u, 5u);
z2 = (2.5u, 6u);
z3 = (0u, 3u);
z4 = (2.5u, 0u);
z5 = (4.75u, 1u);
z6 = (5u, 9.5u);
z7 = (5u, 3.25u);
z8 = (6u, 0u);
z9 = (3.9u, 9.25u);
z10 = (5.25u, 10u);

pickup pencircle scaled 25;
draw z1..z2..z3..z4..z5;
draw z9{dir 50}..{dir 50}z10--z6--z7{dir 200}..{dir 330}z8;
endfig;
end