<?xml version="1.0" encoding="UTF-8" standalone="no"?>
<!-- Created by MetaPost 2.000 on 2020.02.01:1216 -->

<svg
   xmlns:dc="http://purl.org/dc/elements/1.1/"
   xmlns:cc="http://creativecommons.org/ns#"
   xmlns:rdf="http://www.w3.org/1999/02/22-rdf-syntax-ns#"
   xmlns:svg="http://www.w3.org/2000/svg"
   xmlns="http://www.w3.org/2000/svg"
   xmlns:sodipodi="http://sodipodi.sourceforge.net/DTD/sodipodi-0.dtd"
   xmlns:inkscape="http://www.inkscape.org/namespaces/inkscape"
   version="1.1"
   width="322.637725"
   height="365.157400"
   viewBox="0 0 322.637725 365.157400"
   id="svg4"
   sodipodi:docname="122.svg"
   inkscape:version="0.92.3 (2405546, 2018-03-11)">
  <metadata
     id="metadata10">
    <rdf:RDF>
      <cc:Work
         rdf:about="">
        <dc:format>image/svg+xml</dc:format>
        <dc:type
           rdf:resource="http://purl.org/dc/dcmitype/StillImage" />
      </cc:Work>
    </rdf:RDF>
  </metadata>
  <defs
     id="defs8" />
  <sodipodi:namedview
     pagecolor="#ffffff"
     bordercolor="#666666"
     borderopacity="1"
     objecttolerance="10"
     gridtolerance="10"
     guidetolerance="10"
     inkscape:pageopacity="0"
     inkscape:pageshadow="2"
     inkscape:window-width="924"
     inkscape:window-height="480"
     id="namedview6"
     showgrid="false"
     inkscape:zoom="0.64629662"
     inkscape:cx="161.31886"
     inkscape:cy="182.5787"
     inkscape:window-x="67"
     inkscape:window-y="27"
     inkscape:window-maximized="0"
     inkscape:current-layer="svg4" />
  <!-- Original BoundingBox: -12.500000 -12.500000 310.137725 352.657400 -->
  <path
     d="M12.000000 68.535500L54.519675 11.842600L295.464500 11.842600C146.676870 65.996868,160.787630 297.845732,12.000000 352.000000L224.598375 352.000000L309.637725 295.307100"
     style="stroke:none;stroke-width:25;stroke-linecap:round;stroke-linejoin:round;stroke-miterlimit:10;fill:none"
     id="path2" />
</svg>
