prologues:=3;
outputformat:="mps";
outputtemplate:=("%j" & "." & outputformat);
verbatimtex
%&latex
\documentclass{minimal}
\begin{document}
etex
beginfig(0);
u = 2cm;

z2 = (1u, 5.5u);
z3 = (-0.25u, 7u);
z4 = (1u, 8.5u);
z5 = (2.25u, 7u);
z12 = (5u, 0u);
z13 = (3.75u, 1.5u);
z14 = (5u, 3u);
z15 = (6.25u, 1.5u);
z1 = (4.75u, 8.5u);
z6 = (1u, 0u);
pickup pencircle scaled 25;

draw z12..z13..z14..z15..cycle;
draw z2..z3..z4..z5..cycle;
draw z1{dir 280}..{dir 280}z6;
endfig;
end