<?xml version="1.0" encoding="UTF-8" standalone="no"?>
<!-- Created by MetaPost 2.000 on 2020.02.02:0736 -->

<svg
   xmlns:dc="http://purl.org/dc/elements/1.1/"
   xmlns:cc="http://creativecommons.org/ns#"
   xmlns:rdf="http://www.w3.org/1999/02/22-rdf-syntax-ns#"
   xmlns:svg="http://www.w3.org/2000/svg"
   xmlns="http://www.w3.org/2000/svg"
   xmlns:sodipodi="http://sodipodi.sourceforge.net/DTD/sodipodi-0.dtd"
   xmlns:inkscape="http://www.inkscape.org/namespaces/inkscape"
   version="1.1"
   width="288.738708"
   height="427.556518"
   viewBox="0 0 288.738708 427.556518"
   id="svg6"
   sodipodi:docname="53.svg"
   inkscape:version="0.92.3 (2405546, 2018-03-11)">
  <metadata
     id="metadata12">
    <rdf:RDF>
      <cc:Work
         rdf:about="">
        <dc:format>image/svg+xml</dc:format>
        <dc:type
           rdf:resource="http://purl.org/dc/dcmitype/StillImage" />
      </cc:Work>
    </rdf:RDF>
  </metadata>
  <defs
     id="defs10" />
  <sodipodi:namedview
     pagecolor="#ffffff"
     bordercolor="#666666"
     borderopacity="1"
     objecttolerance="10"
     gridtolerance="10"
     guidetolerance="10"
     inkscape:pageopacity="0"
     inkscape:pageshadow="2"
     inkscape:window-width="924"
     inkscape:window-height="480"
     id="namedview8"
     showgrid="false"
     inkscape:zoom="0.55197381"
     inkscape:cx="144.36935"
     inkscape:cy="213.77826"
     inkscape:window-x="67"
     inkscape:window-y="27"
     inkscape:window-maximized="0"
     inkscape:current-layer="svg6" />
  <!-- Original BoundingBox: 15.846450 -18.206218 288.738708 409.350300 -->
  <path
     d="M255.118050 12.149700C236.943943 115.220182,89.040232 115.220182,70.866125 12.149700L42.519675 196.401625"
     style="stroke:none;stroke-width:25;stroke-linecap:round;stroke-linejoin:round;stroke-miterlimit:10;fill:none"
     id="path2" />
  <path
     d="M42.519675 196.401625C64.991386 172.679088,95.097969 157.625796,127.559025 153.881950C189.478231 146.740593,249.530289 180.524421,269.291275 238.921300C298.160685 324.235033,233.462079 412.475826,141.732250 414.669290C95.474707 415.775411,52.183612 391.965308,28.346450 352.307100"
     style="stroke:none;stroke-width:25;stroke-linecap:round;stroke-linejoin:round;stroke-miterlimit:10;fill:none"
     id="path4" />
</svg>
