<?xml version="1.0" encoding="UTF-8" standalone="no"?>
<!-- Created by MetaPost 2.000 on 2020.02.01:0946 -->

<svg
   xmlns:dc="http://purl.org/dc/elements/1.1/"
   xmlns:cc="http://creativecommons.org/ns#"
   xmlns:rdf="http://www.w3.org/1999/02/22-rdf-syntax-ns#"
   xmlns:svg="http://www.w3.org/2000/svg"
   xmlns="http://www.w3.org/2000/svg"
   xmlns:sodipodi="http://sodipodi.sourceforge.net/DTD/sodipodi-0.dtd"
   xmlns:inkscape="http://www.inkscape.org/namespaces/inkscape"
   version="1.1"
   width="365.157400"
   height="535.236100"
   viewBox="0 0 365.157400 535.236100"
   id="svg14"
   sodipodi:docname="75.svg"
   inkscape:version="0.92.3 (2405546, 2018-03-11)">
  <metadata
     id="metadata20">
    <rdf:RDF>
      <cc:Work
         rdf:about="">
        <dc:format>image/svg+xml</dc:format>
        <dc:type
           rdf:resource="http://purl.org/dc/dcmitype/StillImage" />
      </cc:Work>
    </rdf:RDF>
  </metadata>
  <defs
     id="defs18" />
  <sodipodi:namedview
     pagecolor="#ffffff"
     bordercolor="#666666"
     borderopacity="1"
     objecttolerance="10"
     gridtolerance="10"
     guidetolerance="10"
     inkscape:pageopacity="0"
     inkscape:pageshadow="2"
     inkscape:window-width="924"
     inkscape:window-height="480"
     id="namedview16"
     showgrid="false"
     inkscape:zoom="0.44092692"
     inkscape:cx="182.5787"
     inkscape:cy="267.61804"
     inkscape:window-x="67"
     inkscape:window-y="27"
     inkscape:window-maximized="0"
     inkscape:current-layer="svg14" />
  <!-- Original BoundingBox: -12.500000 -12.500000 352.657400 522.736100 -->
  <path
     d="M68.692900 522.000000L68.692900 11.763900"
     style="stroke:none;stroke-width:25;stroke-linecap:round;stroke-linejoin:round;stroke-miterlimit:10;fill:none"
     id="path2" />
  <path
     d="M12.000000 11.763900L125.385800 11.763900"
     style="stroke:none;stroke-width:25;stroke-linecap:round;stroke-linejoin:round;stroke-miterlimit:10;fill:none"
     id="path4" />
  <path
     d="M12.000000 522.000000L125.385800 522.000000"
     style="stroke:none;stroke-width:25;stroke-linecap:round;stroke-linejoin:round;stroke-miterlimit:10;fill:none"
     id="path6" />
  <path
     d="M295.464500 522.000000C319.483684 247.459466,163.644137 68.684122,68.692900 181.842600C-76.753298 355.178629,208.373708 162.609576,295.464500 11.763900"
     style="stroke:none;stroke-width:25;stroke-linecap:round;stroke-linejoin:round;stroke-miterlimit:10;fill:none"
     id="path8" />
  <path
     d="M238.771600 11.763900L352.157400 11.763900"
     style="stroke:none;stroke-width:25;stroke-linecap:round;stroke-linejoin:round;stroke-miterlimit:10;fill:none"
     id="path10" />
  <path
     d="M238.771600 522.000000L352.157400 522.000000"
     style="stroke:none;stroke-width:25;stroke-linecap:round;stroke-linejoin:round;stroke-miterlimit:10;fill:none"
     id="path12" />
</svg>
