prologues:=3;
outputformat:="mps";
outputtemplate:=("%j" & "." & outputformat);
verbatimtex
%&latex
\documentclass{minimal}
\begin{document}
etex
beginfig(0);
u = 2cm;

z1 = (1u, 0u);
z2 = (1u, 9u);
z3 = (0u, 9u);
z4 = (2u, 9u);
z8 = (0u, 0u);
z9 = (1u, 0u);
z10 = (5u, 1.5u);
z14 = (6u, 0u);

pickup pencircle scaled 25;
draw z1--z2;
draw z3--z4;
draw z8--z9{dir 0}..z10..{dir 270}z14;
endfig;
end