prologues:=3;
outputformat:="mps";
outputtemplate:=("%j" & "." & outputformat);
verbatimtex
%&latex
\documentclass{minimal}
\begin{document}
etex
beginfig(0);
u = 2cm;

z1 = (1u, 0u);
z2 = (1u, 9u);
z3 = (0u, 9u);
z4 = (2u, 9u);
z8 = (0u, 0u);
z9 = (2u, 0u);
z5 = (4.5u, 0u);
z6 = (4.5u, 9u);
z7 = (3.5u, 9u);
z10 = (5.5u, 9u);

pickup pencircle scaled 25;
draw z1--z2;
draw z3--z2{dir 320}..{dir 340}z5;
draw z8--z9;
draw z5--z6;
draw z7--z10;
endfig;
end