prologues:=3;
outputformat:="mps";
outputtemplate:=("%j" & "." & outputformat);
verbatimtex
%&latex
\documentclass{minimal}
\begin{document}
etex
beginfig(0);
u = 2cm;

z1 = (1.25u, 5u);
z2 = (3u, 6u);
z3 = (4.75u, 4.25u);
z4 = (4.75u, 2u);
z5 = (5.5u, 0u);
z6 = (4.75u, 3.5u);
z7 = (1.75u, 2.5u);
z8 = (2.5u, 0u);
z9 = (4.75u, 1.5u);

pickup pencircle scaled 25;
draw z1..z2..z3--z4{dir 270}..{dir 320}z5;
draw z6{dir 270}..z7..z8..{dir 345}z9;
endfig;
end