<?xml version="1.0" encoding="UTF-8"?>
<glyph name="uacute" format="1">
  <advance width="626"/>
  <unicode hex="00FA"/>
  <outline>
    <contour>
      <point x="150.9" y="601.5" type="line"/>
      <point x="148.537" y="607.015" type="line"/>
      <point x="456.537" y="739.015" type="line"/>
      <point x="458.9" y="733.5" type="line"/>
      <point x="461.264" y="727.985" type="line"/>
      <point x="153.264" y="595.985" type="line"/>
    </contour>
    <contour>
      <point x="164.1" y="579.5" type="line"/>
      <point x="161.736" y="585.015" type="line"/>
      <point x="469.736" y="586.015" type="line"/>
      <point x="472.1" y="580.5" type="line"/>
      <point x="474.463" y="574.985" type="line"/>
      <point x="166.463" y="573.985" type="line"/>
    </contour>
    <contour>
      <point x="509.6" y="3" type="line"/>
      <point x="503.6" y="3" type="line"/>
      <point x="503.6" y="509" type="line"/>
      <point x="509.6" y="509" type="line"/>
      <point x="515.6" y="509" type="line"/>
      <point x="515.6" y="3" type="line"/>
    </contour>
    <contour>
      <point x="536" y="3" type="line"/>
      <point x="530" y="3" type="line"/>
      <point x="530" y="509" type="line"/>
      <point x="536" y="509" type="line"/>
      <point x="542" y="509" type="line"/>
      <point x="542" y="3" type="line"/>
    </contour>
    <contour>
      <point x="91.5996" y="509" type="line"/>
      <point x="97.5996" y="509" type="line"/>
      <point x="97.5996" y="92.9092" type="line"/>
      <point x="148.554" y="20.9434" type="line"/>
      <point x="232.336" y="0.392578" type="line"/>
      <point x="351.688" y="32.2549" type="line"/>
      <point x="506.688" y="118.247" type="line"/>
      <point x="509.6" y="113" type="line"/>
      <point x="512.511" y="107.753" type="line"/>
      <point x="356.861" y="21.4023" type="line" smooth="yes"/>
      <point x="356.528" y="21.2178"/>
      <point x="355.96" y="20.9756"/>
      <point x="355.498" y="20.8525" type="curve" smooth="yes"/>
      <point x="233.947" y="-11.5977" type="line" smooth="yes"/>
      <point x="233.01" y="-11.8477"/>
      <point x="231.945" y="-11.8672"/>
      <point x="230.97" y="-11.6279" type="curve" smooth="yes"/>
      <point x="143.521" y="9.82227" type="line" smooth="yes"/>
      <point x="142.187" y="10.1494"/>
      <point x="140.887" y="11.0059"/>
      <point x="140.054" y="12.1826" type="curve" smooth="yes"/>
      <point x="86.7031" y="87.5332" type="line" smooth="yes"/>
      <point x="86.1006" y="88.3838"/>
      <point x="85.5996" y="89.7529"/>
      <point x="85.5996" y="91" type="curve" smooth="yes"/>
      <point x="85.5996" y="509" type="line"/>
    </contour>
    <contour>
      <point x="118" y="509" type="line"/>
      <point x="124" y="509" type="line"/>
      <point x="124" y="254" type="line"/>
      <point x="118" y="254" type="line"/>
      <point x="112" y="254" type="line"/>
      <point x="112" y="509" type="line"/>
    </contour>
    <contour>
      <point x="118" y="254" type="line"/>
      <point x="122.112" y="258.369" type="line"/>
      <point x="209" y="148" type="line"/>
      <point x="393" y="82" type="line"/>
      <point x="506.493" y="148.933" type="line"/>
      <point x="509.6" y="143.8" type="line"/>
      <point x="512.706" y="138.667" type="line"/>
      <point x="398.178" y="71.1074" type="line" smooth="yes"/>
      <point x="397.579" y="70.7441"/>
      <point x="396.562" y="70.0537"/>
      <point x="395.944" y="70.3037" type="curve" smooth="yes"/>
      <point x="207.874" y="136.705" type="line" smooth="yes"/>
      <point x="206.379" y="137.177"/>
      <point x="204.214" y="136.025"/>
      <point x="202.889" y="137.272" type="curve" smooth="yes"/>
      <point x="113.888" y="249.631" type="line"/>
    </contour>
  </outline>
</glyph>
