<?xml version="1.0" encoding="UTF-8"?>
<glyph name="D_E" format="2">
  <advance width="1098"/>
  <unicode hex="F1610"/>
  <outline>
    <contour>
      <point x="575" y="801" type="qcurve" smooth="yes"/>
      <point x="575" y="810"/>
      <point x="584" y="825"/>
      <point x="600" y="835"/>
      <point x="609" y="835" type="qcurve" smooth="yes"/>
      <point x="970" y="835" type="line" smooth="yes"/>
      <point x="984" y="835"/>
      <point x="1004" y="815"/>
      <point x="1004" y="787"/>
      <point x="984" y="767"/>
      <point x="970" y="767" type="qcurve" smooth="yes"/>
      <point x="609" y="767" type="line" smooth="yes"/>
      <point x="602" y="767"/>
      <point x="590" y="772"/>
      <point x="581" y="781"/>
      <point x="575" y="794"/>
    </contour>
    <contour>
      <point x="1004" y="27" type="qcurve" smooth="yes"/>
      <point x="1004" y="13"/>
      <point x="984" y="-7"/>
      <point x="970" y="-7" type="qcurve" smooth="yes"/>
      <point x="609" y="-7" type="line" smooth="yes"/>
      <point x="595" y="-7"/>
      <point x="575" y="13"/>
      <point x="575" y="41"/>
      <point x="595" y="61"/>
      <point x="609" y="61" type="qcurve" smooth="yes"/>
      <point x="970" y="61" type="line" smooth="yes"/>
      <point x="979" y="61"/>
      <point x="995" y="52"/>
      <point x="1004" y="37"/>
    </contour>
    <contour>
      <point x="144" y="836" type="qcurve" smooth="yes"/>
      <point x="158" y="836"/>
      <point x="178" y="816"/>
      <point x="178" y="802" type="qcurve" smooth="yes"/>
      <point x="178" y="28" type="line" smooth="yes"/>
      <point x="178" y="14"/>
      <point x="158" y="-6"/>
      <point x="130" y="-6"/>
      <point x="110" y="14"/>
      <point x="110" y="28" type="qcurve" smooth="yes"/>
      <point x="110" y="802" type="line" smooth="yes"/>
      <point x="110" y="811"/>
      <point x="119" y="826"/>
      <point x="135" y="836"/>
    </contour>
    <contour>
      <point x="214" y="818"/>
      <point x="236" y="836"/>
      <point x="250" y="835" type="qcurve" smooth="yes"/>
      <point x="358" y="828"/>
      <point x="539" y="712"/>
      <point x="590.5" y="618" type="qcurve" smooth="yes"/>
      <point x="634.121" y="538.381"/>
      <point x="640.795" y="448" type="qcurve"/>
      <point x="970" y="448" type="line" smooth="yes"/>
      <point x="984" y="448"/>
      <point x="1004" y="428"/>
      <point x="1004" y="400"/>
      <point x="984" y="380"/>
      <point x="970" y="380" type="qcurve" smooth="yes"/>
      <point x="640.642" y="380" type="line"/>
      <point x="633.638" y="290.738"/>
      <point x="590.5" y="212" type="qcurve" smooth="yes"/>
      <point x="539" y="118"/>
      <point x="358" y="2"/>
      <point x="250" y="-5" type="qcurve" smooth="yes"/>
      <point x="236" y="-6"/>
      <point x="214" y="12"/>
      <point x="212" y="40"/>
      <point x="231" y="61"/>
      <point x="245" y="62" type="qcurve" smooth="yes"/>
      <point x="384" y="72"/>
      <point x="574" y="276"/>
      <point x="574" y="554"/>
      <point x="384" y="758"/>
      <point x="245" y="768" type="qcurve" smooth="yes"/>
      <point x="231" y="769"/>
      <point x="212" y="790"/>
    </contour>
  </outline>
</glyph>
