<?xml version="1.0" encoding="UTF-8"?>
<glyph name="ntilde" format="2">
  <advance width="700"/>
  <unicode hex="00F1"/>
  <outline>
    <contour>
      <point x="172" y="684" type="qcurve" smooth="yes"/>
      <point x="158" y="684"/>
      <point x="138" y="704"/>
      <point x="138" y="718" type="qcurve" smooth="yes"/>
      <point x="138" y="721"/>
      <point x="138" y="732"/>
      <point x="138" y="733" type="qcurve" smooth="yes"/>
      <point x="142" y="875"/>
      <point x="298" y="796" type="qcurve" smooth="yes"/>
      <point x="328" y="781"/>
      <point x="434" y="712" type="qcurve" smooth="yes"/>
      <point x="479" y="683"/>
      <point x="491" y="683" type="qcurve" smooth="yes"/>
      <point x="493" y="683" type="line"/>
      <point x="498" y="689"/>
      <point x="498" y="718" type="qcurve" smooth="yes"/>
      <point x="498" y="727"/>
      <point x="508" y="743"/>
      <point x="523" y="752"/>
      <point x="532" y="752" type="qcurve" smooth="yes"/>
      <point x="546" y="752"/>
      <point x="566" y="732"/>
      <point x="566" y="718" type="qcurve" smooth="yes"/>
      <point x="566" y="673"/>
      <point x="528" y="614"/>
      <point x="491" y="615" type="qcurve" smooth="yes"/>
      <point x="468" y="615"/>
      <point x="235" y="760"/>
      <point x="219" y="760" type="qcurve" smooth="yes"/>
      <point x="206" y="760"/>
      <point x="206" y="718" type="qcurve" smooth="yes"/>
      <point x="206" y="709"/>
      <point x="196" y="693"/>
      <point x="181" y="684"/>
    </contour>
    <contour>
      <point x="195" y="327"/>
      <point x="185" y="337.5" type="qcurve" smooth="yes"/>
      <point x="181.325" y="341.359"/>
      <point x="179" y="345.556" type="qcurve"/>
      <point x="179" y="28" type="line" smooth="yes"/>
      <point x="179" y="14"/>
      <point x="159" y="-6"/>
      <point x="131" y="-6"/>
      <point x="111" y="14"/>
      <point x="111" y="28" type="qcurve" smooth="yes"/>
      <point x="111" y="541" type="line" smooth="yes"/>
      <point x="111" y="555"/>
      <point x="131" y="575"/>
      <point x="159" y="575"/>
      <point x="179" y="555"/>
      <point x="179" y="541" type="qcurve" smooth="yes"/>
      <point x="179" y="405.063" type="line"/>
      <point x="188.711" y="456.796"/>
      <point x="222" y="500" type="qcurve" smooth="yes"/>
      <point x="269" y="561"/>
      <point x="344" y="575" type="qcurve" smooth="yes"/>
      <point x="362" y="578"/>
      <point x="379" y="578" type="qcurve" smooth="yes"/>
      <point x="466" y="578"/>
      <point x="589" y="451"/>
      <point x="589" y="361" type="qcurve" smooth="yes"/>
      <point x="589" y="28" type="line" smooth="yes"/>
      <point x="589" y="14"/>
      <point x="569" y="-6"/>
      <point x="541" y="-6"/>
      <point x="521" y="14"/>
      <point x="521" y="28" type="qcurve" smooth="yes"/>
      <point x="521" y="361" type="line" smooth="yes"/>
      <point x="521" y="424"/>
      <point x="437" y="510"/>
      <point x="380" y="510" type="qcurve" smooth="yes"/>
      <point x="368" y="510"/>
      <point x="356" y="508" type="qcurve" smooth="yes"/>
      <point x="307" y="499"/>
      <point x="243" y="416"/>
      <point x="243" y="361" type="qcurve" smooth="yes"/>
      <point x="243" y="348"/>
      <point x="223" y="327"/>
    </contour>
  </outline>
</glyph>
